{
    "name": "barboach",
    "nationalPokedexNumber": 339,
    "primaryType": "water",
    "secondaryType": "ground",
    "abilities": [
        "oblivious",
        "anticipation",
        "h:hydration"
    ],
    "baseStats": {
        "hp": 50,
        "attack": 48,
        "defence": 43,
        "special_attack": 46,
        "special_defence": 41,
        "speed": 60
    },
    "catchRate": 190,
    "maleRatio": 0.5,
    "shoulderMountable": false,
    "baseExperienceYield": 58,
    "baseFriendship": 50,
    "evYield": {
        "hp": 1
    },
    "experienceGroup": "mediumfast",
    "eggCycles": 20,
    "eggGroups": [
        "water_2"
    ],
    "moves": [
        "1:watergun",
        "1:mudslap",
        "6:rest",
        "6:snore",
        "6:mudsport",
        "6:watersport",
        "12:waterpulse",
        "13:mudbomb",
        "18:amnesia",
        "20:magnitude",
        "24:aquatail",
        "31:muddywater",
        "36:earthquake",
        "42:futuresight",
        "48:fissure",
        "egg:flail",
        "egg:spark",
        "egg:takedown",
        "egg:thrash",
        "tm:amnesia",
        "tm:attract",
        "tm:blizzard",
        "tm:bounce",
        "tm:bulldoze",
        "tm:captivate",
        "tm:confide",
        "tm:dive",
        "tm:doubleteam",
        "tm:dragondance",
        "tm:earthpower",
        "tm:earthquake",
        "tm:endure",
        "tm:facade",
        "tm:frustration",
        "tm:futuresight",
        "tm:hail",
        "tm:hiddenpower",
        "tm:hydropump",
        "tm:icebeam",
        "tm:icywind",
        "tm:muddywater",
        "tm:mudshot",
        "tm:naturalgift",
        "tm:protect",
        "tm:raindance",
        "tm:rest",
        "tm:return",
        "tm:rocktomb",
        "tm:round",
        "tm:sandstorm",
        "tm:scald",
        "tm:secretpower",
        "tm:sleeptalk",
        "tm:snore",
        "tm:substitute",
        "tm:surf",
        "tm:swagger",
        "tm:toxic",
        "tm:waterfall",
        "tm:whirlpool",
        "tutor:doubleedge",
        "tutor:headbutt",
        "tutor:mimic"
    ],
    "labels": [
        "gen3"
    ],
    "pokedex": [
        "pokemoncobbled.species.barboach.desc1",
        "pokemoncobbled.species.barboach.desc2"
    ],
    "height": 4,
    "weight": 19,
    "baseScale": 1.0,
    "hitbox": {
        "width": 1.0,
        "height": 1.0,
        "fixed": false
    },
    "evolutions": [
        {
            "id": "barboach_whiscash",
            "variant": "level_up",
            "result": "whiscash",
            "consumeHeldItem": false,
            "learnableMoves": [],
            "requirements": [
                {
                    "variant": "level",
                    "minLevel": 30
                }
            ]
        }
    ],
    "forms": []
}