{
    "name": "latias",
    "nationalPokedexNumber": 380,
    "primaryType": "dragon",
    "secondaryType": "psychic",
    "abilities": [
        "levitate"
    ],
    "baseStats": {
        "hp": 80,
        "attack": 80,
        "defence": 90,
        "special_attack": 110,
        "special_defence": 130,
        "speed": 110
    },
    "catchRate": 3,
    "maleRatio": 0.0,
    "shoulderMountable": false,
    "baseExperienceYield": 300,
    "baseFriendship": 90,
    "evYield": {
        "special_defence": 3
    },
    "experienceGroup": "slow",
    "eggCycles": 120,
    "eggGroups": [
        "undiscovered"
    ],
    "moves": [
        "1:psywave",
        "1:charm",
        "1:storedpower",
        "4:watersport",
        "5:helpinghand",
        "10:recover",
        "13:refresh",
        "15:confusion",
        "20:tailwind",
        "25:dragonbreath",
        "30:wish",
        "35:mistball",
        "40:zenheadbutt",
        "45:dragonpulse",
        "50:healpulse",
        "55:reflecttype",
        "60:psychic",
        "65:guardsplit",
        "70:healingwish",
        "75:psychoshift",
        "tm:aerialace",
        "tm:agility",
        "tm:airslash",
        "tm:allyswitch",
        "tm:attract",
        "tm:aurasphere",
        "tm:batonpass",
        "tm:bodyslam",
        "tm:breakingswipe",
        "tm:bulldoze",
        "tm:calmmind",
        "tm:captivate",
        "tm:chargebeam",
        "tm:charm",
        "tm:confide",
        "tm:cut",
        "tm:dive",
        "tm:doubleteam",
        "tm:dragonclaw",
        "tm:dragondance",
        "tm:dragonpulse",
        "tm:dreameater",
        "tm:earthquake",
        "tm:endure",
        "tm:energyball",
        "tm:facade",
        "tm:flash",
        "tm:fly",
        "tm:frustration",
        "tm:futuresight",
        "tm:gigaimpact",
        "tm:grassknot",
        "tm:helpinghand",
        "tm:hiddenpower",
        "tm:honeclaws",
        "tm:hyperbeam",
        "tm:icebeam",
        "tm:icywind",
        "tm:lightscreen",
        "tm:magicroom",
        "tm:mysticalfire",
        "tm:naturalgift",
        "tm:outrage",
        "tm:protect",
        "tm:psychic",
        "tm:psychocut",
        "tm:psychup",
        "tm:psyshock",
        "tm:raindance",
        "tm:reflect",
        "tm:rest",
        "tm:retaliate",
        "tm:return",
        "tm:roar",
        "tm:roost",
        "tm:round",
        "tm:safeguard",
        "tm:sandstorm",
        "tm:secretpower",
        "tm:shadowball",
        "tm:shadowclaw",
        "tm:sleeptalk",
        "tm:snore",
        "tm:solarbeam",
        "tm:steelwing",
        "tm:storedpower",
        "tm:substitute",
        "tm:sunnyday",
        "tm:surf",
        "tm:swagger",
        "tm:swift",
        "tm:thunder",
        "tm:thunderbolt",
        "tm:thunderwave",
        "tm:toxic",
        "tm:triattack",
        "tm:trick",
        "tm:waterfall",
        "tm:whirlpool",
        "tm:zenheadbutt",
        "tutor:covet",
        "tutor:defog",
        "tutor:doubleedge",
        "tutor:dracometeor",
        "tutor:dualwingbeat",
        "tutor:furycutter",
        "tutor:laserfocus",
        "tutor:lastresort",
        "tutor:magiccoat",
        "tutor:mimic",
        "tutor:mudslap",
        "tutor:roleplay",
        "tutor:scaleshot",
        "tutor:shockwave",
        "tutor:suckerpunch",
        "tutor:telekinesis",
        "tutor:twister",
        "tutor:waterpulse"
    ],
    "labels": [
        "gen3",
        "legendary"
    ],
    "pokedex": [
        "pokemoncobbled.species.latias.desc1",
        "pokemoncobbled.species.latias.desc2"
    ],
    "height": 14,
    "weight": 400,
    "baseScale": 1.0,
    "hitbox": {
        "width": 1.0,
        "height": 1.0,
        "fixed": false
    },
    "evolutions": [],
    "forms": [
        {
            "name": "mega",
            "baseStats": {
                "hp": 80,
                "attack": 100,
                "defence": 120,
                "special_attack": 140,
                "special_defence": 150,
                "speed": 110
            },
            "baseExperienceYield": 315,
            "moves": [
                "1:psywave",
                "1:safeguard",
                "1:helpinghand",
                "1:wish",
                "1:healingwish",
                "4:watersport",
                "7:charm",
                "10:storedpower",
                "13:refresh",
                "16:healpulse",
                "20:dragonbreath",
                "24:mistball",
                "28:psychoshift",
                "32:recover",
                "36:reflecttype",
                "41:zenheadbutt",
                "46:guardsplit",
                "51:psychic",
                "56:dragonpulse",
                "61:healingwish",
                "tm:aerialace",
                "tm:attract",
                "tm:bulldoze",
                "tm:calmmind",
                "tm:chargebeam",
                "tm:confide",
                "tm:cut",
                "tm:dive",
                "tm:doubleteam",
                "tm:dragonclaw",
                "tm:dreameater",
                "tm:earthquake",
                "tm:energyball",
                "tm:facade",
                "tm:flash",
                "tm:fly",
                "tm:frustration",
                "tm:gigaimpact",
                "tm:grassknot",
                "tm:hiddenpower",
                "tm:honeclaws",
                "tm:hyperbeam",
                "tm:icebeam",
                "tm:lightscreen",
                "tm:protect",
                "tm:psychic",
                "tm:psychup",
                "tm:psyshock",
                "tm:raindance",
                "tm:reflect",
                "tm:rest",
                "tm:retaliate",
                "tm:return",
                "tm:roar",
                "tm:roost",
                "tm:round",
                "tm:safeguard",
                "tm:sandstorm",
                "tm:secretpower",
                "tm:shadowball",
                "tm:shadowclaw",
                "tm:sleeptalk",
                "tm:solarbeam",
                "tm:steelwing",
                "tm:substitute",
                "tm:sunnyday",
                "tm:surf",
                "tm:swagger",
                "tm:thunder",
                "tm:thunderbolt",
                "tm:thunderwave",
                "tm:toxic",
                "tm:waterfall",
                "tutor:allyswitch",
                "tutor:covet",
                "tutor:defog",
                "tutor:dracometeor",
                "tutor:dragonpulse",
                "tutor:helpinghand",
                "tutor:icywind",
                "tutor:laserfocus",
                "tutor:lastresort",
                "tutor:magiccoat",
                "tutor:magicroom",
                "tutor:outrage",
                "tutor:roleplay",
                "tutor:shockwave",
                "tutor:snore",
                "tutor:tailwind",
                "tutor:telekinesis",
                "tutor:trick",
                "tutor:waterpulse",
                "tutor:zenheadbutt"
            ],
            "labels": [
                "gen3",
                "legendary",
                "mega_evolution"
            ],
            "pokedex": [
                "pokemoncobbled.form.latias-mega.desc1",
                "pokemoncobbled.form.latias-mega.desc2"
            ],
            "height": 18,
            "weight": 520
        }
    ]
}