{
    "name": "loudred",
    "nationalPokedexNumber": 294,
    "primaryType": "normal",
    "abilities": [
        "soundproof",
        "h:scrappy"
    ],
    "baseStats": {
        "hp": 84,
        "attack": 71,
        "defence": 43,
        "special_attack": 71,
        "special_defence": 43,
        "speed": 48
    },
    "catchRate": 120,
    "maleRatio": 0.5,
    "shoulderMountable": false,
    "baseExperienceYield": 126,
    "baseFriendship": 50,
    "evYield": {
        "hp": 2
    },
    "experienceGroup": "mediumslow",
    "eggCycles": 20,
    "eggGroups": [
        "monster",
        "field"
    ],
    "moves": [
        "0:bite",
        "1:pound",
        "1:bite",
        "1:astonish",
        "1:howl",
        "1:echoedvoice",
        "15:rest",
        "15:sleeptalk",
        "23:stomp",
        "29:roar",
        "36:supersonic",
        "43:uproar",
        "50:screech",
        "50:synchronoise",
        "57:hypervoice",
        "tm:attract",
        "tm:blizzard",
        "tm:bodyslam",
        "tm:brickbreak",
        "tm:bulldoze",
        "tm:captivate",
        "tm:confide",
        "tm:doubleteam",
        "tm:earthquake",
        "tm:endure",
        "tm:facade",
        "tm:faketears",
        "tm:fireblast",
        "tm:firepunch",
        "tm:flamethrower",
        "tm:fling",
        "tm:frustration",
        "tm:hiddenpower",
        "tm:hypervoice",
        "tm:icebeam",
        "tm:icepunch",
        "tm:icywind",
        "tm:incinerate",
        "tm:lowkick",
        "tm:megakick",
        "tm:megapunch",
        "tm:naturalgift",
        "tm:overheat",
        "tm:poweruppunch",
        "tm:protect",
        "tm:raindance",
        "tm:rest",
        "tm:retaliate",
        "tm:return",
        "tm:rockslide",
        "tm:rocksmash",
        "tm:rocktomb",
        "tm:round",
        "tm:screech",
        "tm:secretpower",
        "tm:shadowball",
        "tm:sleeptalk",
        "tm:smackdown",
        "tm:snore",
        "tm:solarbeam",
        "tm:stompingtantrum",
        "tm:strength",
        "tm:substitute",
        "tm:sunnyday",
        "tm:swagger",
        "tm:taunt",
        "tm:thunderpunch",
        "tm:torment",
        "tm:toxic",
        "tm:uproar",
        "tm:workup",
        "tm:zenheadbutt",
        "tutor:counter",
        "tutor:defensecurl",
        "tutor:doubleedge",
        "tutor:dynamicpunch",
        "tutor:endeavor",
        "tutor:headbutt",
        "tutor:mimic",
        "tutor:mudslap",
        "tutor:psychup",
        "tutor:rollout",
        "tutor:seismictoss",
        "tutor:shockwave",
        "tutor:waterpulse"
    ],
    "labels": [
        "gen3"
    ],
    "pokedex": [
        "pokemoncobbled.species.loudred.desc1",
        "pokemoncobbled.species.loudred.desc2"
    ],
    "height": 10,
    "weight": 405,
    "baseScale": 1.0,
    "hitbox": {
        "width": 1.0,
        "height": 1.0,
        "fixed": false
    },
    "preEvolution": "whismur",
    "evolutions": [
        {
            "id": "loudred_exploud",
            "variant": "level_up",
            "result": "exploud",
            "consumeHeldItem": false,
            "learnableMoves": [],
            "requirements": [
                {
                    "variant": "level",
                    "minLevel": 40
                }
            ]
        }
    ],
    "forms": []
}