{
    "name": "numel",
    "nationalPokedexNumber": 322,
    "primaryType": "fire",
    "secondaryType": "ground",
    "abilities": [
        "oblivious",
        "simple",
        "h:owntempo"
    ],
    "baseStats": {
        "hp": 60,
        "attack": 60,
        "defence": 40,
        "special_attack": 65,
        "special_defence": 45,
        "speed": 35
    },
    "catchRate": 255,
    "maleRatio": 0.5,
    "shoulderMountable": false,
    "baseExperienceYield": 61,
    "baseFriendship": 70,
    "evYield": {
        "special_attack": 1
    },
    "experienceGroup": "mediumfast",
    "eggCycles": 20,
    "eggGroups": [
        "field"
    ],
    "moves": [
        "1:tackle",
        "1:growl",
        "5:ember",
        "8:focusenergy",
        "12:magnitude",
        "15:flameburst",
        "19:amnesia",
        "22:lavaplume",
        "26:earthpower",
        "29:curse",
        "31:takedown",
        "36:yawn",
        "40:earthquake",
        "43:flamethrower",
        "47:doubleedge",
        "egg:ancientpower",
        "egg:bodyslam",
        "egg:defensecurl",
        "egg:endure",
        "egg:growth",
        "egg:heatwave",
        "egg:heavyslam",
        "egg:howl",
        "egg:ironhead",
        "egg:mudbomb",
        "egg:rollout",
        "egg:scaryface",
        "egg:spitup",
        "egg:stockpile",
        "egg:stomp",
        "egg:swallow",
        "egg:yawn",
        "tm:attract",
        "tm:bulldoze",
        "tm:captivate",
        "tm:confide",
        "tm:dig",
        "tm:doubleteam",
        "tm:earthquake",
        "tm:echoedvoice",
        "tm:facade",
        "tm:fireblast",
        "tm:flamecharge",
        "tm:flamethrower",
        "tm:frustration",
        "tm:hiddenpower",
        "tm:incinerate",
        "tm:naturalgift",
        "tm:naturepower",
        "tm:overheat",
        "tm:protect",
        "tm:rest",
        "tm:return",
        "tm:rockslide",
        "tm:rocksmash",
        "tm:rocktomb",
        "tm:round",
        "tm:sandstorm",
        "tm:secretpower",
        "tm:sleeptalk",
        "tm:strength",
        "tm:substitute",
        "tm:sunnyday",
        "tm:swagger",
        "tm:toxic",
        "tm:willowisp",
        "tutor:afteryou",
        "tutor:earthpower",
        "tutor:headbutt",
        "tutor:heatwave",
        "tutor:ironhead",
        "tutor:mimic",
        "tutor:mudslap",
        "tutor:snore",
        "tutor:stealthrock"
    ],
    "labels": [
        "gen3"
    ],
    "pokedex": [
        "pokemoncobbled.species.numel.desc1",
        "pokemoncobbled.species.numel.desc2"
    ],
    "height": 7,
    "weight": 240,
    "baseScale": 1.0,
    "hitbox": {
        "width": 1.0,
        "height": 1.0,
        "fixed": false
    },
    "evolutions": [
        {
            "id": "numel_camerupt",
            "variant": "level_up",
            "result": "camerupt",
            "consumeHeldItem": false,
            "learnableMoves": [],
            "requirements": [
                {
                    "variant": "level",
                    "minLevel": 33
                }
            ]
        }
    ],
    "forms": []
}