{
    "name": "shroomish",
    "nationalPokedexNumber": 285,
    "primaryType": "grass",
    "abilities": [
        "effectspore",
        "poisonheal",
        "h:quickfeet"
    ],
    "baseStats": {
        "hp": 60,
        "attack": 40,
        "defence": 60,
        "special_attack": 40,
        "special_defence": 60,
        "speed": 35
    },
    "catchRate": 255,
    "maleRatio": 0.5,
    "shoulderMountable": false,
    "baseExperienceYield": 59,
    "baseFriendship": 70,
    "evYield": {
        "hp": 1
    },
    "experienceGroup": "fluctuating",
    "eggCycles": 15,
    "eggGroups": [
        "fairy",
        "grass"
    ],
    "moves": [
        "1:tackle",
        "1:absorb",
        "5:stunspore",
        "8:leechseed",
        "12:megadrain",
        "15:headbutt",
        "19:poisonpowder",
        "22:worryseed",
        "26:gigadrain",
        "29:growth",
        "33:toxic",
        "36:seedbomb",
        "40:spore",
        "egg:bulletseed",
        "egg:charm",
        "egg:drainpunch",
        "egg:faketears",
        "egg:focuspunch",
        "egg:helpinghand",
        "egg:naturalgift",
        "egg:seedbomb",
        "egg:wakeupslap",
        "egg:worryseed",
        "tm:attract",
        "tm:captivate",
        "tm:confide",
        "tm:doubleteam",
        "tm:endure",
        "tm:energyball",
        "tm:facade",
        "tm:falseswipe",
        "tm:flash",
        "tm:frustration",
        "tm:grassknot",
        "tm:hiddenpower",
        "tm:protect",
        "tm:rest",
        "tm:return",
        "tm:round",
        "tm:safeguard",
        "tm:secretpower",
        "tm:sleeptalk",
        "tm:sludgebomb",
        "tm:solarbeam",
        "tm:substitute",
        "tm:sunnyday",
        "tm:swagger",
        "tm:swordsdance",
        "tm:toxic",
        "tm:venoshock",
        "tutor:bodyslam",
        "tutor:doubleedge",
        "tutor:drainpunch",
        "tutor:focuspunch",
        "tutor:gigadrain",
        "tutor:helpinghand",
        "tutor:mimic",
        "tutor:seedbomb",
        "tutor:snatch",
        "tutor:snore",
        "tutor:synthesis",
        "tutor:worryseed"
    ],
    "labels": [
        "gen3"
    ],
    "pokedex": [
        "pokemoncobbled.species.shroomish.desc1",
        "pokemoncobbled.species.shroomish.desc2"
    ],
    "height": 4,
    "weight": 45,
    "baseScale": 1.0,
    "hitbox": {
        "width": 1.0,
        "height": 1.0,
        "fixed": false
    },
    "evolutions": [
        {
            "id": "shroomish_breloom",
            "variant": "level_up",
            "result": "breloom",
            "consumeHeldItem": false,
            "learnableMoves": [],
            "requirements": [
                {
                    "variant": "level",
                    "minLevel": 23
                }
            ]
        }
    ],
    "forms": []
}