{
    "name": "slakoth",
    "nationalPokedexNumber": 287,
    "primaryType": "normal",
    "abilities": [
        "truant"
    ],
    "baseStats": {
        "hp": 60,
        "attack": 60,
        "defence": 60,
        "special_attack": 35,
        "special_defence": 35,
        "speed": 30
    },
    "catchRate": 255,
    "maleRatio": 0.5,
    "shoulderMountable": false,
    "baseExperienceYield": 56,
    "baseFriendship": 70,
    "evYield": {
        "hp": 1
    },
    "experienceGroup": "slow",
    "eggCycles": 15,
    "eggGroups": [
        "field"
    ],
    "moves": [
        "1:scratch",
        "1:yawn",
        "6:encore",
        "9:slackoff",
        "14:feintattack",
        "17:amnesia",
        "22:covet",
        "25:chipaway",
        "30:counter",
        "33:flail",
        "38:playrough",
        "egg:afteryou",
        "egg:bodyslam",
        "egg:crushclaw",
        "egg:curse",
        "egg:hammerarm",
        "egg:nightslash",
        "egg:pursuit",
        "egg:slash",
        "egg:sleeptalk",
        "egg:snore",
        "egg:tickle",
        "tm:aerialace",
        "tm:attract",
        "tm:blizzard",
        "tm:brickbreak",
        "tm:bulkup",
        "tm:captivate",
        "tm:confide",
        "tm:cut",
        "tm:doubleteam",
        "tm:endure",
        "tm:facade",
        "tm:fireblast",
        "tm:flamethrower",
        "tm:fling",
        "tm:frustration",
        "tm:hiddenpower",
        "tm:honeclaws",
        "tm:icebeam",
        "tm:incinerate",
        "tm:naturalgift",
        "tm:poweruppunch",
        "tm:protect",
        "tm:raindance",
        "tm:rest",
        "tm:retaliate",
        "tm:return",
        "tm:rockslide",
        "tm:rocksmash",
        "tm:rocktomb",
        "tm:round",
        "tm:secretpower",
        "tm:shadowball",
        "tm:shadowclaw",
        "tm:sleeptalk",
        "tm:solarbeam",
        "tm:strength",
        "tm:substitute",
        "tm:sunnyday",
        "tm:swagger",
        "tm:thunder",
        "tm:thunderbolt",
        "tm:toxic",
        "tm:workup",
        "tutor:afteryou",
        "tutor:covet",
        "tutor:doubleedge",
        "tutor:dynamicpunch",
        "tutor:firepunch",
        "tutor:focuspunch",
        "tutor:furycutter",
        "tutor:gunkshot",
        "tutor:headbutt",
        "tutor:icepunch",
        "tutor:icywind",
        "tutor:megakick",
        "tutor:megapunch",
        "tutor:mimic",
        "tutor:mudslap",
        "tutor:seismictoss",
        "tutor:shockwave",
        "tutor:snore",
        "tutor:suckerpunch",
        "tutor:thunderpunch",
        "tutor:waterpulse"
    ],
    "labels": [
        "gen3"
    ],
    "pokedex": [
        "pokemoncobbled.species.slakoth.desc1",
        "pokemoncobbled.species.slakoth.desc2"
    ],
    "height": 8,
    "weight": 240,
    "baseScale": 1.0,
    "hitbox": {
        "width": 1.0,
        "height": 1.0,
        "fixed": false
    },
    "evolutions": [
        {
            "id": "slakoth_vigoroth",
            "variant": "level_up",
            "result": "vigoroth",
            "consumeHeldItem": false,
            "learnableMoves": [],
            "requirements": [
                {
                    "variant": "level",
                    "minLevel": 18
                }
            ]
        }
    ],
    "forms": []
}