{
    "name": "snorunt",
    "nationalPokedexNumber": 361,
    "primaryType": "ice",
    "abilities": [
        "innerfocus",
        "icebody",
        "h:moody"
    ],
    "baseStats": {
        "hp": 50,
        "attack": 50,
        "defence": 50,
        "special_attack": 50,
        "special_defence": 50,
        "speed": 50
    },
    "catchRate": 190,
    "maleRatio": 0.5,
    "shoulderMountable": false,
    "baseExperienceYield": 60,
    "baseFriendship": 50,
    "evYield": {
        "hp": 1
    },
    "experienceGroup": "mediumfast",
    "eggCycles": 20,
    "eggGroups": [
        "fairy",
        "mineral"
    ],
    "moves": [
        "1:powdersnow",
        "1:astonish",
        "5:leer",
        "10:doubleteam",
        "15:iceshard",
        "20:protect",
        "25:icywind",
        "30:frostbreath",
        "35:bite",
        "40:icefang",
        "45:hail",
        "50:headbutt",
        "55:crunch",
        "60:blizzard",
        "egg:bide",
        "egg:block",
        "egg:disable",
        "egg:iciclecrash",
        "egg:rollout",
        "egg:switcheroo",
        "tm:attract",
        "tm:avalanche",
        "tm:blizzard",
        "tm:bodyslam",
        "tm:captivate",
        "tm:confide",
        "tm:crunch",
        "tm:endure",
        "tm:facade",
        "tm:faketears",
        "tm:flash",
        "tm:frustration",
        "tm:hail",
        "tm:hex",
        "tm:hiddenpower",
        "tm:icebeam",
        "tm:icefang",
        "tm:icywind",
        "tm:lightscreen",
        "tm:naturalgift",
        "tm:protect",
        "tm:raindance",
        "tm:rest",
        "tm:return",
        "tm:round",
        "tm:safeguard",
        "tm:secretpower",
        "tm:shadowball",
        "tm:sleeptalk",
        "tm:snore",
        "tm:spikes",
        "tm:substitute",
        "tm:swagger",
        "tm:toxic",
        "tm:weatherball",
        "tutor:doubleedge",
        "tutor:mimic",
        "tutor:spite",
        "tutor:waterpulse"
    ],
    "labels": [
        "gen3"
    ],
    "pokedex": [
        "pokemoncobbled.species.snorunt.desc1",
        "pokemoncobbled.species.snorunt.desc2"
    ],
    "height": 7,
    "weight": 168,
    "baseScale": 1.0,
    "hitbox": {
        "width": 1.0,
        "height": 1.0,
        "fixed": false
    },
    "evolutions": [
        {
            "id": "snorunt_glalie",
            "variant": "level_up",
            "result": "glalie",
            "consumeHeldItem": false,
            "learnableMoves": [],
            "requirements": [
                {
                    "variant": "level",
                    "minLevel": 42
                }
            ]
        },
        {
            "id": "snorunt_froslass",
            "variant": "item_interact",
            "result": "froslass",
            "consumeHeldItem": false,
            "learnableMoves": [],
            "requirements": [
                {
                    "variant": "properties",
                    "target": "gender=female"
                }
            ],
            "requiredContext": "pokemoncobbled:dawn_stone"
        }
    ],
    "forms": []
}