{
    "name": "bellossom",
    "nationalPokedexNumber": 182,
    "primaryType": "grass",
    "abilities": [
        "chlorophyll",
        "h:healer"
    ],
    "baseStats": {
        "hp": 75,
        "attack": 80,
        "defence": 95,
        "special_attack": 90,
        "special_defence": 100,
        "speed": 50
    },
    "catchRate": 45,
    "maleRatio": 0.5,
    "shoulderMountable": false,
    "baseExperienceYield": 245,
    "baseFriendship": 50,
    "evYield": {
        "special_defence": 3
    },
    "experienceGroup": "mediumslow",
    "eggCycles": 20,
    "eggGroups": [
        "grass"
    ],
    "moves": [
        "0:petalblizzard",
        "1:acid",
        "1:absorb",
        "1:megadrain",
        "1:growth",
        "1:poisonpowder",
        "1:stunspore",
        "1:sleeppowder",
        "1:petaldance",
        "1:toxic",
        "1:gigadrain",
        "1:sweetscent",
        "1:moonlight",
        "1:quiverdance",
        "1:petalblizzard",
        "1:grassyterrain",
        "1:moonblast",
        "tm:attract",
        "tm:batonpass",
        "tm:bulletseed",
        "tm:captivate",
        "tm:charm",
        "tm:confide",
        "tm:curse",
        "tm:cut",
        "tm:dazzlinggleam",
        "tm:doubleteam",
        "tm:drainpunch",
        "tm:endure",
        "tm:energyball",
        "tm:facade",
        "tm:flash",
        "tm:fling",
        "tm:frustration",
        "tm:gigadrain",
        "tm:gigaimpact",
        "tm:grassknot",
        "tm:grassyterrain",
        "tm:helpinghand",
        "tm:hiddenpower",
        "tm:hyperbeam",
        "tm:infestation",
        "tm:leafblade",
        "tm:leafstorm",
        "tm:magicalleaf",
        "tm:naturalgift",
        "tm:naturepower",
        "tm:playrough",
        "tm:protect",
        "tm:rest",
        "tm:return",
        "tm:round",
        "tm:safeguard",
        "tm:secretpower",
        "tm:seedbomb",
        "tm:sleeptalk",
        "tm:sludgebomb",
        "tm:snore",
        "tm:solarbeam",
        "tm:substitute",
        "tm:sunnyday",
        "tm:swagger",
        "tm:swordsdance",
        "tm:uproar",
        "tm:venoshock",
        "tutor:afteryou",
        "tutor:doubleedge",
        "tutor:gastroacid",
        "tutor:grassyglide",
        "tutor:laserfocus",
        "tutor:mimic",
        "tutor:synthesis",
        "tutor:worryseed"
    ],
    "labels": [
        "gen2"
    ],
    "pokedex": [
        "pokemoncobbled.species.bellossom.desc1",
        "pokemoncobbled.species.bellossom.desc2"
    ],
    "height": 4,
    "weight": 58,
    "baseScale": 1.0,
    "hitbox": {
        "width": 1.0,
        "height": 1.0,
        "fixed": false
    },
    "preEvolution": "gloom",
    "evolutions": [],
    "forms": []
}