{
    "name": "misdreavus",
    "nationalPokedexNumber": 200,
    "primaryType": "ghost",
    "abilities": [
        "levitate"
    ],
    "baseStats": {
        "hp": 60,
        "attack": 60,
        "defence": 60,
        "special_attack": 85,
        "special_defence": 85,
        "speed": 85
    },
    "catchRate": 45,
    "maleRatio": 0.5,
    "shoulderMountable": false,
    "baseExperienceYield": 87,
    "baseFriendship": 35,
    "evYield": {
        "special_defence": 1
    },
    "experienceGroup": "fast",
    "eggCycles": 25,
    "eggGroups": [
        "amorphous"
    ],
    "moves": [
        "1:growl",
        "1:psywave",
        "5:spite",
        "10:astonish",
        "14:confuseray",
        "19:meanlook",
        "23:hex",
        "28:psybeam",
        "32:painsplit",
        "37:payback",
        "41:shadowball",
        "46:perishsong",
        "50:grudge",
        "55:powergem",
        "egg:curse",
        "egg:destinybond",
        "egg:imprison",
        "egg:mefirst",
        "egg:memento",
        "egg:nastyplot",
        "egg:ominouswind",
        "egg:screech",
        "egg:shadowsneak",
        "egg:skillswap",
        "egg:spite",
        "egg:suckerpunch",
        "egg:wonderroom",
        "tm:aerialace",
        "tm:attract",
        "tm:calmmind",
        "tm:captivate",
        "tm:chargebeam",
        "tm:confide",
        "tm:darkpulse",
        "tm:dazzlinggleam",
        "tm:doubleteam",
        "tm:dreameater",
        "tm:echoedvoice",
        "tm:embargo",
        "tm:endure",
        "tm:facade",
        "tm:flash",
        "tm:frustration",
        "tm:hiddenpower",
        "tm:naturalgift",
        "tm:payback",
        "tm:protect",
        "tm:psychic",
        "tm:psychup",
        "tm:raindance",
        "tm:rest",
        "tm:return",
        "tm:round",
        "tm:secretpower",
        "tm:shadowball",
        "tm:sleeptalk",
        "tm:substitute",
        "tm:sunnyday",
        "tm:swagger",
        "tm:taunt",
        "tm:thief",
        "tm:thunder",
        "tm:thunderbolt",
        "tm:thunderwave",
        "tm:torment",
        "tm:toxic",
        "tm:trickroom",
        "tm:willowisp",
        "tm:zapcannon",
        "tutor:allyswitch",
        "tutor:defensecurl",
        "tutor:doubleedge",
        "tutor:foulplay",
        "tutor:headbutt",
        "tutor:healbell",
        "tutor:hypervoice",
        "tutor:icywind",
        "tutor:magiccoat",
        "tutor:magicroom",
        "tutor:mimic",
        "tutor:nightmare",
        "tutor:painsplit",
        "tutor:shockwave",
        "tutor:skillswap",
        "tutor:snatch",
        "tutor:snore",
        "tutor:spite",
        "tutor:swift",
        "tutor:telekinesis",
        "tutor:trick",
        "tutor:uproar",
        "tutor:wonderroom"
    ],
    "labels": [
        "gen2"
    ],
    "pokedex": [
        "pokemoncobbled.species.misdreavus.desc1",
        "pokemoncobbled.species.misdreavus.desc2"
    ],
    "height": 7,
    "weight": 10,
    "baseScale": 1.0,
    "hitbox": {
        "width": 1.0,
        "height": 1.0,
        "fixed": false
    },
    "evolutions": [
        {
            "id": "misdreavus_mismagius",
            "variant": "item_interact",
            "result": "mismagius",
            "consumeHeldItem": false,
            "learnableMoves": [],
            "requirements": [],
            "requiredContext": "pokemoncobbled:dusk_stone"
        }
    ],
    "forms": []
}