{
    "name": "octillery",
    "nationalPokedexNumber": 224,
    "primaryType": "water",
    "abilities": [
        "suctioncups",
        "sniper",
        "h:moody"
    ],
    "baseStats": {
        "hp": 75,
        "attack": 105,
        "defence": 75,
        "special_attack": 105,
        "special_defence": 75,
        "speed": 45
    },
    "catchRate": 75,
    "maleRatio": 0.5,
    "shoulderMountable": false,
    "baseExperienceYield": 168,
    "baseFriendship": 50,
    "evYield": {
        "attack": 1,
        "special_attack": 1
    },
    "experienceGroup": "mediumfast",
    "eggCycles": 20,
    "eggGroups": [
        "water1",
        "water_2"
    ],
    "moves": [
        "0:octazooka",
        "1:wrap",
        "1:watergun",
        "1:focusenergy",
        "1:constrict",
        "1:octazooka",
        "1:helpinghand",
        "1:rockblast",
        "1:waterpulse",
        "1:gunkshot",
        "6:constrict",
        "12:psybeam",
        "16:aurorabeam",
        "20:bubblebeam",
        "24:lockon",
        "28:wringout",
        "30:bulletseed",
        "34:signalbeam",
        "36:icebeam",
        "42:hydropump",
        "48:soak",
        "54:hyperbeam",
        "tm:assurance",
        "tm:attract",
        "tm:blizzard",
        "tm:bounce",
        "tm:brine",
        "tm:bulletseed",
        "tm:captivate",
        "tm:chargebeam",
        "tm:confide",
        "tm:curse",
        "tm:dive",
        "tm:doubleteam",
        "tm:endure",
        "tm:energyball",
        "tm:facade",
        "tm:fireblast",
        "tm:flamethrower",
        "tm:flashcannon",
        "tm:focusenergy",
        "tm:frustration",
        "tm:gigaimpact",
        "tm:gunkshot",
        "tm:helpinghand",
        "tm:hiddenpower",
        "tm:hydropump",
        "tm:hyperbeam",
        "tm:icebeam",
        "tm:icywind",
        "tm:incinerate",
        "tm:liquidation",
        "tm:mudshot",
        "tm:naturalgift",
        "tm:payback",
        "tm:protect",
        "tm:psychic",
        "tm:raindance",
        "tm:rest",
        "tm:return",
        "tm:rockblast",
        "tm:round",
        "tm:scald",
        "tm:screech",
        "tm:secretpower",
        "tm:seedbomb",
        "tm:sleeptalk",
        "tm:sludgebomb",
        "tm:sludgewave",
        "tm:smackdown",
        "tm:snore",
        "tm:substitute",
        "tm:sunnyday",
        "tm:surf",
        "tm:swagger",
        "tm:swift",
        "tm:thief",
        "tm:thunderwave",
        "tm:toxic",
        "tm:waterfall",
        "tm:whirlpool",
        "tutor:bind",
        "tutor:defensecurl",
        "tutor:doubleedge",
        "tutor:mimic",
        "tutor:mudslap",
        "tutor:seismictoss",
        "tutor:signalbeam",
        "tutor:skittersmack",
        "tutor:stringshot"
    ],
    "labels": [
        "gen2"
    ],
    "pokedex": [
        "pokemoncobbled.species.octillery.desc1",
        "pokemoncobbled.species.octillery.desc2"
    ],
    "height": 9,
    "weight": 285,
    "baseScale": 1.0,
    "hitbox": {
        "width": 1.0,
        "height": 1.0,
        "fixed": false
    },
    "preEvolution": "remoraid",
    "evolutions": [],
    "forms": []
}