{
    "name": "quagsire",
    "nationalPokedexNumber": 195,
    "primaryType": "water",
    "secondaryType": "ground",
    "abilities": [
        "damp",
        "waterabsorb",
        "h:unaware"
    ],
    "baseStats": {
        "hp": 95,
        "attack": 85,
        "defence": 85,
        "special_attack": 65,
        "special_defence": 65,
        "speed": 35
    },
    "catchRate": 90,
    "maleRatio": 0.5,
    "shoulderMountable": false,
    "baseExperienceYield": 151,
    "baseFriendship": 50,
    "evYield": {
        "hp": 2
    },
    "experienceGroup": "mediumfast",
    "eggCycles": 20,
    "eggGroups": [
        "water1",
        "field"
    ],
    "moves": [
        "1:tailwhip",
        "1:watergun",
        "1:raindance",
        "1:mudsport",
        "1:mudshot",
        "5:mudsport",
        "12:mist",
        "12:haze",
        "16:slam",
        "19:mudbomb",
        "23:yawn",
        "28:aquatail",
        "34:muddywater",
        "40:amnesia",
        "46:toxic",
        "52:earthquake",
        "tm:amnesia",
        "tm:attract",
        "tm:blizzard",
        "tm:bodyslam",
        "tm:brickbreak",
        "tm:bulldoze",
        "tm:captivate",
        "tm:confide",
        "tm:curse",
        "tm:dig",
        "tm:dive",
        "tm:doubleteam",
        "tm:earthpower",
        "tm:earthquake",
        "tm:eerieimpulse",
        "tm:encore",
        "tm:endure",
        "tm:facade",
        "tm:flash",
        "tm:fling",
        "tm:focusblast",
        "tm:frustration",
        "tm:gigaimpact",
        "tm:guardswap",
        "tm:hail",
        "tm:hiddenpower",
        "tm:highhorsepower",
        "tm:hydropump",
        "tm:hyperbeam",
        "tm:icebeam",
        "tm:icepunch",
        "tm:icywind",
        "tm:infestation",
        "tm:irontail",
        "tm:liquidation",
        "tm:megakick",
        "tm:megapunch",
        "tm:muddywater",
        "tm:mudshot",
        "tm:naturalgift",
        "tm:poweruppunch",
        "tm:protect",
        "tm:raindance",
        "tm:rest",
        "tm:return",
        "tm:rockslide",
        "tm:rocksmash",
        "tm:rocktomb",
        "tm:round",
        "tm:safeguard",
        "tm:sandstorm",
        "tm:scald",
        "tm:secretpower",
        "tm:sleeptalk",
        "tm:sludgebomb",
        "tm:sludgewave",
        "tm:snore",
        "tm:stompingtantrum",
        "tm:stoneedge",
        "tm:strength",
        "tm:substitute",
        "tm:surf",
        "tm:swagger",
        "tm:thief",
        "tm:waterfall",
        "tm:whirlpool",
        "tutor:afteryou",
        "tutor:ancientpower",
        "tutor:counter",
        "tutor:defensecurl",
        "tutor:doubleedge",
        "tutor:dynamicpunch",
        "tutor:focuspunch",
        "tutor:headbutt",
        "tutor:mimic",
        "tutor:mudslap",
        "tutor:rollout",
        "tutor:seismictoss",
        "tutor:waterpulse"
    ],
    "labels": [
        "gen2"
    ],
    "pokedex": [
        "pokemoncobbled.species.quagsire.desc1",
        "pokemoncobbled.species.quagsire.desc2"
    ],
    "height": 14,
    "weight": 750,
    "baseScale": 1.0,
    "hitbox": {
        "width": 1.0,
        "height": 1.0,
        "fixed": false
    },
    "preEvolution": "wooper",
    "evolutions": [],
    "forms": []
}