{
    "name": "swinub",
    "nationalPokedexNumber": 220,
    "primaryType": "ice",
    "secondaryType": "ground",
    "abilities": [
        "oblivious",
        "snowcloak",
        "h:thickfat"
    ],
    "baseStats": {
        "hp": 50,
        "attack": 50,
        "defence": 40,
        "special_attack": 30,
        "special_defence": 30,
        "speed": 50
    },
    "catchRate": 225,
    "maleRatio": 0.5,
    "shoulderMountable": false,
    "baseExperienceYield": 50,
    "baseFriendship": 50,
    "evYield": {
        "attack": 1
    },
    "experienceGroup": "slow",
    "eggCycles": 20,
    "eggGroups": [
        "field"
    ],
    "moves": [
        "1:tackle",
        "1:mudslap",
        "1:odorsleuth",
        "5:powdersnow",
        "5:mudsport",
        "10:flail",
        "15:iceshard",
        "18:mudbomb",
        "20:mist",
        "25:endure",
        "30:icywind",
        "35:amnesia",
        "40:takedown",
        "45:earthquake",
        "50:blizzard",
        "egg:ancientpower",
        "egg:bite",
        "egg:curse",
        "egg:doubleedge",
        "egg:fissure",
        "egg:freezedry",
        "egg:iciclecrash",
        "tm:amnesia",
        "tm:attract",
        "tm:avalanche",
        "tm:blizzard",
        "tm:bodyslam",
        "tm:bulldoze",
        "tm:captivate",
        "tm:confide",
        "tm:detect",
        "tm:dig",
        "tm:doubleteam",
        "tm:earthpower",
        "tm:earthquake",
        "tm:endure",
        "tm:facade",
        "tm:frustration",
        "tm:hail",
        "tm:hiddenpower",
        "tm:icebeam",
        "tm:iciclespear",
        "tm:icywind",
        "tm:lightscreen",
        "tm:mudshot",
        "tm:naturalgift",
        "tm:protect",
        "tm:raindance",
        "tm:reflect",
        "tm:rest",
        "tm:return",
        "tm:roar",
        "tm:rockslide",
        "tm:rocksmash",
        "tm:rocktomb",
        "tm:round",
        "tm:sandstorm",
        "tm:sandtomb",
        "tm:scaryface",
        "tm:secretpower",
        "tm:sleeptalk",
        "tm:snore",
        "tm:stealthrock",
        "tm:strength",
        "tm:substitute",
        "tm:superpower",
        "tm:swagger",
        "tm:toxic",
        "tutor:defensecurl",
        "tutor:endeavor",
        "tutor:headbutt",
        "tutor:mimic"
    ],
    "labels": [
        "gen2"
    ],
    "pokedex": [
        "pokemoncobbled.species.swinub.desc1",
        "pokemoncobbled.species.swinub.desc2"
    ],
    "height": 4,
    "weight": 65,
    "baseScale": 1.0,
    "hitbox": {
        "width": 1.0,
        "height": 1.0,
        "fixed": false
    },
    "evolutions": [
        {
            "id": "swinub_piloswine",
            "variant": "level_up",
            "result": "piloswine",
            "consumeHeldItem": false,
            "learnableMoves": [],
            "requirements": [
                {
                    "variant": "level",
                    "minLevel": 33
                }
            ]
        }
    ],
    "forms": []
}