{
    "name": "typhlosion",
    "nationalPokedexNumber": 157,
    "primaryType": "fire",
    "abilities": [
        "blaze",
        "h:flashfire"
    ],
    "baseStats": {
        "hp": 78,
        "attack": 84,
        "defence": 78,
        "special_attack": 109,
        "special_defence": 85,
        "speed": 100
    },
    "catchRate": 45,
    "maleRatio": 0.875,
    "shoulderMountable": false,
    "baseExperienceYield": 240,
    "baseFriendship": 70,
    "evYield": {
        "special_attack": 3
    },
    "experienceGroup": "mediumslow",
    "eggCycles": 20,
    "eggGroups": [
        "field"
    ],
    "moves": [
        "1:tackle",
        "1:doubleedge",
        "1:leer",
        "1:ember",
        "1:smokescreen",
        "1:eruption",
        "1:gyroball",
        "6:smokescreen",
        "10:ember",
        "13:quickattack",
        "20:flamewheel",
        "24:defensecurl",
        "31:swift",
        "35:flamecharge",
        "43:lavaplume",
        "48:flamethrower",
        "56:inferno",
        "61:rollout",
        "69:doubleedge",
        "74:burnup",
        "82:eruption",
        "tm:aerialace",
        "tm:attract",
        "tm:brickbreak",
        "tm:bulldoze",
        "tm:captivate",
        "tm:confide",
        "tm:curse",
        "tm:cut",
        "tm:detect",
        "tm:dig",
        "tm:doubleteam",
        "tm:earthquake",
        "tm:endure",
        "tm:facade",
        "tm:fireblast",
        "tm:flamecharge",
        "tm:flamethrower",
        "tm:fling",
        "tm:focusblast",
        "tm:frustration",
        "tm:gigaimpact",
        "tm:gyroball",
        "tm:hiddenpower",
        "tm:hyperbeam",
        "tm:incinerate",
        "tm:irontail",
        "tm:naturalgift",
        "tm:naturepower",
        "tm:overheat",
        "tm:poweruppunch",
        "tm:protect",
        "tm:rest",
        "tm:return",
        "tm:roar",
        "tm:rockclimb",
        "tm:rockslide",
        "tm:rocksmash",
        "tm:rocktomb",
        "tm:round",
        "tm:secretpower",
        "tm:shadowclaw",
        "tm:sleeptalk",
        "tm:solarbeam",
        "tm:strength",
        "tm:substitute",
        "tm:sunnyday",
        "tm:swagger",
        "tm:toxic",
        "tm:wildcharge",
        "tm:willowisp",
        "tm:workup",
        "tutor:blastburn",
        "tutor:bodyslam",
        "tutor:counter",
        "tutor:covet",
        "tutor:dynamicpunch",
        "tutor:firepledge",
        "tutor:firepunch",
        "tutor:focuspunch",
        "tutor:furycutter",
        "tutor:headbutt",
        "tutor:heatwave",
        "tutor:laserfocus",
        "tutor:lowkick",
        "tutor:megakick",
        "tutor:megapunch",
        "tutor:mimic",
        "tutor:mudslap",
        "tutor:seismictoss",
        "tutor:snore",
        "tutor:stompingtantrum",
        "tutor:throatchop",
        "tutor:thunderpunch"
    ],
    "labels": [
        "gen2"
    ],
    "pokedex": [
        "pokemoncobbled.species.typhlosion.desc1",
        "pokemoncobbled.species.typhlosion.desc2"
    ],
    "height": 17,
    "weight": 795,
    "baseScale": 1.0,
    "hitbox": {
        "width": 1.0,
        "height": 1.0,
        "fixed": false
    },
    "preEvolution": "quilava",
    "evolutions": [],
    "forms": [
        {
            "name": "hisui",
            "secondaryType": "ghost",
            "baseStats": {
                "hp": 73,
                "attack": 84,
                "defence": 78,
                "special_attack": 119,
                "special_defence": 85,
                "speed": 95
            },
            "baseExperienceYield": null,
            "moves": [],
            "pokedex": [
                "pokemoncobbled.form.typhlosion-hisui.desc1",
                "pokemoncobbled.form.typhlosion-hisui.desc2"
            ],
            "height": 16,
            "weight": 698
        }
    ]
}