{
    "name": "tyranitar",
    "nationalPokedexNumber": 248,
    "primaryType": "rock",
    "secondaryType": "dark",
    "abilities": [
        "sandstream",
        "h:unnerve"
    ],
    "baseStats": {
        "hp": 100,
        "attack": 134,
        "defence": 110,
        "special_attack": 95,
        "special_defence": 100,
        "speed": 61
    },
    "catchRate": 45,
    "maleRatio": 0.5,
    "shoulderMountable": false,
    "baseExperienceYield": 300,
    "baseFriendship": 35,
    "evYield": {
        "attack": 3
    },
    "experienceGroup": "slow",
    "eggCycles": 40,
    "eggGroups": [
        "monster"
    ],
    "moves": [
        "1:tackle",
        "1:leer",
        "1:rockthrow",
        "1:irondefense",
        "1:payback",
        "1:thunderfang",
        "1:icefang",
        "1:firefang",
        "9:bite",
        "12:scaryface",
        "14:chipaway",
        "15:rockslide",
        "18:stompingtantrum",
        "21:screech",
        "24:darkpulse",
        "27:crunch",
        "33:earthquake",
        "37:stoneedge",
        "42:thrash",
        "47:sandstorm",
        "52:hyperbeam",
        "59:gigaimpact",
        "tm:aerialace",
        "tm:assurance",
        "tm:attract",
        "tm:avalanche",
        "tm:blizzard",
        "tm:bodypress",
        "tm:bodyslam",
        "tm:breakingswipe",
        "tm:brickbreak",
        "tm:brutalswing",
        "tm:bulldoze",
        "tm:captivate",
        "tm:confide",
        "tm:crunch",
        "tm:curse",
        "tm:cut",
        "tm:darkpulse",
        "tm:detect",
        "tm:dig",
        "tm:doubleteam",
        "tm:dragonbreath",
        "tm:dragonclaw",
        "tm:dragondance",
        "tm:dragonpulse",
        "tm:dragontail",
        "tm:earthpower",
        "tm:earthquake",
        "tm:endure",
        "tm:facade",
        "tm:fireblast",
        "tm:firefang",
        "tm:firepunch",
        "tm:flamethrower",
        "tm:fling",
        "tm:focusblast",
        "tm:focusenergy",
        "tm:foulplay",
        "tm:frustration",
        "tm:gigaimpact",
        "tm:heavyslam",
        "tm:hiddenpower",
        "tm:highhorsepower",
        "tm:honeclaws",
        "tm:hydropump",
        "tm:hyperbeam",
        "tm:icebeam",
        "tm:icefang",
        "tm:icepunch",
        "tm:incinerate",
        "tm:irondefense",
        "tm:ironhead",
        "tm:irontail",
        "tm:lowkick",
        "tm:megakick",
        "tm:megapunch",
        "tm:muddywater",
        "tm:naturalgift",
        "tm:outrage",
        "tm:payback",
        "tm:poweruppunch",
        "tm:protect",
        "tm:raindance",
        "tm:rest",
        "tm:retaliate",
        "tm:return",
        "tm:revenge",
        "tm:roar",
        "tm:rockblast",
        "tm:rockclimb",
        "tm:rockpolish",
        "tm:rockslide",
        "tm:rocksmash",
        "tm:rocktomb",
        "tm:round",
        "tm:sandstorm",
        "tm:sandtomb",
        "tm:scaryface",
        "tm:screech",
        "tm:secretpower",
        "tm:shadowclaw",
        "tm:sleeptalk",
        "tm:smackdown",
        "tm:snarl",
        "tm:snore",
        "tm:stealthrock",
        "tm:stompingtantrum",
        "tm:stoneedge",
        "tm:strength",
        "tm:substitute",
        "tm:sunnyday",
        "tm:superpower",
        "tm:surf",
        "tm:swagger",
        "tm:taunt",
        "tm:thunder",
        "tm:thunderbolt",
        "tm:thunderfang",
        "tm:thunderpunch",
        "tm:thunderwave",
        "tm:torment",
        "tm:toxic",
        "tm:uproar",
        "tm:whirlpool",
        "tutor:ancientpower",
        "tutor:aquatail",
        "tutor:block",
        "tutor:counter",
        "tutor:doubleedge",
        "tutor:dynamicpunch",
        "tutor:focuspunch",
        "tutor:furycutter",
        "tutor:headbutt",
        "tutor:lashout",
        "tutor:mimic",
        "tutor:mudslap",
        "tutor:nightmare",
        "tutor:seismictoss",
        "tutor:shockwave",
        "tutor:spite",
        "tutor:waterpulse"
    ],
    "labels": [
        "gen2"
    ],
    "pokedex": [
        "pokemoncobbled.species.tyranitar.desc1",
        "pokemoncobbled.species.tyranitar.desc2"
    ],
    "height": 20,
    "weight": 2020,
    "baseScale": 1.0,
    "hitbox": {
        "width": 1.0,
        "height": 1.0,
        "fixed": false
    },
    "preEvolution": "pupitar",
    "evolutions": [],
    "forms": [
        {
            "name": "mega",
            "abilities": [
                "sandstream"
            ],
            "baseStats": {
                "hp": 100,
                "attack": 164,
                "defence": 150,
                "special_attack": 95,
                "special_defence": 120,
                "speed": 71
            },
            "baseExperienceYield": 315,
            "moves": [
                "1:leer",
                "1:bite",
                "1:screech",
                "1:sandstorm",
                "1:thunderfang",
                "1:icefang",
                "1:firefang",
                "5:sandstorm",
                "10:screech",
                "14:chipaway",
                "19:rockslide",
                "23:scaryface",
                "28:thrash",
                "34:darkpulse",
                "41:payback",
                "47:crunch",
                "54:earthquake",
                "63:stoneedge",
                "73:hyperbeam",
                "82:gigaimpact",
                "tm:aerialace",
                "tm:attract",
                "tm:blizzard",
                "tm:brickbreak",
                "tm:brutalswing",
                "tm:bulldoze",
                "tm:confide",
                "tm:cut",
                "tm:darkpulse",
                "tm:dig",
                "tm:doubleteam",
                "tm:dragonclaw",
                "tm:dragontail",
                "tm:earthquake",
                "tm:facade",
                "tm:fireblast",
                "tm:flamethrower",
                "tm:fling",
                "tm:focusblast",
                "tm:frustration",
                "tm:gigaimpact",
                "tm:hiddenpower",
                "tm:honeclaws",
                "tm:hyperbeam",
                "tm:icebeam",
                "tm:incinerate",
                "tm:payback",
                "tm:poweruppunch",
                "tm:protect",
                "tm:raindance",
                "tm:rest",
                "tm:retaliate",
                "tm:return",
                "tm:roar",
                "tm:rockpolish",
                "tm:rockslide",
                "tm:rocksmash",
                "tm:rocktomb",
                "tm:round",
                "tm:sandstorm",
                "tm:secretpower",
                "tm:shadowclaw",
                "tm:sleeptalk",
                "tm:smackdown",
                "tm:snarl",
                "tm:stoneedge",
                "tm:strength",
                "tm:substitute",
                "tm:sunnyday",
                "tm:surf",
                "tm:swagger",
                "tm:taunt",
                "tm:thunder",
                "tm:thunderbolt",
                "tm:thunderwave",
                "tm:torment",
                "tm:toxic",
                "tutor:aquatail",
                "tutor:block",
                "tutor:dragonpulse",
                "tutor:earthpower",
                "tutor:firepunch",
                "tutor:focuspunch",
                "tutor:foulplay",
                "tutor:icepunch",
                "tutor:irondefense",
                "tutor:ironhead",
                "tutor:irontail",
                "tutor:lowkick",
                "tutor:outrage",
                "tutor:shockwave",
                "tutor:snore",
                "tutor:spite",
                "tutor:stealthrock",
                "tutor:stompingtantrum",
                "tutor:superpower",
                "tutor:thunderpunch",
                "tutor:uproar",
                "tutor:waterpulse"
            ],
            "labels": [
                "gen2",
                "mega_evolution"
            ],
            "pokedex": [
                "pokemoncobbled.form.tyranitar-mega.desc1",
                "pokemoncobbled.form.tyranitar-mega.desc2"
            ],
            "height": 25,
            "weight": 2550
        }
    ]
}