{
    "name": "alakazam",
    "nationalPokedexNumber": 65,
    "primaryType": "psychic",
    "abilities": [
        "synchronize",
        "innerfocus",
        "h:magicguard"
    ],
    "baseStats": {
        "hp": 55,
        "attack": 50,
        "defence": 45,
        "special_attack": 135,
        "special_defence": 95,
        "speed": 120
    },
    "catchRate": 50,
    "maleRatio": 0.75,
    "shoulderMountable": false,
    "baseExperienceYield": 250,
    "baseFriendship": 50,
    "evYield": {
        "special_attack": 3
    },
    "experienceGroup": "mediumslow",
    "eggCycles": 20,
    "eggGroups": [
        "human_like"
    ],
    "moves": [
        "1:disable",
        "1:confusion",
        "1:teleport",
        "1:barrier",
        "1:kinesis",
        "1:flash",
        "5:psybeam",
        "10:reflect",
        "13:flash",
        "15:allyswitch",
        "19:nightshade",
        "20:psychocut",
        "23:miracleeye",
        "25:recover",
        "30:psyshock",
        "33:telekinesis",
        "35:psychic",
        "40:roleplay",
        "45:futuresight",
        "50:calmmind",
        "tm:allyswitch",
        "tm:attract",
        "tm:bide",
        "tm:bodyslam",
        "tm:calmmind",
        "tm:captivate",
        "tm:chargebeam",
        "tm:confide",
        "tm:curse",
        "tm:dazzlinggleam",
        "tm:dig",
        "tm:doubleteam",
        "tm:drainpunch",
        "tm:dreameater",
        "tm:embargo",
        "tm:encore",
        "tm:endure",
        "tm:energyball",
        "tm:facade",
        "tm:firepunch",
        "tm:fling",
        "tm:focusblast",
        "tm:foulplay",
        "tm:frustration",
        "tm:futuresight",
        "tm:gigaimpact",
        "tm:grassknot",
        "tm:guardswap",
        "tm:headbutt",
        "tm:hiddenpower",
        "tm:hyperbeam",
        "tm:icepunch",
        "tm:imprison",
        "tm:irontail",
        "tm:lightscreen",
        "tm:magicroom",
        "tm:megakick",
        "tm:megapunch",
        "tm:metronome",
        "tm:nastyplot",
        "tm:naturalgift",
        "tm:powerswap",
        "tm:protect",
        "tm:psychic",
        "tm:psychicterrain",
        "tm:psychocut",
        "tm:psychup",
        "tm:psyshock",
        "tm:psywave",
        "tm:rage",
        "tm:raindance",
        "tm:reflect",
        "tm:rest",
        "tm:return",
        "tm:round",
        "tm:safeguard",
        "tm:secretpower",
        "tm:seismictoss",
        "tm:shadowball",
        "tm:skillswap",
        "tm:skullbash",
        "tm:sleeptalk",
        "tm:snore",
        "tm:speedswap",
        "tm:storedpower",
        "tm:submission",
        "tm:substitute",
        "tm:sunnyday",
        "tm:swagger",
        "tm:swift",
        "tm:takedown",
        "tm:taunt",
        "tm:thief",
        "tm:thunderpunch",
        "tm:thunderwave",
        "tm:torment",
        "tm:toxic",
        "tm:triattack",
        "tm:trick",
        "tm:trickroom",
        "tm:wonderroom",
        "tm:zapcannon",
        "tm:zenheadbutt",
        "tutor:counter",
        "tutor:doubleedge",
        "tutor:dynamicpunch",
        "tutor:expandingforce",
        "tutor:focuspunch",
        "tutor:gravity",
        "tutor:knockoff",
        "tutor:laserfocus",
        "tutor:magiccoat",
        "tutor:mimic",
        "tutor:nightmare",
        "tutor:recycle",
        "tutor:shockwave",
        "tutor:signalbeam",
        "tutor:snatch",
        "tutor:telekinesis"
    ],
    "labels": [
        "gen1"
    ],
    "pokedex": [
        "pokemoncobbled.species.alakazam.desc1",
        "pokemoncobbled.species.alakazam.desc2"
    ],
    "height": 15,
    "weight": 480,
    "baseScale": 1.0,
    "hitbox": {
        "width": 1.0,
        "height": 1.0,
        "fixed": false
    },
    "preEvolution": "kadabra",
    "evolutions": [],
    "forms": [
        {
            "name": "mega",
            "abilities": [
                "trace"
            ],
            "baseStats": {
                "hp": 55,
                "attack": 50,
                "defence": 65,
                "special_attack": 175,
                "special_defence": 105,
                "speed": 150
            },
            "baseExperienceYield": 270,
            "moves": [
                "0:calmmind",
                "1:disable",
                "1:psybeam",
                "1:confusion",
                "1:teleport",
                "1:barrier",
                "1:kinesis",
                "1:flash",
                "1:encore",
                "1:calmmind",
                "6:disable",
                "13:flash",
                "19:nightshade",
                "23:miracleeye",
                "26:substitute",
                "28:psychocut",
                "32:reflect",
                "33:telekinesis",
                "36:allyswitch",
                "39:recover",
                "43:futuresight",
                "45:psychic",
                "46:trick",
                "tm:attract",
                "tm:calmmind",
                "tm:chargebeam",
                "tm:confide",
                "tm:dazzlinggleam",
                "tm:dig",
                "tm:doubleteam",
                "tm:dreameater",
                "tm:embargo",
                "tm:energyball",
                "tm:facade",
                "tm:firepunch",
                "tm:fling",
                "tm:focusblast",
                "tm:foulplay",
                "tm:frustration",
                "tm:gigaimpact",
                "tm:grassknot",
                "tm:headbutt",
                "tm:hiddenpower",
                "tm:hyperbeam",
                "tm:icepunch",
                "tm:irontail",
                "tm:lightscreen",
                "tm:protect",
                "tm:psychic",
                "tm:psychup",
                "tm:psyshock",
                "tm:raindance",
                "tm:reflect",
                "tm:rest",
                "tm:return",
                "tm:round",
                "tm:safeguard",
                "tm:secretpower",
                "tm:seismictoss",
                "tm:shadowball",
                "tm:sleeptalk",
                "tm:substitute",
                "tm:sunnyday",
                "tm:swagger",
                "tm:taunt",
                "tm:teleport",
                "tm:thief",
                "tm:thunderpunch",
                "tm:thunderwave",
                "tm:torment",
                "tm:toxic",
                "tm:triattack",
                "tm:trickroom",
                "tutor:allyswitch",
                "tutor:drainpunch",
                "tutor:focuspunch",
                "tutor:gravity",
                "tutor:knockoff",
                "tutor:laserfocus",
                "tutor:magiccoat",
                "tutor:magicroom",
                "tutor:recycle",
                "tutor:roleplay",
                "tutor:shockwave",
                "tutor:signalbeam",
                "tutor:skillswap",
                "tutor:snatch",
                "tutor:snore",
                "tutor:telekinesis",
                "tutor:trick",
                "tutor:wonderroom",
                "tutor:zenheadbutt"
            ],
            "labels": [
                "gen1",
                "mega_evolution"
            ],
            "pokedex": [
                "pokemoncobbled.form.alakazam-mega.desc1",
                "pokemoncobbled.form.alakazam-mega.desc2"
            ],
            "height": 12
        }
    ]
}