{
    "name": "charmander",
    "nationalPokedexNumber": 4,
    "primaryType": "fire",
    "abilities": [
        "blaze",
        "h:solarpower"
    ],
    "baseStats": {
        "hp": 39,
        "attack": 52,
        "defence": 43,
        "special_attack": 60,
        "special_defence": 50,
        "speed": 65
    },
    "behaviour": {
        "resting": {
            "canSleep": true,
            "willSleepOnBed": true,
            "depth": "normal",
            "light": "0-2"
        }
    },
    "catchRate": 45,
    "maleRatio": 0.875,
    "shoulderMountable": false,
    "forms": [],
    "baseExperienceYield": 62,
    "experienceGroup": "mediumslow",
    "eggCycles": 20,
    "eggGroups": [
        "monster",
        "dragon"
    ],
    "moves": [
        "1:scratch",
        "1:growl",
        "4:ember",
        "8:smokescreen",
        "12:dragonbreath",
        "15:leer",
        "17:firefang",
        "18:furyswipes",
        "19:rage",
        "20:slash",
        "22:dragonrage",
        "24:flamethrower",
        "28:scaryface",
        "28:flameburst",
        "32:firespin",
        "36:inferno",
        "40:flareblitz",
        "egg:aircutter",
        "egg:ancientpower",
        "egg:bellydrum",
        "egg:bite",
        "egg:counter",
        "egg:dragonrush",
        "egg:dragontail",
        "egg:focuspunch",
        "egg:metalclaw",
        "egg:wingattack",
        "tm:acrobatics",
        "tm:aerialace",
        "tm:attract",
        "tm:beatup",
        "tm:bide",
        "tm:bodyslam",
        "tm:brickbreak",
        "tm:captivate",
        "tm:confide",
        "tm:crunch",
        "tm:curse",
        "tm:cut",
        "tm:dig",
        "tm:doubleteam",
        "tm:dragonclaw",
        "tm:dragondance",
        "tm:dragonpulse",
        "tm:echoedvoice",
        "tm:endure",
        "tm:facade",
        "tm:falseswipe",
        "tm:fireblast",
        "tm:firefang",
        "tm:firepunch",
        "tm:firespin",
        "tm:flamecharge",
        "tm:flamethrower",
        "tm:flareblitz",
        "tm:fling",
        "tm:frustration",
        "tm:headbutt",
        "tm:heatwave",
        "tm:helpinghand",
        "tm:hiddenpower",
        "tm:honeclaws",
        "tm:incinerate",
        "tm:irontail",
        "tm:megakick",
        "tm:megapunch",
        "tm:naturalgift",
        "tm:outrage",
        "tm:overheat",
        "tm:poweruppunch",
        "tm:protect",
        "tm:reflect",
        "tm:rest",
        "tm:return",
        "tm:rockslide",
        "tm:rocksmash",
        "tm:rocktomb",
        "tm:round",
        "tm:scaryface",
        "tm:secretpower",
        "tm:seismictoss",
        "tm:shadowclaw",
        "tm:skullbash",
        "tm:sleeptalk",
        "tm:snore",
        "tm:strength",
        "tm:submission",
        "tm:substitute",
        "tm:sunnyday",
        "tm:swagger",
        "tm:swift",
        "tm:swordsdance",
        "tm:takedown",
        "tm:thunderpunch",
        "tm:toxic",
        "tm:weatherball",
        "tm:willowisp",
        "tm:workup",
        "tutor:defensecurl",
        "tutor:doubleedge",
        "tutor:dynamicpunch",
        "tutor:firepledge",
        "tutor:focuspunch",
        "tutor:furycutter",
        "tutor:mimic",
        "tutor:mudslap"
    ],
    "labels": [
        "gen1"
    ],
    "pokedex": [
        "pokemoncobbled.species.charmander.desc1",
        "pokemoncobbled.species.charmander.desc2"
    ],
    "evolutions": [
        {
            "id": "charmander_charmeleon",
            "variant": "level_up",
            "result": "charmeleon",
            "consumeHeldItem": false,
            "learnableMoves": [],
            "requirements": [
                {
                    "variant": "level",
                    "minLevel": 16
                }
            ]
        }
    ],
    "baseScale": 1.0,
    "hitbox": {
        "width": 1.0,
        "height": 1.0,
        "fixed": false
    },
    "baseFriendship": 50,
    "evYield": {
        "speed": 1
    },
    "height": 6,
    "weight": 85
}