{
    "name": "clefable",
    "nationalPokedexNumber": 36,
    "primaryType": "fairy",
    "abilities": [
        "cutecharm",
        "magicguard",
        "h:unaware"
    ],
    "baseStats": {
        "hp": 95,
        "attack": 70,
        "defence": 73,
        "special_attack": 95,
        "special_defence": 90,
        "speed": 60
    },
    "catchRate": 25,
    "maleRatio": 0.25,
    "shoulderMountable": false,
    "baseExperienceYield": 242,
    "baseFriendship": 140,
    "evYield": {
        "hp": 3
    },
    "experienceGroup": "fast",
    "eggCycles": 10,
    "eggGroups": [
        "fairy"
    ],
    "moves": [
        "1:pound",
        "1:doubleslap",
        "1:growl",
        "1:sing",
        "1:minimize",
        "1:defensecurl",
        "1:metronome",
        "1:splash",
        "1:sweetkiss",
        "1:charm",
        "1:encore",
        "1:moonlight",
        "1:followme",
        "1:meteormash",
        "1:cosmicpower",
        "1:gravity",
        "1:healingwish",
        "1:copycat",
        "1:afteryou",
        "1:storedpower",
        "1:disarmingvoice",
        "1:moonblast",
        "1:spotlight",
        "1:lifedew",
        "tm:allyswitch",
        "tm:amnesia",
        "tm:attract",
        "tm:batonpass",
        "tm:bide",
        "tm:blizzard",
        "tm:bodyslam",
        "tm:bounce",
        "tm:brickbreak",
        "tm:bubblebeam",
        "tm:calmmind",
        "tm:captivate",
        "tm:chargebeam",
        "tm:charm",
        "tm:confide",
        "tm:cosmicpower",
        "tm:curse",
        "tm:dazzlinggleam",
        "tm:detect",
        "tm:dig",
        "tm:doubleteam",
        "tm:drainingkiss",
        "tm:drainpunch",
        "tm:dreameater",
        "tm:echoedvoice",
        "tm:encore",
        "tm:endure",
        "tm:facade",
        "tm:faketears",
        "tm:fireblast",
        "tm:firepunch",
        "tm:flamethrower",
        "tm:flash",
        "tm:fling",
        "tm:focusblast",
        "tm:frustration",
        "tm:gigaimpact",
        "tm:grassknot",
        "tm:headbutt",
        "tm:helpinghand",
        "tm:hiddenpower",
        "tm:hyperbeam",
        "tm:hypervoice",
        "tm:icebeam",
        "tm:icepunch",
        "tm:icywind",
        "tm:imprison",
        "tm:incinerate",
        "tm:irontail",
        "tm:lightscreen",
        "tm:magicalleaf",
        "tm:megakick",
        "tm:megapunch",
        "tm:metronome",
        "tm:mistyterrain",
        "tm:mysticalfire",
        "tm:naturalgift",
        "tm:playrough",
        "tm:poweruppunch",
        "tm:protect",
        "tm:psychic",
        "tm:psychup",
        "tm:psyshock",
        "tm:psywave",
        "tm:rage",
        "tm:raindance",
        "tm:reflect",
        "tm:rest",
        "tm:retaliate",
        "tm:return",
        "tm:rocksmash",
        "tm:round",
        "tm:safeguard",
        "tm:secretpower",
        "tm:seismictoss",
        "tm:shadowball",
        "tm:skullbash",
        "tm:sleeptalk",
        "tm:snore",
        "tm:solarbeam",
        "tm:stealthrock",
        "tm:storedpower",
        "tm:strength",
        "tm:submission",
        "tm:substitute",
        "tm:sunnyday",
        "tm:swagger",
        "tm:takedown",
        "tm:teleport",
        "tm:thunder",
        "tm:thunderbolt",
        "tm:thunderpunch",
        "tm:thunderwave",
        "tm:toxic",
        "tm:triattack",
        "tm:trick",
        "tm:uproar",
        "tm:watergun",
        "tm:wonderroom",
        "tm:workup",
        "tm:zapcannon",
        "tm:zenheadbutt",
        "tutor:counter",
        "tutor:covet",
        "tutor:doubleedge",
        "tutor:dualwingbeat",
        "tutor:dynamicpunch",
        "tutor:endeavor",
        "tutor:focuspunch",
        "tutor:healbell",
        "tutor:knockoff",
        "tutor:laserfocus",
        "tutor:lastresort",
        "tutor:magiccoat",
        "tutor:meteorbeam",
        "tutor:mimic",
        "tutor:mistyexplosion",
        "tutor:mudslap",
        "tutor:nightmare",
        "tutor:recycle",
        "tutor:roleplay",
        "tutor:rollout",
        "tutor:shockwave",
        "tutor:signalbeam",
        "tutor:snatch",
        "tutor:softboiled",
        "tutor:telekinesis",
        "tutor:waterpulse"
    ],
    "labels": [
        "gen1"
    ],
    "pokedex": [
        "pokemoncobbled.species.clefable.desc1",
        "pokemoncobbled.species.clefable.desc2"
    ],
    "height": 13,
    "weight": 400,
    "baseScale": 1.0,
    "hitbox": {
        "width": 1.0,
        "height": 1.0,
        "fixed": false
    },
    "preEvolution": "clefairy",
    "evolutions": [],
    "forms": []
}