{
    "name": "drowzee",
    "nationalPokedexNumber": 96,
    "primaryType": "psychic",
    "abilities": [
        "insomnia",
        "forewarn",
        "h:innerfocus"
    ],
    "baseStats": {
        "hp": 60,
        "attack": 48,
        "defence": 45,
        "special_attack": 43,
        "special_defence": 90,
        "speed": 42
    },
    "catchRate": 190,
    "maleRatio": 0.5,
    "shoulderMountable": false,
    "baseExperienceYield": 66,
    "baseFriendship": 70,
    "evYield": {
        "special_defence": 1
    },
    "experienceGroup": "mediumfast",
    "eggCycles": 20,
    "eggGroups": [
        "human_like"
    ],
    "moves": [
        "1:pound",
        "1:hypnosis",
        "4:disable",
        "9:confusion",
        "13:poisongas",
        "18:meditate",
        "22:psybeam",
        "27:headbutt",
        "29:wakeupslap",
        "31:psychic",
        "33:psychup",
        "36:nastyplot",
        "37:synchronoise",
        "40:dreameater",
        "41:zenheadbutt",
        "45:swagger",
        "57:psyshock",
        "61:futuresight",
        "egg:assist",
        "egg:barrier",
        "egg:flatter",
        "egg:guardswap",
        "egg:powersplit",
        "egg:psychicterrain",
        "egg:psychocut",
        "egg:roleplay",
        "egg:secretpower",
        "egg:skillswap",
        "tm:attract",
        "tm:bide",
        "tm:brickbreak",
        "tm:calmmind",
        "tm:captivate",
        "tm:confide",
        "tm:curse",
        "tm:dazzlinggleam",
        "tm:doubleteam",
        "tm:dreameater",
        "tm:endure",
        "tm:facade",
        "tm:firepunch",
        "tm:flash",
        "tm:fling",
        "tm:foulplay",
        "tm:frustration",
        "tm:grassknot",
        "tm:headbutt",
        "tm:hiddenpower",
        "tm:icepunch",
        "tm:lightscreen",
        "tm:lowsweep",
        "tm:naturalgift",
        "tm:poweruppunch",
        "tm:protect",
        "tm:psychic",
        "tm:psychup",
        "tm:psyshock",
        "tm:psywave",
        "tm:rage",
        "tm:raindance",
        "tm:reflect",
        "tm:rest",
        "tm:return",
        "tm:round",
        "tm:safeguard",
        "tm:seismictoss",
        "tm:shadowball",
        "tm:skullbash",
        "tm:sleeptalk",
        "tm:submission",
        "tm:substitute",
        "tm:sunnyday",
        "tm:swagger",
        "tm:takedown",
        "tm:taunt",
        "tm:teleport",
        "tm:thief",
        "tm:thunderpunch",
        "tm:thunderwave",
        "tm:torment",
        "tm:toxic",
        "tm:triattack",
        "tm:trickroom",
        "tm:zapcannon",
        "tutor:allyswitch",
        "tutor:bodyslam",
        "tutor:counter",
        "tutor:doubleedge",
        "tutor:drainpunch",
        "tutor:dynamicpunch",
        "tutor:focuspunch",
        "tutor:lowkick",
        "tutor:magiccoat",
        "tutor:magicroom",
        "tutor:megakick",
        "tutor:megapunch",
        "tutor:metronome",
        "tutor:mimic",
        "tutor:nightmare",
        "tutor:recycle",
        "tutor:roleplay",
        "tutor:signalbeam",
        "tutor:skillswap",
        "tutor:snatch",
        "tutor:snore",
        "tutor:telekinesis",
        "tutor:trick",
        "tutor:zenheadbutt"
    ],
    "labels": [
        "gen1"
    ],
    "pokedex": [
        "pokemoncobbled.species.drowzee.desc1",
        "pokemoncobbled.species.drowzee.desc2"
    ],
    "height": 10,
    "weight": 324,
    "baseScale": 1.0,
    "hitbox": {
        "width": 1.0,
        "height": 1.0,
        "fixed": false
    },
    "evolutions": [
        {
            "id": "drowzee_hypno",
            "variant": "level_up",
            "result": "hypno",
            "consumeHeldItem": false,
            "learnableMoves": [],
            "requirements": [
                {
                    "variant": "level",
                    "minLevel": 26
                }
            ]
        }
    ],
    "forms": []
}