{
    "name": "electrode",
    "nationalPokedexNumber": 101,
    "primaryType": "electric",
    "abilities": [
        "soundproof",
        "static",
        "h:aftermath"
    ],
    "baseStats": {
        "hp": 60,
        "attack": 50,
        "defence": 70,
        "special_attack": 80,
        "special_defence": 80,
        "speed": 150
    },
    "catchRate": 60,
    "maleRatio": -1,
    "shoulderMountable": false,
    "baseExperienceYield": 172,
    "baseFriendship": 70,
    "evYield": {
        "speed": 2
    },
    "experienceGroup": "mediumfast",
    "eggCycles": 20,
    "eggGroups": [
        "mineral"
    ],
    "moves": [
        "1:tackle",
        "1:sonicboom",
        "1:thundershock",
        "1:lightscreen",
        "1:charge",
        "1:eerieimpulse",
        "1:magneticflux",
        "3:lightscreen",
        "6:sonicboom",
        "6:eerieimpulse",
        "9:thundershock",
        "9:spark",
        "11:rollout",
        "14:swift",
        "16:chargebeam",
        "19:selfdestruct",
        "22:electroball",
        "24:screech",
        "36:thunderbolt",
        "36:magnetrise",
        "41:discharge",
        "48:mirrorcoat",
        "54:gyroball",
        "60:explosion",
        "tm:bide",
        "tm:chargebeam",
        "tm:confide",
        "tm:curse",
        "tm:doubleteam",
        "tm:endure",
        "tm:facade",
        "tm:flash",
        "tm:foulplay",
        "tm:frustration",
        "tm:gigaimpact",
        "tm:gyroball",
        "tm:headbutt",
        "tm:hiddenpower",
        "tm:hyperbeam",
        "tm:lightscreen",
        "tm:naturalgift",
        "tm:protect",
        "tm:rage",
        "tm:raindance",
        "tm:reflect",
        "tm:rest",
        "tm:return",
        "tm:round",
        "tm:secretpower",
        "tm:selfdestruct",
        "tm:skullbash",
        "tm:sleeptalk",
        "tm:substitute",
        "tm:swagger",
        "tm:takedown",
        "tm:taunt",
        "tm:teleport",
        "tm:thief",
        "tm:thunder",
        "tm:thunderbolt",
        "tm:thunderwave",
        "tm:torment",
        "tm:toxic",
        "tm:voltswitch",
        "tm:wildcharge",
        "tm:zapcannon",
        "tutor:magiccoat",
        "tutor:magnetrise",
        "tutor:mimic",
        "tutor:shockwave",
        "tutor:signalbeam",
        "tutor:snore",
        "tutor:suckerpunch",
        "tutor:telekinesis"
    ],
    "labels": [
        "gen1"
    ],
    "pokedex": [
        "pokemoncobbled.species.electrode.desc1",
        "pokemoncobbled.species.electrode.desc2"
    ],
    "height": 12,
    "weight": 666,
    "baseScale": 1.0,
    "hitbox": {
        "width": 1.0,
        "height": 1.0,
        "fixed": false
    },
    "preEvolution": "voltorb",
    "evolutions": [],
    "forms": [
        {
            "name": "hisui",
            "secondaryType": "grass",
            "baseExperienceYield": null,
            "moves": [],
            "pokedex": [
                "pokemoncobbled.form.electrode-hisui.desc1",
                "pokemoncobbled.form.electrode-hisui.desc2"
            ],
            "weight": 710
        }
    ]
}