{
    "name": "machop",
    "nationalPokedexNumber": 66,
    "primaryType": "fighting",
    "abilities": [
        "guts",
        "noguard",
        "h:steadfast"
    ],
    "baseStats": {
        "hp": 70,
        "attack": 80,
        "defence": 50,
        "special_attack": 35,
        "special_defence": 35,
        "speed": 35
    },
    "catchRate": 180,
    "maleRatio": 0.75,
    "shoulderMountable": false,
    "baseExperienceYield": 61,
    "baseFriendship": 50,
    "evYield": {
        "attack": 1
    },
    "experienceGroup": "mediumslow",
    "eggCycles": 20,
    "eggGroups": [
        "human_like"
    ],
    "moves": [
        "1:leer",
        "1:lowkick",
        "4:focusenergy",
        "8:bide",
        "8:revenge",
        "9:foresight",
        "12:lowsweep",
        "16:karatechop",
        "16:knockoff",
        "20:scaryface",
        "24:vitalthrow",
        "27:wakeupslap",
        "29:strength",
        "32:dualchop",
        "36:bulkup",
        "40:seismictoss",
        "44:dynamicpunch",
        "48:crosschop",
        "52:doubleedge",
        "egg:bulletpunch",
        "egg:counter",
        "egg:meditate",
        "egg:powertrick",
        "egg:quickguard",
        "egg:rollingkick",
        "egg:smellingsalts",
        "egg:submission",
        "egg:tickle",
        "tm:attract",
        "tm:bodyslam",
        "tm:brickbreak",
        "tm:bulkup",
        "tm:bulldoze",
        "tm:captivate",
        "tm:closecombat",
        "tm:confide",
        "tm:curse",
        "tm:detect",
        "tm:dig",
        "tm:doubleteam",
        "tm:earthquake",
        "tm:encore",
        "tm:endure",
        "tm:facade",
        "tm:fireblast",
        "tm:firepunch",
        "tm:fissure",
        "tm:flamethrower",
        "tm:fling",
        "tm:focusblast",
        "tm:focusenergy",
        "tm:frustration",
        "tm:headbutt",
        "tm:heavyslam",
        "tm:helpinghand",
        "tm:hiddenpower",
        "tm:icepunch",
        "tm:incinerate",
        "tm:lightscreen",
        "tm:lowkick",
        "tm:lowsweep",
        "tm:megakick",
        "tm:megapunch",
        "tm:metronome",
        "tm:naturalgift",
        "tm:payback",
        "tm:poisonjab",
        "tm:poweruppunch",
        "tm:protect",
        "tm:rage",
        "tm:raindance",
        "tm:rest",
        "tm:retaliate",
        "tm:return",
        "tm:revenge",
        "tm:reversal",
        "tm:rockclimb",
        "tm:rockslide",
        "tm:rocksmash",
        "tm:rocktomb",
        "tm:round",
        "tm:scaryface",
        "tm:secretpower",
        "tm:skullbash",
        "tm:sleeptalk",
        "tm:smackdown",
        "tm:snore",
        "tm:substitute",
        "tm:sunnyday",
        "tm:superpower",
        "tm:swagger",
        "tm:takedown",
        "tm:thief",
        "tm:thunderpunch",
        "tm:toxic",
        "tm:workup",
        "tutor:coaching",
        "tutor:focuspunch",
        "tutor:mimic",
        "tutor:mudslap",
        "tutor:roleplay",
        "tutor:vacuumwave"
    ],
    "labels": [
        "gen1"
    ],
    "pokedex": [
        "pokemoncobbled.species.machop.desc1",
        "pokemoncobbled.species.machop.desc2"
    ],
    "height": 8,
    "weight": 195,
    "baseScale": 1.0,
    "hitbox": {
        "width": 1.0,
        "height": 1.0,
        "fixed": false
    },
    "evolutions": [
        {
            "id": "machop_machoke",
            "variant": "level_up",
            "result": "machoke",
            "consumeHeldItem": false,
            "learnableMoves": [],
            "requirements": [
                {
                    "variant": "level",
                    "minLevel": 28
                }
            ]
        }
    ],
    "forms": []
}