{
    "name": "ninetales",
    "nationalPokedexNumber": 38,
    "primaryType": "fire",
    "abilities": [
        "flashfire",
        "h:drought"
    ],
    "baseStats": {
        "hp": 73,
        "attack": 76,
        "defence": 75,
        "special_attack": 81,
        "special_defence": 100,
        "speed": 100
    },
    "catchRate": 75,
    "maleRatio": 0.25,
    "shoulderMountable": false,
    "baseExperienceYield": 177,
    "baseFriendship": 50,
    "evYield": {
        "special_defence": 1,
        "speed": 1
    },
    "experienceGroup": "mediumfast",
    "eggCycles": 20,
    "eggGroups": [
        "field"
    ],
    "moves": [
        "1:tackle",
        "1:tailwhip",
        "1:disable",
        "1:ember",
        "1:flamethrower",
        "1:firespin",
        "1:hypnosis",
        "1:quickattack",
        "1:confuseray",
        "1:fireblast",
        "1:spite",
        "1:safeguard",
        "1:willowisp",
        "1:imprison",
        "1:grudge",
        "1:extrasensory",
        "1:nastyplot",
        "1:incinerate",
        "1:inferno",
        "tm:agility",
        "tm:attract",
        "tm:bide",
        "tm:bodyslam",
        "tm:calmmind",
        "tm:captivate",
        "tm:confide",
        "tm:curse",
        "tm:darkpulse",
        "tm:dig",
        "tm:doubleteam",
        "tm:dreameater",
        "tm:encore",
        "tm:endure",
        "tm:energyball",
        "tm:facade",
        "tm:faketears",
        "tm:fireblast",
        "tm:firespin",
        "tm:flamecharge",
        "tm:flamethrower",
        "tm:flareblitz",
        "tm:foulplay",
        "tm:frustration",
        "tm:gigaimpact",
        "tm:headbutt",
        "tm:heatwave",
        "tm:hex",
        "tm:hiddenpower",
        "tm:hyperbeam",
        "tm:imprison",
        "tm:irontail",
        "tm:mysticalfire",
        "tm:nastyplot",
        "tm:naturalgift",
        "tm:overheat",
        "tm:payback",
        "tm:powerswap",
        "tm:protect",
        "tm:psychup",
        "tm:psyshock",
        "tm:rage",
        "tm:reflect",
        "tm:rest",
        "tm:return",
        "tm:roar",
        "tm:round",
        "tm:safeguard",
        "tm:secretpower",
        "tm:shadowball",
        "tm:skullbash",
        "tm:sleeptalk",
        "tm:snore",
        "tm:solarbeam",
        "tm:storedpower",
        "tm:substitute",
        "tm:sunnyday",
        "tm:swagger",
        "tm:swift",
        "tm:tailslap",
        "tm:takedown",
        "tm:toxic",
        "tm:weatherball",
        "tm:willowisp",
        "tm:zenheadbutt",
        "tutor:burningjealousy",
        "tutor:covet",
        "tutor:doubleedge",
        "tutor:laserfocus",
        "tutor:mimic",
        "tutor:ominouswind",
        "tutor:painsplit",
        "tutor:roleplay",
        "tutor:scorchingsands"
    ],
    "labels": [
        "gen1"
    ],
    "pokedex": [
        "pokemoncobbled.species.ninetales.desc1",
        "pokemoncobbled.species.ninetales.desc2"
    ],
    "height": 11,
    "weight": 199,
    "baseScale": 1.0,
    "hitbox": {
        "width": 1.0,
        "height": 1.0,
        "fixed": false
    },
    "preEvolution": "vulpix",
    "evolutions": [],
    "forms": [
        {
            "name": "alola",
            "primaryType": "ice",
            "secondaryType": "fairy",
            "abilities": [
                "snowcloak",
                "h:snowwarning"
            ],
            "baseStats": {
                "hp": 73,
                "attack": 67,
                "defence": 75,
                "special_attack": 81,
                "special_defence": 100,
                "speed": 109
            },
            "evYield": {
                "speed": 2
            },
            "moves": [
                "0:dazzlinggleam",
                "1:tackle",
                "1:tailwhip",
                "1:disable",
                "1:mist",
                "1:icebeam",
                "1:blizzard",
                "1:aurorabeam",
                "1:hypnosis",
                "1:confuseray",
                "1:spite",
                "1:powdersnow",
                "1:icywind",
                "1:imprison",
                "1:grudge",
                "1:extrasensory",
                "1:sheercold",
                "1:nastyplot",
                "1:iceshard",
                "1:dazzlinggleam",
                "1:auroraveil",
                "tm:agility",
                "tm:attract",
                "tm:avalanche",
                "tm:blizzard",
                "tm:bodyslam",
                "tm:calmmind",
                "tm:charm",
                "tm:confide",
                "tm:darkpulse",
                "tm:dazzlinggleam",
                "tm:dig",
                "tm:doubleteam",
                "tm:drainingkiss",
                "tm:dreameater",
                "tm:encore",
                "tm:endure",
                "tm:facade",
                "tm:faketears",
                "tm:foulplay",
                "tm:frostbreath",
                "tm:frustration",
                "tm:gigaimpact",
                "tm:hail",
                "tm:headbutt",
                "tm:hex",
                "tm:hiddenpower",
                "tm:hyperbeam",
                "tm:icebeam",
                "tm:icywind",
                "tm:imprison",
                "tm:irontail",
                "tm:mistyterrain",
                "tm:nastyplot",
                "tm:payback",
                "tm:powerswap",
                "tm:protect",
                "tm:psychup",
                "tm:psyshock",
                "tm:raindance",
                "tm:reflect",
                "tm:rest",
                "tm:return",
                "tm:roar",
                "tm:round",
                "tm:safeguard",
                "tm:sleeptalk",
                "tm:snore",
                "tm:solarbeam",
                "tm:storedpower",
                "tm:substitute",
                "tm:swagger",
                "tm:swift",
                "tm:tailslap",
                "tm:toxic",
                "tm:weatherball",
                "tm:wonderroom",
                "tm:zenheadbutt",
                "tutor:aquatail",
                "tutor:covet",
                "tutor:healbell",
                "tutor:laserfocus",
                "tutor:painsplit",
                "tutor:roleplay",
                "tutor:tripleaxel"
            ],
            "pokedex": [
                "pokemoncobbled.form.ninetales-alola.desc1",
                "pokemoncobbled.form.ninetales-alola.desc2"
            ]
        }
    ]
}