{
    "name": "vulpix",
    "nationalPokedexNumber": 37,
    "primaryType": "fire",
    "abilities": [
        "flashfire",
        "h:drought"
    ],
    "baseStats": {
        "hp": 38,
        "attack": 41,
        "defence": 40,
        "special_attack": 50,
        "special_defence": 65,
        "speed": 65
    },
    "catchRate": 190,
    "maleRatio": 0.25,
    "shoulderMountable": false,
    "baseExperienceYield": 60,
    "baseFriendship": 50,
    "evYield": {
        "speed": 1
    },
    "experienceGroup": "mediumfast",
    "eggCycles": 20,
    "eggGroups": [
        "field"
    ],
    "moves": [
        "1:tackle",
        "1:tailwhip",
        "1:ember",
        "4:disable",
        "8:quickattack",
        "12:spite",
        "16:incinerate",
        "20:confuseray",
        "23:feintattack",
        "24:willowisp",
        "28:extrasensory",
        "28:flameburst",
        "32:flamethrower",
        "36:imprison",
        "40:firespin",
        "44:safeguard",
        "47:captivate",
        "48:inferno",
        "52:grudge",
        "56:fireblast",
        "egg:babydolleyes",
        "egg:captivate",
        "egg:feintattack",
        "egg:flail",
        "egg:flamecharge",
        "egg:howl",
        "egg:hypnosis",
        "egg:memento",
        "egg:roar",
        "egg:secretpower",
        "tm:agility",
        "tm:attract",
        "tm:bide",
        "tm:bodyslam",
        "tm:confide",
        "tm:curse",
        "tm:darkpulse",
        "tm:dig",
        "tm:doubleteam",
        "tm:encore",
        "tm:endure",
        "tm:energyball",
        "tm:facade",
        "tm:fireblast",
        "tm:firespin",
        "tm:flamethrower",
        "tm:flareblitz",
        "tm:foulplay",
        "tm:frustration",
        "tm:headbutt",
        "tm:heatwave",
        "tm:hex",
        "tm:hiddenpower",
        "tm:imprison",
        "tm:irontail",
        "tm:mysticalfire",
        "tm:naturalgift",
        "tm:overheat",
        "tm:payback",
        "tm:powerswap",
        "tm:protect",
        "tm:psychup",
        "tm:rage",
        "tm:reflect",
        "tm:rest",
        "tm:return",
        "tm:round",
        "tm:safeguard",
        "tm:skullbash",
        "tm:sleeptalk",
        "tm:snore",
        "tm:substitute",
        "tm:sunnyday",
        "tm:swagger",
        "tm:swift",
        "tm:tailslap",
        "tm:takedown",
        "tm:toxic",
        "tm:weatherball",
        "tm:willowisp",
        "tm:zenheadbutt",
        "tutor:burningjealousy",
        "tutor:covet",
        "tutor:doubleedge",
        "tutor:mimic",
        "tutor:ominouswind",
        "tutor:painsplit",
        "tutor:roleplay"
    ],
    "labels": [
        "gen1"
    ],
    "pokedex": [
        "pokemoncobbled.species.vulpix.desc1",
        "pokemoncobbled.species.vulpix.desc2"
    ],
    "height": 6,
    "weight": 99,
    "baseScale": 1.0,
    "hitbox": {
        "width": 1.0,
        "height": 1.0,
        "fixed": false
    },
    "evolutions": [
        {
            "id": "vulpix_ninetales",
            "variant": "item_interact",
            "result": "ninetales",
            "consumeHeldItem": false,
            "learnableMoves": [],
            "requirements": [],
            "requiredContext": "pokemoncobbled:fire_stone"
        },
        {
            "id": "vulpix_ninetales",
            "variant": "item_interact",
            "result": "ninetales",
            "consumeHeldItem": false,
            "learnableMoves": [],
            "requirements": [],
            "requiredContext": "pokemoncobbled:ice_stone"
        }
    ],
    "forms": [
        {
            "name": "alola",
            "primaryType": "ice",
            "abilities": [
                "snowcloak",
                "h:snowwarning"
            ],
            "moves": [
                "1:tackle",
                "1:tailwhip",
                "1:powdersnow",
                "4:disable",
                "8:iceshard",
                "12:spite",
                "16:icywind",
                "20:confuseray",
                "21:dazzlinggleam",
                "23:feintattack",
                "24:aurorabeam",
                "28:extrasensory",
                "32:icebeam",
                "36:imprison",
                "40:mist",
                "44:auroraveil",
                "47:captivate",
                "48:sheercold",
                "52:grudge",
                "56:blizzard",
                "egg:babydolleyes",
                "egg:flail",
                "egg:freezedry",
                "egg:howl",
                "egg:hypnosis",
                "egg:moonblast",
                "egg:roar",
                "egg:secretpower",
                "tm:agility",
                "tm:attract",
                "tm:blizzard",
                "tm:bodyslam",
                "tm:charm",
                "tm:confide",
                "tm:darkpulse",
                "tm:dazzlinggleam",
                "tm:dig",
                "tm:doubleteam",
                "tm:drainingkiss",
                "tm:encore",
                "tm:endure",
                "tm:facade",
                "tm:foulplay",
                "tm:frostbreath",
                "tm:frustration",
                "tm:hail",
                "tm:headbutt",
                "tm:hex",
                "tm:hiddenpower",
                "tm:icebeam",
                "tm:icywind",
                "tm:imprison",
                "tm:irontail",
                "tm:payback",
                "tm:powerswap",
                "tm:protect",
                "tm:psychup",
                "tm:raindance",
                "tm:reflect",
                "tm:rest",
                "tm:return",
                "tm:round",
                "tm:safeguard",
                "tm:sleeptalk",
                "tm:snore",
                "tm:substitute",
                "tm:swagger",
                "tm:swift",
                "tm:tailslap",
                "tm:toxic",
                "tm:weatherball",
                "tm:zenheadbutt",
                "tutor:aquatail",
                "tutor:covet",
                "tutor:healbell",
                "tutor:painsplit",
                "tutor:roleplay"
            ],
            "pokedex": [
                "pokemoncobbled.form.vulpix-alola.desc1",
                "pokemoncobbled.form.vulpix-alola.desc2"
            ]
        }
    ]
}