{
    "name": "weepinbell",
    "nationalPokedexNumber": 70,
    "primaryType": "grass",
    "secondaryType": "poison",
    "abilities": [
        "chlorophyll",
        "h:gluttony"
    ],
    "baseStats": {
        "hp": 65,
        "attack": 90,
        "defence": 50,
        "special_attack": 85,
        "special_defence": 45,
        "speed": 55
    },
    "catchRate": 120,
    "maleRatio": 0.5,
    "shoulderMountable": false,
    "baseExperienceYield": 137,
    "baseFriendship": 70,
    "evYield": {
        "attack": 2
    },
    "experienceGroup": "mediumslow",
    "eggCycles": 20,
    "eggGroups": [
        "grass"
    ],
    "moves": [
        "1:vinewhip",
        "1:wrap",
        "1:acid",
        "1:growth",
        "4:growth",
        "8:wrap",
        "12:acid",
        "16:sleeppowder",
        "17:poisonpowder",
        "18:stunspore",
        "27:razorleaf",
        "29:knockoff",
        "32:sweetscent",
        "36:poisonjab",
        "39:gastroacid",
        "45:slam",
        "58:wringout",
        "tm:attract",
        "tm:bide",
        "tm:bulletseed",
        "tm:captivate",
        "tm:confide",
        "tm:curse",
        "tm:cut",
        "tm:doubleteam",
        "tm:endure",
        "tm:energyball",
        "tm:facade",
        "tm:flash",
        "tm:frustration",
        "tm:grassknot",
        "tm:headbutt",
        "tm:hiddenpower",
        "tm:infestation",
        "tm:megadrain",
        "tm:naturalgift",
        "tm:naturepower",
        "tm:poisonjab",
        "tm:protect",
        "tm:rage",
        "tm:reflect",
        "tm:rest",
        "tm:return",
        "tm:round",
        "tm:secretpower",
        "tm:sleeptalk",
        "tm:sludgebomb",
        "tm:solarbeam",
        "tm:substitute",
        "tm:sunnyday",
        "tm:swagger",
        "tm:swordsdance",
        "tm:takedown",
        "tm:thief",
        "tm:toxic",
        "tm:venoshock",
        "tutor:bind",
        "tutor:bugbite",
        "tutor:doubleedge",
        "tutor:gastroacid",
        "tutor:gigadrain",
        "tutor:knockoff",
        "tutor:mimic",
        "tutor:seedbomb",
        "tutor:snore",
        "tutor:suckerpunch",
        "tutor:synthesis",
        "tutor:worryseed"
    ],
    "labels": [
        "gen1"
    ],
    "pokedex": [
        "pokemoncobbled.species.weepinbell.desc1",
        "pokemoncobbled.species.weepinbell.desc2"
    ],
    "height": 10,
    "weight": 64,
    "baseScale": 1.0,
    "hitbox": {
        "width": 1.0,
        "height": 1.0,
        "fixed": false
    },
    "preEvolution": "bellsprout",
    "evolutions": [
        {
            "id": "weepinbell_victreebel",
            "variant": "item_interact",
            "result": "victreebel",
            "consumeHeldItem": false,
            "learnableMoves": [],
            "requirements": [],
            "requiredContext": "pokemoncobbled:leaf_stone"
        }
    ],
    "forms": []
}