{
    "name": "flapple",
    "nationalPokedexNumber": 841,
    "primaryType": "grass",
    "secondaryType": "dragon",
    "abilities": [
        "ripen",
        "gluttony",
        "h:hustle"
    ],
    "baseStats": {
        "hp": 70,
        "attack": 110,
        "defence": 80,
        "special_attack": 95,
        "special_defence": 60,
        "speed": 70
    },
    "catchRate": 45,
    "maleRatio": 0.5,
    "shoulderMountable": false,
    "baseExperienceYield": 170,
    "baseFriendship": 50,
    "evYield": {
        "attack": 2
    },
    "experienceGroup": "erratic",
    "eggCycles": 20,
    "eggGroups": [
        "grass",
        "dragon"
    ],
    "moves": [
        "0:wingattack",
        "1:wingattack",
        "1:growth",
        "1:withdraw",
        "1:twister",
        "1:recycle",
        "1:astonish",
        "4:acidspray",
        "8:acrobatics",
        "12:leechseed",
        "16:protect",
        "20:dragonbreath",
        "24:dragondance",
        "28:dragonpulse",
        "32:gravapple",
        "36:irondefense",
        "40:fly",
        "44:dragonrush",
        "tm:acrobatics",
        "tm:airslash",
        "tm:attract",
        "tm:bulletseed",
        "tm:dragondance",
        "tm:dragonpulse",
        "tm:endure",
        "tm:energyball",
        "tm:facade",
        "tm:fly",
        "tm:focusenergy",
        "tm:gigadrain",
        "tm:gigaimpact",
        "tm:grassknot",
        "tm:heavyslam",
        "tm:hyperbeam",
        "tm:irondefense",
        "tm:outrage",
        "tm:protect",
        "tm:rest",
        "tm:round",
        "tm:scaryface",
        "tm:seedbomb",
        "tm:sleeptalk",
        "tm:snore",
        "tm:solarbeam",
        "tm:substitute",
        "tm:sunnyday",
        "tm:uturn",
        "tutor:dracometeor",
        "tutor:dualwingbeat",
        "tutor:grassyglide"
    ],
    "labels": [
        "gen8"
    ],
    "pokedex": [
        "pokemoncobbled.species.flapple.desc1",
        "pokemoncobbled.species.flapple.desc2"
    ],
    "height": 3,
    "weight": 10,
    "baseScale": 1.0,
    "hitbox": {
        "width": 1.0,
        "height": 1.0,
        "fixed": false
    },
    "preEvolution": "applin",
    "evolutions": [],
    "forms": [
        {
            "name": "gmax",
            "moves": [],
            "labels": [
                "gen8",
                "gmax"
            ],
            "pokedex": [
                "pokemoncobbled.form.flapple-gmax.desc1",
                "pokemoncobbled.form.flapple-gmax.desc2"
            ],
            "height": 240,
            "weight": 10000
        }
    ]
}