{
    "name": "frosmoth",
    "nationalPokedexNumber": 873,
    "primaryType": "ice",
    "secondaryType": "bug",
    "abilities": [
        "shielddust",
        "h:icescales"
    ],
    "baseStats": {
        "hp": 70,
        "attack": 65,
        "defence": 60,
        "special_attack": 125,
        "special_defence": 90,
        "speed": 65
    },
    "catchRate": 75,
    "maleRatio": 0.5,
    "shoulderMountable": false,
    "baseExperienceYield": 166,
    "baseFriendship": 50,
    "evYield": {
        "special_attack": 2
    },
    "experienceGroup": "mediumfast",
    "eggCycles": 20,
    "eggGroups": [
        "bug"
    ],
    "moves": [
        "0:icywind",
        "1:powdersnow",
        "1:icywind",
        "1:attract",
        "1:helpinghand",
        "1:strugglebug",
        "4:stunspore",
        "8:infestation",
        "12:mist",
        "16:defog",
        "21:featherdance",
        "24:aurorabeam",
        "28:hail",
        "32:bugbuzz",
        "36:auroraveil",
        "40:blizzard",
        "44:tailwind",
        "48:wideguard",
        "52:quiverdance",
        "tm:acrobatics",
        "tm:airslash",
        "tm:attract",
        "tm:avalanche",
        "tm:blizzard",
        "tm:bugbuzz",
        "tm:calmmind",
        "tm:dazzlinggleam",
        "tm:endure",
        "tm:facade",
        "tm:gigadrain",
        "tm:gigaimpact",
        "tm:hail",
        "tm:helpinghand",
        "tm:hurricane",
        "tm:hyperbeam",
        "tm:icebeam",
        "tm:iciclespear",
        "tm:icywind",
        "tm:imprison",
        "tm:leechlife",
        "tm:lightscreen",
        "tm:playrough",
        "tm:protect",
        "tm:reflect",
        "tm:rest",
        "tm:round",
        "tm:safeguard",
        "tm:sleeptalk",
        "tm:snore",
        "tm:substitute",
        "tm:uturn",
        "tm:weatherball",
        "tutor:dualwingbeat",
        "tutor:skittersmack",
        "tutor:tripleaxel"
    ],
    "labels": [
        "gen8"
    ],
    "pokedex": [
        "pokemoncobbled.species.frosmoth.desc1",
        "pokemoncobbled.species.frosmoth.desc2"
    ],
    "height": 13,
    "weight": 420,
    "baseScale": 1.0,
    "hitbox": {
        "width": 1.0,
        "height": 1.0,
        "fixed": false
    },
    "preEvolution": "snom",
    "evolutions": [],
    "forms": []
}