{
    "name": "kubfu",
    "nationalPokedexNumber": 891,
    "primaryType": "fighting",
    "abilities": [
        "innerfocus"
    ],
    "baseStats": {
        "hp": 60,
        "attack": 90,
        "defence": 60,
        "special_attack": 53,
        "special_defence": 50,
        "speed": 72
    },
    "catchRate": 3,
    "maleRatio": 0.875,
    "shoulderMountable": false,
    "baseExperienceYield": 77,
    "baseFriendship": 50,
    "evYield": {
        "attack": 1
    },
    "experienceGroup": "slow",
    "eggCycles": 120,
    "eggGroups": [
        "undiscovered"
    ],
    "moves": [
        "1:leer",
        "1:rocksmash",
        "4:endure",
        "8:focusenergy",
        "12:aerialace",
        "16:scaryface",
        "20:headbutt",
        "24:brickbreak",
        "28:detect",
        "32:bulkup",
        "36:ironhead",
        "40:dynamicpunch",
        "44:counter",
        "48:closecombat",
        "52:focuspunch",
        "tm:acrobatics",
        "tm:attract",
        "tm:bodyslam",
        "tm:brickbreak",
        "tm:bulkup",
        "tm:closecombat",
        "tm:dig",
        "tm:endure",
        "tm:facade",
        "tm:firepunch",
        "tm:focusenergy",
        "tm:helpinghand",
        "tm:icepunch",
        "tm:ironhead",
        "tm:lowkick",
        "tm:lowsweep",
        "tm:megakick",
        "tm:megapunch",
        "tm:protect",
        "tm:rest",
        "tm:retaliate",
        "tm:revenge",
        "tm:reversal",
        "tm:round",
        "tm:scaryface",
        "tm:sleeptalk",
        "tm:snore",
        "tm:substitute",
        "tm:superpower",
        "tm:thunderpunch",
        "tm:uturn",
        "tm:workup",
        "tm:zenheadbutt",
        "tutor:coaching"
    ],
    "labels": [
        "gen8",
        "legendary"
    ],
    "pokedex": [
        "pokemoncobbled.species.kubfu.desc1",
        "pokemoncobbled.species.kubfu.desc2"
    ],
    "height": 6,
    "weight": 120,
    "baseScale": 1.0,
    "hitbox": {
        "width": 1.0,
        "height": 1.0,
        "fixed": false
    },
    "evolutions": [
        {
            "id": "kubfu_urshifu",
            "variant": "block_click",
            "result": "urshifu",
            "consumeHeldItem": false,
            "learnableMoves": [],
            "requirements": [],
            "block": "pokemoncobbled:scroll_of_darkness"
        },
        {
            "id": "kubfu_urshifu",
            "variant": "block_click",
            "result": "urshifu",
            "consumeHeldItem": false,
            "learnableMoves": [],
            "requirements": [],
            "block": "pokemoncobbled:scroll_of_waters"
        }
    ],
    "forms": []
}