{
    "name": "stonjourner",
    "nationalPokedexNumber": 874,
    "primaryType": "rock",
    "abilities": [
        "powerspot"
    ],
    "baseStats": {
        "hp": 100,
        "attack": 125,
        "defence": 135,
        "special_attack": 20,
        "special_defence": 20,
        "speed": 70
    },
    "catchRate": 60,
    "maleRatio": 0.5,
    "shoulderMountable": false,
    "baseExperienceYield": 165,
    "baseFriendship": 50,
    "evYield": {
        "defence": 2
    },
    "experienceGroup": "slow",
    "eggCycles": 25,
    "eggGroups": [
        "mineral"
    ],
    "moves": [
        "1:rockthrow",
        "1:block",
        "6:rockpolish",
        "12:rocktomb",
        "18:gravity",
        "24:stomp",
        "30:stealthrock",
        "36:rockslide",
        "42:bodyslam",
        "48:wideguard",
        "54:heavyslam",
        "60:stoneedge",
        "66:megakick",
        "egg:ancientpower",
        "egg:curse",
        "tm:assurance",
        "tm:attract",
        "tm:bodypress",
        "tm:bodyslam",
        "tm:brutalswing",
        "tm:bulldoze",
        "tm:earthpower",
        "tm:earthquake",
        "tm:endure",
        "tm:facade",
        "tm:gigaimpact",
        "tm:heatcrash",
        "tm:heavyslam",
        "tm:hyperbeam",
        "tm:imprison",
        "tm:irondefense",
        "tm:megakick",
        "tm:protect",
        "tm:rest",
        "tm:rockblast",
        "tm:rockslide",
        "tm:rocktomb",
        "tm:round",
        "tm:safeguard",
        "tm:sandstorm",
        "tm:sandtomb",
        "tm:selfdestruct",
        "tm:sleeptalk",
        "tm:snore",
        "tm:stealthrock",
        "tm:stompingtantrum",
        "tm:stoneedge",
        "tm:substitute",
        "tm:superpower",
        "tm:wonderroom",
        "tutor:meteorbeam"
    ],
    "labels": [
        "gen8"
    ],
    "pokedex": [
        "pokemoncobbled.species.stonjourner.desc1",
        "pokemoncobbled.species.stonjourner.desc2"
    ],
    "height": 25,
    "weight": 5200,
    "baseScale": 1.0,
    "hitbox": {
        "width": 1.0,
        "height": 1.0,
        "fixed": false
    },
    "evolutions": [],
    "forms": []
}