{
    "name": "zarude",
    "nationalPokedexNumber": 893,
    "primaryType": "dark",
    "secondaryType": "grass",
    "abilities": [
        "leafguard"
    ],
    "baseStats": {
        "hp": 105,
        "attack": 120,
        "defence": 105,
        "special_attack": 70,
        "special_defence": 95,
        "speed": 105
    },
    "catchRate": 3,
    "maleRatio": -1,
    "shoulderMountable": false,
    "baseExperienceYield": 300,
    "baseFriendship": 0,
    "evYield": {
        "attack": 3
    },
    "experienceGroup": "slow",
    "eggCycles": 120,
    "eggGroups": [
        "undiscovered"
    ],
    "moves": [
        "1:scratch",
        "1:bind",
        "6:leer",
        "12:vinewhip",
        "18:growth",
        "24:furyswipes",
        "30:scaryface",
        "36:grassknot",
        "42:bite",
        "48:uturn",
        "54:swagger",
        "60:energyball",
        "66:synthesis",
        "72:hammerarm",
        "78:thrash",
        "84:powerwhip",
        "90:junglehealing",
        "tm:acrobatics",
        "tm:assurance",
        "tm:bodyslam",
        "tm:brickbreak",
        "tm:brutalswing",
        "tm:bulkup",
        "tm:bulletseed",
        "tm:closecombat",
        "tm:crunch",
        "tm:darkestlariat",
        "tm:darkpulse",
        "tm:dig",
        "tm:drainpunch",
        "tm:encore",
        "tm:endure",
        "tm:energyball",
        "tm:facade",
        "tm:fling",
        "tm:gigadrain",
        "tm:gigaimpact",
        "tm:grassknot",
        "tm:grassyterrain",
        "tm:hyperbeam",
        "tm:hypervoice",
        "tm:irontail",
        "tm:lowkick",
        "tm:magicalleaf",
        "tm:megakick",
        "tm:megapunch",
        "tm:mudshot",
        "tm:nastyplot",
        "tm:payback",
        "tm:powerwhip",
        "tm:protect",
        "tm:rest",
        "tm:revenge",
        "tm:rockslide",
        "tm:rocktomb",
        "tm:round",
        "tm:scaryface",
        "tm:seedbomb",
        "tm:sleeptalk",
        "tm:snarl",
        "tm:snore",
        "tm:solarbeam",
        "tm:solarblade",
        "tm:stompingtantrum",
        "tm:substitute",
        "tm:sunnyday",
        "tm:superpower",
        "tm:swift",
        "tm:taunt",
        "tm:thief",
        "tm:throatchop",
        "tm:uturn",
        "tutor:grassyglide",
        "tutor:lashout"
    ],
    "labels": [
        "gen8",
        "mythical"
    ],
    "pokedex": [
        "pokemoncobbled.species.zarude.desc1",
        "pokemoncobbled.species.zarude.desc2"
    ],
    "height": 18,
    "weight": 700,
    "baseScale": 1.0,
    "hitbox": {
        "width": 1.0,
        "height": 1.0,
        "fixed": false
    },
    "evolutions": [],
    "forms": [
        {
            "name": "dada",
            "pokedex": [
                "pokemoncobbled.form.zarude-dada.desc1",
                "pokemoncobbled.form.zarude-dada.desc2"
            ]
        }
    ]
}