{
    "name": "kommoo",
    "nationalPokedexNumber": 784,
    "primaryType": "dragon",
    "secondaryType": "fighting",
    "abilities": [
        "bulletproof",
        "soundproof",
        "h:overcoat"
    ],
    "baseStats": {
        "hp": 75,
        "attack": 110,
        "defence": 125,
        "special_attack": 100,
        "special_defence": 105,
        "speed": 85
    },
    "catchRate": 45,
    "maleRatio": 0.5,
    "shoulderMountable": false,
    "baseExperienceYield": 300,
    "baseFriendship": 50,
    "evYield": {
        "defence": 3
    },
    "experienceGroup": "slow",
    "eggCycles": 40,
    "eggGroups": [
        "dragon"
    ],
    "moves": [
        "0:clangingscales",
        "1:tackle",
        "1:leer",
        "1:bide",
        "1:protect",
        "1:bellydrum",
        "1:skyuppercut",
        "1:autotomize",
        "1:dragontail",
        "1:clangingscales",
        "9:bide",
        "12:scaryface",
        "16:headbutt",
        "20:workup",
        "24:screech",
        "28:irondefense",
        "32:dragonclaw",
        "38:nobleroar",
        "44:dragondance",
        "52:outrage",
        "60:closecombat",
        "68:clangoroussoul",
        "76:boomburst",
        "tm:aerialace",
        "tm:attract",
        "tm:aurasphere",
        "tm:bodypress",
        "tm:breakingswipe",
        "tm:brickbreak",
        "tm:brutalswing",
        "tm:bulkup",
        "tm:bulldoze",
        "tm:closecombat",
        "tm:confide",
        "tm:doubleteam",
        "tm:dragonclaw",
        "tm:dragondance",
        "tm:dragonpulse",
        "tm:drainpunch",
        "tm:earthquake",
        "tm:echoedvoice",
        "tm:endure",
        "tm:facade",
        "tm:falseswipe",
        "tm:firepunch",
        "tm:flamethrower",
        "tm:flashcannon",
        "tm:fling",
        "tm:focusblast",
        "tm:frustration",
        "tm:gigaimpact",
        "tm:hiddenpower",
        "tm:hyperbeam",
        "tm:hypervoice",
        "tm:icepunch",
        "tm:irondefense",
        "tm:ironhead",
        "tm:irontail",
        "tm:lowkick",
        "tm:megakick",
        "tm:megapunch",
        "tm:outrage",
        "tm:payback",
        "tm:poisonjab",
        "tm:protect",
        "tm:rest",
        "tm:return",
        "tm:revenge",
        "tm:reversal",
        "tm:roar",
        "tm:rockpolish",
        "tm:rockslide",
        "tm:rocktomb",
        "tm:round",
        "tm:safeguard",
        "tm:sandstorm",
        "tm:scaryface",
        "tm:screech",
        "tm:shadowclaw",
        "tm:sleeptalk",
        "tm:snore",
        "tm:stealthrock",
        "tm:stompingtantrum",
        "tm:substitute",
        "tm:superpower",
        "tm:swagger",
        "tm:swordsdance",
        "tm:taunt",
        "tm:thunderpunch",
        "tm:toxic",
        "tm:uproar",
        "tm:workup",
        "tm:xscissor",
        "tutor:aquatail",
        "tutor:coaching",
        "tutor:dracometeor",
        "tutor:dualchop",
        "tutor:endeavor",
        "tutor:focuspunch",
        "tutor:laserfocus",
        "tutor:scaleshot",
        "tutor:shockwave",
        "tutor:waterpulse"
    ],
    "labels": [
        "gen7"
    ],
    "pokedex": [
        "pokemoncobbled.species.kommoo.desc1",
        "pokemoncobbled.species.kommoo.desc2"
    ],
    "height": 16,
    "weight": 782,
    "baseScale": 1.0,
    "hitbox": {
        "width": 1.0,
        "height": 1.0,
        "fixed": false
    },
    "preEvolution": "hakamoo",
    "evolutions": [],
    "forms": [
        {
            "name": "totem",
            "baseExperienceYield": 270,
            "moves": [
                "0:clangingscales",
                "1:tackle",
                "1:leer",
                "1:bide",
                "1:protect",
                "1:bellydrum",
                "1:skyuppercut",
                "1:autotomize",
                "1:clangingscales",
                "5:leer",
                "9:bide",
                "13:protect",
                "17:dragontail",
                "21:scaryface",
                "25:headbutt",
                "29:workup",
                "33:screech",
                "38:irondefense",
                "43:dragonclaw",
                "51:nobleroar",
                "59:dragondance",
                "67:outrage",
                "75:closecombat",
                "tm:aerialace",
                "tm:attract",
                "tm:brickbreak",
                "tm:brutalswing",
                "tm:bulkup",
                "tm:bulldoze",
                "tm:confide",
                "tm:doubleteam",
                "tm:dragonclaw",
                "tm:dragontail",
                "tm:earthquake",
                "tm:echoedvoice",
                "tm:facade",
                "tm:falseswipe",
                "tm:flamethrower",
                "tm:flashcannon",
                "tm:fling",
                "tm:focusblast",
                "tm:frustration",
                "tm:gigaimpact",
                "tm:hiddenpower",
                "tm:hyperbeam",
                "tm:payback",
                "tm:poisonjab",
                "tm:protect",
                "tm:rest",
                "tm:return",
                "tm:roar",
                "tm:rockpolish",
                "tm:rockslide",
                "tm:rocktomb",
                "tm:round",
                "tm:safeguard",
                "tm:sandstorm",
                "tm:shadowclaw",
                "tm:sleeptalk",
                "tm:substitute",
                "tm:swagger",
                "tm:swordsdance",
                "tm:taunt",
                "tm:toxic",
                "tm:workup",
                "tm:xscissor",
                "tutor:aquatail",
                "tutor:dracometeor",
                "tutor:dragonpulse",
                "tutor:drainpunch",
                "tutor:dualchop",
                "tutor:endeavor",
                "tutor:firepunch",
                "tutor:focuspunch",
                "tutor:hypervoice",
                "tutor:icepunch",
                "tutor:irondefense",
                "tutor:ironhead",
                "tutor:irontail",
                "tutor:laserfocus",
                "tutor:lowkick",
                "tutor:outrage",
                "tutor:shockwave",
                "tutor:snore",
                "tutor:stealthrock",
                "tutor:stompingtantrum",
                "tutor:superpower",
                "tutor:thunderpunch",
                "tutor:uproar",
                "tutor:waterpulse"
            ],
            "pokedex": [
                "pokemoncobbled.form.kommoo-totem.desc1",
                "pokemoncobbled.form.kommoo-totem.desc2"
            ],
            "height": 24,
            "weight": 2075
        }
    ]
}