{
    "name": "minior",
    "nationalPokedexNumber": 774,
    "primaryType": "rock",
    "secondaryType": "flying",
    "abilities": [
        "shieldsdown"
    ],
    "baseStats": {
        "hp": 60,
        "attack": 60,
        "defence": 100,
        "special_attack": 60,
        "special_defence": 100,
        "speed": 60
    },
    "catchRate": 30,
    "maleRatio": -1,
    "shoulderMountable": false,
    "baseExperienceYield": 154,
    "baseFriendship": 70,
    "evYield": {
        "defence": 1,
        "special_defence": 1
    },
    "experienceGroup": "mediumslow",
    "eggCycles": 25,
    "eggGroups": [
        "mineral"
    ],
    "moves": [
        "1:tackle",
        "3:defensecurl",
        "8:rollout",
        "10:confuseray",
        "15:swift",
        "17:ancientpower",
        "22:selfdestruct",
        "24:stealthrock",
        "29:takedown",
        "31:autotomize",
        "36:cosmicpower",
        "38:powergem",
        "43:doubleedge",
        "45:shellsmash",
        "50:explosion",
        "tm:acrobatics",
        "tm:attract",
        "tm:bulldoze",
        "tm:calmmind",
        "tm:chargebeam",
        "tm:confide",
        "tm:dazzlinggleam",
        "tm:doubleteam",
        "tm:earthquake",
        "tm:explosion",
        "tm:facade",
        "tm:frustration",
        "tm:gigaimpact",
        "tm:gyroball",
        "tm:hiddenpower",
        "tm:hyperbeam",
        "tm:lightscreen",
        "tm:protect",
        "tm:psychic",
        "tm:psychup",
        "tm:reflect",
        "tm:rest",
        "tm:return",
        "tm:rockpolish",
        "tm:rockslide",
        "tm:rocktomb",
        "tm:round",
        "tm:safeguard",
        "tm:sandstorm",
        "tm:sleeptalk",
        "tm:solarbeam",
        "tm:stoneedge",
        "tm:substitute",
        "tm:swagger",
        "tm:toxic",
        "tm:uturn",
        "tutor:endeavor",
        "tutor:gravity",
        "tutor:ironhead",
        "tutor:lastresort",
        "tutor:magnetrise",
        "tutor:snore",
        "tutor:stealthrock",
        "tutor:telekinesis",
        "tutor:zenheadbutt"
    ],
    "labels": [
        "gen7"
    ],
    "pokedex": [
        "pokemoncobbled.species.minior.desc1",
        "pokemoncobbled.species.minior.desc2"
    ],
    "height": 3,
    "weight": 400,
    "baseScale": 1.0,
    "hitbox": {
        "width": 1.0,
        "height": 1.0,
        "fixed": false
    },
    "evolutions": [],
    "forms": [
        {
            "name": "orange-meteor",
            "pokedex": [
                "pokemoncobbled.form.minior-orange-meteor.desc1",
                "pokemoncobbled.form.minior-orange-meteor.desc2"
            ]
        },
        {
            "name": "yellow-meteor",
            "pokedex": [
                "pokemoncobbled.form.minior-yellow-meteor.desc1",
                "pokemoncobbled.form.minior-yellow-meteor.desc2"
            ]
        },
        {
            "name": "green-meteor",
            "pokedex": [
                "pokemoncobbled.form.minior-green-meteor.desc1",
                "pokemoncobbled.form.minior-green-meteor.desc2"
            ]
        },
        {
            "name": "blue-meteor",
            "pokedex": [
                "pokemoncobbled.form.minior-blue-meteor.desc1",
                "pokemoncobbled.form.minior-blue-meteor.desc2"
            ]
        },
        {
            "name": "indigo-meteor",
            "pokedex": [
                "pokemoncobbled.form.minior-indigo-meteor.desc1",
                "pokemoncobbled.form.minior-indigo-meteor.desc2"
            ]
        },
        {
            "name": "violet-meteor",
            "pokedex": [
                "pokemoncobbled.form.minior-violet-meteor.desc1",
                "pokemoncobbled.form.minior-violet-meteor.desc2"
            ]
        },
        {
            "name": "red",
            "baseStats": {
                "hp": 60,
                "attack": 100,
                "defence": 60,
                "special_attack": 100,
                "special_defence": 60,
                "speed": 120
            },
            "baseExperienceYield": 175,
            "evYield": {
                "attack": 1,
                "special_attack": 1
            },
            "pokedex": [
                "pokemoncobbled.form.minior-red.desc1",
                "pokemoncobbled.form.minior-red.desc2"
            ],
            "weight": 3
        },
        {
            "name": "orange",
            "baseStats": {
                "hp": 60,
                "attack": 100,
                "defence": 60,
                "special_attack": 100,
                "special_defence": 60,
                "speed": 120
            },
            "baseExperienceYield": 175,
            "evYield": {
                "attack": 1,
                "special_attack": 1
            },
            "pokedex": [
                "pokemoncobbled.form.minior-orange.desc1",
                "pokemoncobbled.form.minior-orange.desc2"
            ],
            "weight": 3
        },
        {
            "name": "yellow",
            "baseStats": {
                "hp": 60,
                "attack": 100,
                "defence": 60,
                "special_attack": 100,
                "special_defence": 60,
                "speed": 120
            },
            "baseExperienceYield": 175,
            "evYield": {
                "attack": 1,
                "special_attack": 1
            },
            "pokedex": [
                "pokemoncobbled.form.minior-yellow.desc1",
                "pokemoncobbled.form.minior-yellow.desc2"
            ],
            "weight": 3
        },
        {
            "name": "green",
            "baseStats": {
                "hp": 60,
                "attack": 100,
                "defence": 60,
                "special_attack": 100,
                "special_defence": 60,
                "speed": 120
            },
            "baseExperienceYield": 175,
            "evYield": {
                "attack": 1,
                "special_attack": 1
            },
            "pokedex": [
                "pokemoncobbled.form.minior-green.desc1",
                "pokemoncobbled.form.minior-green.desc2"
            ],
            "weight": 3
        },
        {
            "name": "blue",
            "baseStats": {
                "hp": 60,
                "attack": 100,
                "defence": 60,
                "special_attack": 100,
                "special_defence": 60,
                "speed": 120
            },
            "baseExperienceYield": 175,
            "evYield": {
                "attack": 1,
                "special_attack": 1
            },
            "pokedex": [
                "pokemoncobbled.form.minior-blue.desc1",
                "pokemoncobbled.form.minior-blue.desc2"
            ],
            "weight": 3
        },
        {
            "name": "indigo",
            "baseStats": {
                "hp": 60,
                "attack": 100,
                "defence": 60,
                "special_attack": 100,
                "special_defence": 60,
                "speed": 120
            },
            "baseExperienceYield": 175,
            "evYield": {
                "attack": 1,
                "special_attack": 1
            },
            "pokedex": [
                "pokemoncobbled.form.minior-indigo.desc1",
                "pokemoncobbled.form.minior-indigo.desc2"
            ],
            "weight": 3
        },
        {
            "name": "violet",
            "baseStats": {
                "hp": 60,
                "attack": 100,
                "defence": 60,
                "special_attack": 100,
                "special_defence": 60,
                "speed": 120
            },
            "baseExperienceYield": 175,
            "evYield": {
                "attack": 1,
                "special_attack": 1
            },
            "pokedex": [
                "pokemoncobbled.form.minior-violet.desc1",
                "pokemoncobbled.form.minior-violet.desc2"
            ],
            "weight": 3
        }
    ]
}