{
    "name": "salandit",
    "nationalPokedexNumber": 757,
    "primaryType": "poison",
    "secondaryType": "fire",
    "abilities": [
        "corrosion",
        "h:oblivious"
    ],
    "baseStats": {
        "hp": 48,
        "attack": 44,
        "defence": 40,
        "special_attack": 71,
        "special_defence": 40,
        "speed": 77
    },
    "catchRate": 120,
    "maleRatio": 0.875,
    "shoulderMountable": false,
    "baseExperienceYield": 64,
    "baseFriendship": 50,
    "evYield": {
        "speed": 1
    },
    "experienceGroup": "mediumfast",
    "eggCycles": 20,
    "eggGroups": [
        "monster",
        "dragon"
    ],
    "moves": [
        "1:scratch",
        "1:poisongas",
        "5:smog",
        "10:ember",
        "13:dragonrage",
        "15:poisonfang",
        "20:sweetscent",
        "21:doubleslap",
        "24:flameburst",
        "25:nastyplot",
        "30:incinerate",
        "35:venoshock",
        "40:dragonpulse",
        "45:venomdrench",
        "50:flamethrower",
        "55:toxic",
        "60:endeavor",
        "egg:belch",
        "egg:fakeout",
        "egg:knockoff",
        "egg:mudslap",
        "egg:sandattack",
        "egg:snatch",
        "tm:attract",
        "tm:beatup",
        "tm:confide",
        "tm:doubleteam",
        "tm:dragonclaw",
        "tm:dragonpulse",
        "tm:endure",
        "tm:facade",
        "tm:fireblast",
        "tm:flamecharge",
        "tm:flamethrower",
        "tm:fling",
        "tm:foulplay",
        "tm:frustration",
        "tm:gunkshot",
        "tm:heatwave",
        "tm:helpinghand",
        "tm:hiddenpower",
        "tm:irontail",
        "tm:leechlife",
        "tm:nastyplot",
        "tm:overheat",
        "tm:payback",
        "tm:poisonjab",
        "tm:protect",
        "tm:rest",
        "tm:return",
        "tm:round",
        "tm:shadowclaw",
        "tm:sleeptalk",
        "tm:sludgebomb",
        "tm:sludgewave",
        "tm:snore",
        "tm:substitute",
        "tm:swagger",
        "tm:swift",
        "tm:taunt",
        "tm:thief",
        "tm:thunderwave",
        "tm:torment",
        "tm:venomdrench",
        "tm:venoshock",
        "tm:willowisp",
        "tutor:covet",
        "tutor:knockoff",
        "tutor:scaleshot",
        "tutor:skittersmack",
        "tutor:snatch"
    ],
    "labels": [
        "gen7"
    ],
    "pokedex": [
        "pokemoncobbled.species.salandit.desc1",
        "pokemoncobbled.species.salandit.desc2"
    ],
    "height": 6,
    "weight": 48,
    "baseScale": 1.0,
    "hitbox": {
        "width": 1.0,
        "height": 1.0,
        "fixed": false
    },
    "evolutions": [
        {
            "id": "salandit_salazzle",
            "variant": "level_up",
            "result": "salazzle",
            "consumeHeldItem": false,
            "learnableMoves": [],
            "requirements": [
                {
                    "variant": "level",
                    "minLevel": 33
                },
                {
                    "variant": "properties",
                    "target": "gender=female"
                }
            ]
        }
    ],
    "forms": []
}