{
    "name": "sandygast",
    "nationalPokedexNumber": 769,
    "primaryType": "ghost",
    "secondaryType": "ground",
    "abilities": [
        "watercompaction",
        "h:sandveil"
    ],
    "baseStats": {
        "hp": 55,
        "attack": 55,
        "defence": 80,
        "special_attack": 70,
        "special_defence": 45,
        "speed": 15
    },
    "catchRate": 140,
    "maleRatio": 0.5,
    "shoulderMountable": false,
    "baseExperienceYield": 64,
    "baseFriendship": 50,
    "evYield": {
        "defence": 1
    },
    "experienceGroup": "mediumfast",
    "eggCycles": 15,
    "eggGroups": [
        "amorphous"
    ],
    "moves": [
        "1:absorb",
        "1:harden",
        "5:astonish",
        "10:sandtomb",
        "15:megadrain",
        "20:sandattack",
        "25:bulldoze",
        "30:hypnosis",
        "35:gigadrain",
        "40:irondefense",
        "45:shadowball",
        "50:earthpower",
        "55:shoreup",
        "60:sandstorm",
        "egg:ancientpower",
        "egg:curse",
        "egg:destinybond",
        "egg:spitup",
        "egg:stockpile",
        "egg:swallow",
        "tm:amnesia",
        "tm:attract",
        "tm:brine",
        "tm:bulldoze",
        "tm:confide",
        "tm:doubleteam",
        "tm:earthpower",
        "tm:earthquake",
        "tm:endure",
        "tm:energyball",
        "tm:facade",
        "tm:frustration",
        "tm:gigadrain",
        "tm:hiddenpower",
        "tm:infestation",
        "tm:irondefense",
        "tm:mudshot",
        "tm:protect",
        "tm:psychic",
        "tm:rest",
        "tm:return",
        "tm:rockpolish",
        "tm:rockslide",
        "tm:rocktomb",
        "tm:round",
        "tm:sandstorm",
        "tm:sandtomb",
        "tm:shadowball",
        "tm:skillswap",
        "tm:sleeptalk",
        "tm:sludgebomb",
        "tm:snore",
        "tm:stealthrock",
        "tm:stoneedge",
        "tm:substitute",
        "tm:swagger",
        "tm:toxic",
        "tm:trick",
        "tutor:afteryou",
        "tutor:block",
        "tutor:gravity",
        "tutor:painsplit",
        "tutor:poltergeist",
        "tutor:recycle",
        "tutor:roleplay",
        "tutor:scorchingsands",
        "tutor:spite"
    ],
    "labels": [
        "gen7"
    ],
    "pokedex": [
        "pokemoncobbled.species.sandygast.desc1",
        "pokemoncobbled.species.sandygast.desc2"
    ],
    "height": 5,
    "weight": 700,
    "baseScale": 1.0,
    "hitbox": {
        "width": 1.0,
        "height": 1.0,
        "fixed": false
    },
    "evolutions": [
        {
            "id": "sandygast_palossand",
            "variant": "level_up",
            "result": "palossand",
            "consumeHeldItem": false,
            "learnableMoves": [],
            "requirements": [
                {
                    "variant": "level",
                    "minLevel": 42
                }
            ]
        }
    ],
    "forms": []
}