{
    "name": "wimpod",
    "nationalPokedexNumber": 767,
    "primaryType": "bug",
    "secondaryType": "water",
    "abilities": [
        "wimpout"
    ],
    "baseStats": {
        "hp": 25,
        "attack": 35,
        "defence": 40,
        "special_attack": 20,
        "special_defence": 30,
        "speed": 80
    },
    "catchRate": 90,
    "maleRatio": 0.5,
    "shoulderMountable": false,
    "baseExperienceYield": 46,
    "baseFriendship": 50,
    "evYield": {
        "speed": 1
    },
    "experienceGroup": "mediumfast",
    "eggCycles": 20,
    "eggGroups": [
        "bug",
        "water_3"
    ],
    "moves": [
        "1:sandattack",
        "1:defensecurl",
        "1:strugglebug",
        "egg:aquajet",
        "egg:harden",
        "egg:metalclaw",
        "egg:rollout",
        "egg:wideguard",
        "tm:assurance",
        "tm:attract",
        "tm:bugbuzz",
        "tm:confide",
        "tm:doubleteam",
        "tm:endure",
        "tm:facade",
        "tm:frustration",
        "tm:hail",
        "tm:hiddenpower",
        "tm:leechlife",
        "tm:mudshot",
        "tm:protect",
        "tm:raindance",
        "tm:rest",
        "tm:return",
        "tm:round",
        "tm:scald",
        "tm:screech",
        "tm:sleeptalk",
        "tm:snore",
        "tm:spikes",
        "tm:substitute",
        "tm:surf",
        "tm:swagger",
        "tm:swift",
        "tm:taunt",
        "tm:toxic",
        "tm:waterfall",
        "tutor:skittersmack"
    ],
    "labels": [
        "gen7"
    ],
    "pokedex": [
        "pokemoncobbled.species.wimpod.desc1",
        "pokemoncobbled.species.wimpod.desc2"
    ],
    "height": 5,
    "weight": 120,
    "baseScale": 1.0,
    "hitbox": {
        "width": 1.0,
        "height": 1.0,
        "fixed": false
    },
    "evolutions": [
        {
            "id": "wimpod_golisopod",
            "variant": "level_up",
            "result": "golisopod",
            "consumeHeldItem": false,
            "learnableMoves": [],
            "requirements": [
                {
                    "variant": "level",
                    "minLevel": 30
                }
            ]
        }
    ],
    "forms": []
}