{
    "name": "floatzel",
    "nationalPokedexNumber": 419,
    "primaryType": "water",
    "abilities": [
        "swiftswim",
        "h:waterveil"
    ],
    "baseStats": {
        "hp": 85,
        "attack": 105,
        "defence": 55,
        "special_attack": 85,
        "special_defence": 50,
        "speed": 115
    },
    "catchRate": 75,
    "maleRatio": 0.5,
    "shoulderMountable": false,
    "baseExperienceYield": 173,
    "baseFriendship": 70,
    "evYield": {
        "speed": 2
    },
    "experienceGroup": "mediumfast",
    "eggCycles": 20,
    "eggGroups": [
        "water1",
        "field"
    ],
    "moves": [
        "1:growl",
        "1:sonicboom",
        "1:quickattack",
        "1:crunch",
        "1:watersport",
        "1:icefang",
        "4:growl",
        "7:watersport",
        "11:quickattack",
        "15:watergun",
        "18:pursuit",
        "21:swift",
        "24:aquajet",
        "29:doublehit",
        "35:whirlpool",
        "41:razorwind",
        "46:aquatail",
        "51:agility",
        "57:hydropump",
        "tm:attract",
        "tm:blizzard",
        "tm:brickbreak",
        "tm:brine",
        "tm:bulkup",
        "tm:captivate",
        "tm:confide",
        "tm:dig",
        "tm:dive",
        "tm:doubleteam",
        "tm:echoedvoice",
        "tm:endure",
        "tm:facade",
        "tm:focusblast",
        "tm:frustration",
        "tm:gigaimpact",
        "tm:hail",
        "tm:hiddenpower",
        "tm:hyperbeam",
        "tm:icebeam",
        "tm:naturalgift",
        "tm:payback",
        "tm:poweruppunch",
        "tm:protect",
        "tm:raindance",
        "tm:rest",
        "tm:return",
        "tm:roar",
        "tm:rocksmash",
        "tm:rocktomb",
        "tm:round",
        "tm:scald",
        "tm:secretpower",
        "tm:sleeptalk",
        "tm:strength",
        "tm:substitute",
        "tm:surf",
        "tm:swagger",
        "tm:taunt",
        "tm:torment",
        "tm:toxic",
        "tm:waterfall",
        "tutor:aquatail",
        "tutor:focuspunch",
        "tutor:headbutt",
        "tutor:helpinghand",
        "tutor:icepunch",
        "tutor:icywind",
        "tutor:irontail",
        "tutor:liquidation",
        "tutor:lowkick",
        "tutor:mudslap",
        "tutor:snore",
        "tutor:waterpulse"
    ],
    "labels": [
        "gen4"
    ],
    "pokedex": [
        "pokemoncobbled.species.floatzel.desc1",
        "pokemoncobbled.species.floatzel.desc2"
    ],
    "height": 11,
    "weight": 335,
    "baseScale": 1.0,
    "hitbox": {
        "width": 1.0,
        "height": 1.0,
        "fixed": false
    },
    "preEvolution": "buizel",
    "evolutions": [],
    "forms": []
}