{
    "name": "kricketune",
    "nationalPokedexNumber": 402,
    "primaryType": "bug",
    "abilities": [
        "swarm",
        "h:technician"
    ],
    "baseStats": {
        "hp": 77,
        "attack": 85,
        "defence": 51,
        "special_attack": 55,
        "special_defence": 51,
        "speed": 65
    },
    "catchRate": 45,
    "maleRatio": 0.5,
    "shoulderMountable": false,
    "baseExperienceYield": 134,
    "baseFriendship": 70,
    "evYield": {
        "attack": 2
    },
    "experienceGroup": "mediumslow",
    "eggCycles": 15,
    "eggGroups": [
        "bug"
    ],
    "moves": [
        "0:furycutter",
        "1:growl",
        "1:bide",
        "1:furycutter",
        "14:absorb",
        "18:sing",
        "22:focusenergy",
        "26:slash",
        "30:xscissor",
        "34:screech",
        "36:fellstinger",
        "38:taunt",
        "42:nightslash",
        "44:stickyweb",
        "46:bugbuzz",
        "50:perishsong",
        "tm:aerialace",
        "tm:attract",
        "tm:brickbreak",
        "tm:captivate",
        "tm:confide",
        "tm:cut",
        "tm:doubleteam",
        "tm:echoedvoice",
        "tm:endure",
        "tm:facade",
        "tm:falseswipe",
        "tm:flash",
        "tm:frustration",
        "tm:gigaimpact",
        "tm:hiddenpower",
        "tm:honeclaws",
        "tm:hyperbeam",
        "tm:infestation",
        "tm:leechlife",
        "tm:naturalgift",
        "tm:poweruppunch",
        "tm:protect",
        "tm:raindance",
        "tm:rest",
        "tm:return",
        "tm:rocksmash",
        "tm:round",
        "tm:secretpower",
        "tm:silverwind",
        "tm:sleeptalk",
        "tm:strength",
        "tm:strugglebug",
        "tm:substitute",
        "tm:sunnyday",
        "tm:swagger",
        "tm:swordsdance",
        "tm:taunt",
        "tm:toxic",
        "tm:xscissor",
        "tutor:bugbite",
        "tutor:endeavor",
        "tutor:healbell",
        "tutor:hypervoice",
        "tutor:knockoff",
        "tutor:laserfocus",
        "tutor:mudslap",
        "tutor:snore",
        "tutor:stringshot",
        "tutor:throatchop",
        "tutor:uproar"
    ],
    "labels": [
        "gen4"
    ],
    "pokedex": [
        "pokemoncobbled.species.kricketune.desc1",
        "pokemoncobbled.species.kricketune.desc2"
    ],
    "height": 10,
    "weight": 255,
    "baseScale": 1.0,
    "hitbox": {
        "width": 1.0,
        "height": 1.0,
        "fixed": false
    },
    "preEvolution": "kricketot",
    "evolutions": [],
    "forms": []
}