{
    "name": "luxray",
    "nationalPokedexNumber": 405,
    "primaryType": "electric",
    "abilities": [
        "rivalry",
        "intimidate",
        "h:guts"
    ],
    "baseStats": {
        "hp": 80,
        "attack": 120,
        "defence": 79,
        "special_attack": 95,
        "special_defence": 79,
        "speed": 70
    },
    "catchRate": 45,
    "maleRatio": 0.5,
    "shoulderMountable": false,
    "baseExperienceYield": 262,
    "baseFriendship": 50,
    "evYield": {
        "attack": 3
    },
    "experienceGroup": "mediumslow",
    "eggCycles": 20,
    "eggGroups": [
        "field"
    ],
    "moves": [
        "1:tackle",
        "1:leer",
        "1:thundershock",
        "1:charge",
        "1:electricterrain",
        "12:bite",
        "18:spark",
        "24:roar",
        "33:voltswitch",
        "40:scaryface",
        "48:thunderwave",
        "56:crunch",
        "64:discharge",
        "72:swagger",
        "80:wildcharge",
        "tm:agility",
        "tm:attract",
        "tm:captivate",
        "tm:chargebeam",
        "tm:confide",
        "tm:crunch",
        "tm:doubleteam",
        "tm:eerieimpulse",
        "tm:electricterrain",
        "tm:electroball",
        "tm:endure",
        "tm:facade",
        "tm:faketears",
        "tm:firefang",
        "tm:flash",
        "tm:frustration",
        "tm:gigaimpact",
        "tm:helpinghand",
        "tm:hiddenpower",
        "tm:hyperbeam",
        "tm:icefang",
        "tm:irontail",
        "tm:lightscreen",
        "tm:naturalgift",
        "tm:playrough",
        "tm:protect",
        "tm:psychicfangs",
        "tm:raindance",
        "tm:rest",
        "tm:return",
        "tm:round",
        "tm:scaryface",
        "tm:secretpower",
        "tm:sleeptalk",
        "tm:snarl",
        "tm:snore",
        "tm:strength",
        "tm:substitute",
        "tm:superpower",
        "tm:swift",
        "tm:thief",
        "tm:throatchop",
        "tm:thunder",
        "tm:thunderbolt",
        "tm:thunderfang",
        "tm:thunderwave",
        "tm:toxic",
        "tm:voltswitch",
        "tm:wildcharge",
        "tutor:furycutter",
        "tutor:headbutt",
        "tutor:laserfocus",
        "tutor:magnetrise",
        "tutor:mudslap",
        "tutor:risingvoltage",
        "tutor:shockwave",
        "tutor:signalbeam"
    ],
    "labels": [
        "gen4"
    ],
    "pokedex": [
        "pokemoncobbled.species.luxray.desc1",
        "pokemoncobbled.species.luxray.desc2"
    ],
    "height": 14,
    "weight": 420,
    "baseScale": 1.0,
    "hitbox": {
        "width": 1.0,
        "height": 1.0,
        "fixed": false
    },
    "preEvolution": "luxio",
    "evolutions": [],
    "forms": []
}