{
    "name": "mantyke",
    "nationalPokedexNumber": 458,
    "primaryType": "water",
    "secondaryType": "flying",
    "abilities": [
        "swiftswim",
        "waterabsorb",
        "h:waterveil"
    ],
    "baseStats": {
        "hp": 45,
        "attack": 20,
        "defence": 50,
        "special_attack": 60,
        "special_defence": 120,
        "speed": 50
    },
    "catchRate": 25,
    "maleRatio": 0.5,
    "shoulderMountable": false,
    "baseExperienceYield": 69,
    "baseFriendship": 50,
    "evYield": {
        "special_defence": 1
    },
    "experienceGroup": "slow",
    "eggCycles": 25,
    "eggGroups": [
        "undiscovered"
    ],
    "moves": [
        "1:tackle",
        "1:watergun",
        "1:bubble",
        "4:supersonic",
        "8:wingattack",
        "12:waterpulse",
        "16:wideguard",
        "20:agility",
        "24:bubblebeam",
        "28:headbutt",
        "32:airslash",
        "36:aquaring",
        "40:bounce",
        "44:takedown",
        "48:hydropump",
        "egg:confuseray",
        "egg:haze",
        "egg:mirrorcoat",
        "egg:mudsport",
        "egg:signalbeam",
        "egg:slam",
        "egg:splash",
        "egg:tailwind",
        "egg:twister",
        "egg:watersport",
        "tm:acrobatics",
        "tm:aerialace",
        "tm:agility",
        "tm:airslash",
        "tm:amnesia",
        "tm:attract",
        "tm:blizzard",
        "tm:bounce",
        "tm:bulldoze",
        "tm:captivate",
        "tm:confide",
        "tm:dive",
        "tm:doubleteam",
        "tm:earthquake",
        "tm:endure",
        "tm:facade",
        "tm:frustration",
        "tm:hail",
        "tm:helpinghand",
        "tm:hiddenpower",
        "tm:hydropump",
        "tm:icebeam",
        "tm:icywind",
        "tm:naturalgift",
        "tm:protect",
        "tm:raindance",
        "tm:rest",
        "tm:return",
        "tm:rockslide",
        "tm:round",
        "tm:scald",
        "tm:secretpower",
        "tm:sleeptalk",
        "tm:snore",
        "tm:substitute",
        "tm:surf",
        "tm:swagger",
        "tm:swift",
        "tm:toxic",
        "tm:waterfall",
        "tm:whirlpool",
        "tutor:aircutter",
        "tutor:mudslap",
        "tutor:signalbeam"
    ],
    "labels": [
        "baby",
        "gen4"
    ],
    "pokedex": [
        "pokemoncobbled.species.mantyke.desc1",
        "pokemoncobbled.species.mantyke.desc2"
    ],
    "height": 10,
    "weight": 650,
    "baseScale": 1.0,
    "hitbox": {
        "width": 1.0,
        "height": 1.0,
        "fixed": false
    },
    "evolutions": [
        {
            "id": "mantyke_mantine",
            "variant": "level_up",
            "result": "mantine",
            "consumeHeldItem": false,
            "learnableMoves": [],
            "requirements": [
                {
                    "variant": "party_member",
                    "contains": true,
                    "target": "remoraid"
                }
            ]
        }
    ],
    "forms": []
}