{
    "name": "mesprit",
    "nationalPokedexNumber": 481,
    "primaryType": "psychic",
    "abilities": [
        "levitate"
    ],
    "baseStats": {
        "hp": 80,
        "attack": 105,
        "defence": 105,
        "special_attack": 105,
        "special_defence": 105,
        "speed": 80
    },
    "catchRate": 3,
    "maleRatio": -1,
    "shoulderMountable": false,
    "baseExperienceYield": 290,
    "baseFriendship": 140,
    "evYield": {
        "attack": 1,
        "special_attack": 1,
        "special_defence": 1
    },
    "experienceGroup": "slow",
    "eggCycles": 80,
    "eggGroups": [
        "undiscovered"
    ],
    "moves": [
        "1:confusion",
        "1:rest",
        "1:naturalgift",
        "7:swift",
        "14:protect",
        "21:psybeam",
        "28:imprison",
        "31:luckychant",
        "35:extrasensory",
        "42:charm",
        "49:psychic",
        "56:flatter",
        "63:futuresight",
        "66:naturalgift",
        "70:copycat",
        "77:healingwish",
        "tm:acrobatics",
        "tm:allyswitch",
        "tm:batonpass",
        "tm:blizzard",
        "tm:calmmind",
        "tm:chargebeam",
        "tm:charm",
        "tm:confide",
        "tm:dazzlinggleam",
        "tm:doubleteam",
        "tm:drainingkiss",
        "tm:drainpunch",
        "tm:dreameater",
        "tm:encore",
        "tm:endure",
        "tm:energyball",
        "tm:facade",
        "tm:firepunch",
        "tm:flash",
        "tm:fling",
        "tm:frustration",
        "tm:futuresight",
        "tm:gigaimpact",
        "tm:grassknot",
        "tm:helpinghand",
        "tm:hiddenpower",
        "tm:hyperbeam",
        "tm:icebeam",
        "tm:icepunch",
        "tm:imprison",
        "tm:irontail",
        "tm:lightscreen",
        "tm:magicroom",
        "tm:metronome",
        "tm:nastyplot",
        "tm:playrough",
        "tm:poweruppunch",
        "tm:protect",
        "tm:psychic",
        "tm:psychocut",
        "tm:psychup",
        "tm:psyshock",
        "tm:raindance",
        "tm:reflect",
        "tm:rest",
        "tm:return",
        "tm:round",
        "tm:safeguard",
        "tm:sandstorm",
        "tm:secretpower",
        "tm:shadowball",
        "tm:skillswap",
        "tm:sleeptalk",
        "tm:snore",
        "tm:stealthrock",
        "tm:storedpower",
        "tm:substitute",
        "tm:sunnyday",
        "tm:swagger",
        "tm:swift",
        "tm:thunder",
        "tm:thunderbolt",
        "tm:thunderpunch",
        "tm:thunderwave",
        "tm:toxic",
        "tm:triattack",
        "tm:trick",
        "tm:trickroom",
        "tm:uturn",
        "tm:wonderroom",
        "tm:zenheadbutt",
        "tutor:expandingforce",
        "tutor:headbutt",
        "tutor:knockoff",
        "tutor:laserfocus",
        "tutor:magiccoat",
        "tutor:mudslap",
        "tutor:recycle",
        "tutor:roleplay",
        "tutor:shockwave",
        "tutor:signalbeam",
        "tutor:telekinesis",
        "tutor:waterpulse"
    ],
    "labels": [
        "gen4",
        "legendary"
    ],
    "pokedex": [
        "pokemoncobbled.species.mesprit.desc1",
        "pokemoncobbled.species.mesprit.desc2"
    ],
    "height": 3,
    "weight": 3,
    "baseScale": 1.0,
    "hitbox": {
        "width": 1.0,
        "height": 1.0,
        "fixed": false
    },
    "evolutions": [],
    "forms": []
}