{
    "name": "mismagius",
    "nationalPokedexNumber": 429,
    "primaryType": "ghost",
    "abilities": [
        "levitate"
    ],
    "baseStats": {
        "hp": 60,
        "attack": 60,
        "defence": 60,
        "special_attack": 105,
        "special_defence": 105,
        "speed": 105
    },
    "catchRate": 45,
    "maleRatio": 0.5,
    "shoulderMountable": false,
    "baseExperienceYield": 173,
    "baseFriendship": 35,
    "evYield": {
        "special_attack": 1,
        "special_defence": 1
    },
    "experienceGroup": "fast",
    "eggCycles": 25,
    "eggGroups": [
        "amorphous"
    ],
    "moves": [
        "1:growl",
        "1:psywave",
        "1:spite",
        "1:astonish",
        "1:magicalleaf",
        "1:luckychant",
        "1:powergem",
        "1:phantomforce",
        "1:mysticalfire",
        "tm:aerialace",
        "tm:attract",
        "tm:calmmind",
        "tm:captivate",
        "tm:chargebeam",
        "tm:confide",
        "tm:darkpulse",
        "tm:dazzlinggleam",
        "tm:doubleteam",
        "tm:dreameater",
        "tm:echoedvoice",
        "tm:embargo",
        "tm:endure",
        "tm:energyball",
        "tm:facade",
        "tm:flash",
        "tm:frustration",
        "tm:gigaimpact",
        "tm:hiddenpower",
        "tm:hyperbeam",
        "tm:naturalgift",
        "tm:payback",
        "tm:protect",
        "tm:psychic",
        "tm:psychup",
        "tm:raindance",
        "tm:rest",
        "tm:return",
        "tm:round",
        "tm:secretpower",
        "tm:shadowball",
        "tm:sleeptalk",
        "tm:substitute",
        "tm:sunnyday",
        "tm:swagger",
        "tm:taunt",
        "tm:thief",
        "tm:thunder",
        "tm:thunderbolt",
        "tm:thunderwave",
        "tm:torment",
        "tm:toxic",
        "tm:trickroom",
        "tm:willowisp",
        "tutor:allyswitch",
        "tutor:foulplay",
        "tutor:headbutt",
        "tutor:healbell",
        "tutor:hypervoice",
        "tutor:icywind",
        "tutor:laserfocus",
        "tutor:magiccoat",
        "tutor:magicroom",
        "tutor:ominouswind",
        "tutor:painsplit",
        "tutor:shockwave",
        "tutor:skillswap",
        "tutor:snatch",
        "tutor:snore",
        "tutor:spite",
        "tutor:suckerpunch",
        "tutor:swift",
        "tutor:telekinesis",
        "tutor:trick",
        "tutor:uproar",
        "tutor:wonderroom"
    ],
    "labels": [
        "gen4"
    ],
    "pokedex": [
        "pokemoncobbled.species.mismagius.desc1",
        "pokemoncobbled.species.mismagius.desc2"
    ],
    "height": 9,
    "weight": 44,
    "baseScale": 1.0,
    "hitbox": {
        "width": 1.0,
        "height": 1.0,
        "fixed": false
    },
    "preEvolution": "misdreavus",
    "evolutions": [],
    "forms": []
}