{
    "name": "probopass",
    "nationalPokedexNumber": 476,
    "primaryType": "rock",
    "secondaryType": "steel",
    "abilities": [
        "sturdy",
        "magnetpull",
        "h:sandforce"
    ],
    "baseStats": {
        "hp": 60,
        "attack": 55,
        "defence": 145,
        "special_attack": 75,
        "special_defence": 150,
        "speed": 40
    },
    "catchRate": 60,
    "maleRatio": 0.5,
    "shoulderMountable": false,
    "baseExperienceYield": 184,
    "baseFriendship": 70,
    "evYield": {
        "defence": 1,
        "special_defence": 2
    },
    "experienceGroup": "mediumfast",
    "eggCycles": 20,
    "eggGroups": [
        "mineral"
    ],
    "moves": [
        "0:triattack",
        "1:tackle",
        "1:triattack",
        "1:irondefense",
        "1:block",
        "1:gravity",
        "1:magnetrise",
        "1:magnetbomb",
        "1:wideguard",
        "1:magneticflux",
        "4:irondefense",
        "7:block",
        "10:magnetbomb",
        "13:thunderwave",
        "16:rest",
        "19:spark",
        "22:rockslide",
        "25:powergem",
        "28:rockblast",
        "31:discharge",
        "34:sandstorm",
        "37:earthpower",
        "40:stoneedge",
        "43:zapcannon",
        "43:lockon",
        "tm:attract",
        "tm:bulldoze",
        "tm:captivate",
        "tm:confide",
        "tm:dazzlinggleam",
        "tm:doubleteam",
        "tm:earthquake",
        "tm:endure",
        "tm:explosion",
        "tm:facade",
        "tm:flashcannon",
        "tm:frustration",
        "tm:gigaimpact",
        "tm:hiddenpower",
        "tm:hyperbeam",
        "tm:naturalgift",
        "tm:protect",
        "tm:rest",
        "tm:return",
        "tm:rockpolish",
        "tm:rockslide",
        "tm:rocksmash",
        "tm:rocktomb",
        "tm:round",
        "tm:sandstorm",
        "tm:secretpower",
        "tm:sleeptalk",
        "tm:smackdown",
        "tm:stoneedge",
        "tm:strength",
        "tm:substitute",
        "tm:sunnyday",
        "tm:swagger",
        "tm:taunt",
        "tm:thunder",
        "tm:thunderbolt",
        "tm:thunderwave",
        "tm:torment",
        "tm:toxic",
        "tm:voltswitch",
        "tutor:allyswitch",
        "tutor:ancientpower",
        "tutor:block",
        "tutor:earthpower",
        "tutor:firepunch",
        "tutor:gravity",
        "tutor:headbutt",
        "tutor:icepunch",
        "tutor:irondefense",
        "tutor:ironhead",
        "tutor:magiccoat",
        "tutor:magnetrise",
        "tutor:mudslap",
        "tutor:painsplit",
        "tutor:rollout",
        "tutor:shockwave",
        "tutor:snore",
        "tutor:stealthrock",
        "tutor:stompingtantrum",
        "tutor:telekinesis",
        "tutor:thunderpunch"
    ],
    "labels": [
        "gen4"
    ],
    "pokedex": [
        "pokemoncobbled.species.probopass.desc1",
        "pokemoncobbled.species.probopass.desc2"
    ],
    "height": 14,
    "weight": 3400,
    "baseScale": 1.0,
    "hitbox": {
        "width": 1.0,
        "height": 1.0,
        "fixed": false
    },
    "preEvolution": "nosepass",
    "evolutions": [],
    "forms": []
}