{
    "name": "skorupi",
    "nationalPokedexNumber": 451,
    "primaryType": "poison",
    "secondaryType": "bug",
    "abilities": [
        "battlearmor",
        "sniper",
        "h:keeneye"
    ],
    "baseStats": {
        "hp": 40,
        "attack": 50,
        "defence": 90,
        "special_attack": 30,
        "special_defence": 55,
        "speed": 65
    },
    "catchRate": 120,
    "maleRatio": 0.5,
    "shoulderMountable": false,
    "baseExperienceYield": 66,
    "baseFriendship": 50,
    "evYield": {
        "defence": 1
    },
    "experienceGroup": "slow",
    "eggCycles": 20,
    "eggGroups": [
        "bug",
        "water_3"
    ],
    "moves": [
        "1:poisonsting",
        "1:leer",
        "3:honeclaws",
        "6:fellstinger",
        "9:poisonfang",
        "12:bite",
        "15:toxicspikes",
        "16:pursuit",
        "18:bugbite",
        "21:venoshock",
        "24:knockoff",
        "27:scaryface",
        "30:pinmissile",
        "33:toxic",
        "36:nightslash",
        "39:crosspoison",
        "42:xscissor",
        "45:acupressure",
        "48:crunch",
        "egg:confuseray",
        "egg:feintattack",
        "egg:poisontail",
        "egg:pursuit",
        "egg:sandattack",
        "egg:slash",
        "egg:twineedle",
        "egg:whirlwind",
        "tm:aerialace",
        "tm:agility",
        "tm:assurance",
        "tm:attract",
        "tm:brickbreak",
        "tm:bugbuzz",
        "tm:captivate",
        "tm:confide",
        "tm:crosspoison",
        "tm:crunch",
        "tm:cut",
        "tm:darkpulse",
        "tm:dig",
        "tm:doubleteam",
        "tm:endure",
        "tm:facade",
        "tm:falseswipe",
        "tm:flash",
        "tm:fling",
        "tm:frustration",
        "tm:hiddenpower",
        "tm:infestation",
        "tm:irontail",
        "tm:naturalgift",
        "tm:payback",
        "tm:pinmissile",
        "tm:poisonjab",
        "tm:protect",
        "tm:raindance",
        "tm:rest",
        "tm:return",
        "tm:rocksmash",
        "tm:rocktomb",
        "tm:round",
        "tm:scaryface",
        "tm:screech",
        "tm:secretpower",
        "tm:shadowball",
        "tm:sleeptalk",
        "tm:sludgebomb",
        "tm:snore",
        "tm:strength",
        "tm:strugglebug",
        "tm:substitute",
        "tm:sunnyday",
        "tm:swagger",
        "tm:swordsdance",
        "tm:taunt",
        "tm:thief",
        "tm:torment",
        "tm:toxicspikes",
        "tm:venoshock",
        "tm:xscissor",
        "tutor:aquatail",
        "tutor:furycutter",
        "tutor:headbutt",
        "tutor:mudslap",
        "tutor:skittersmack"
    ],
    "labels": [
        "gen4"
    ],
    "pokedex": [
        "pokemoncobbled.species.skorupi.desc1",
        "pokemoncobbled.species.skorupi.desc2"
    ],
    "height": 8,
    "weight": 120,
    "baseScale": 1.0,
    "hitbox": {
        "width": 1.0,
        "height": 1.0,
        "fixed": false
    },
    "evolutions": [
        {
            "id": "skorupi_drapion",
            "variant": "level_up",
            "result": "drapion",
            "consumeHeldItem": false,
            "learnableMoves": [],
            "requirements": [
                {
                    "variant": "level",
                    "minLevel": 40
                }
            ]
        }
    ],
    "forms": []
}