{
    "name": "staraptor",
    "nationalPokedexNumber": 398,
    "primaryType": "normal",
    "secondaryType": "flying",
    "abilities": [
        "intimidate",
        "h:reckless"
    ],
    "baseStats": {
        "hp": 85,
        "attack": 120,
        "defence": 70,
        "special_attack": 50,
        "special_defence": 60,
        "speed": 100
    },
    "catchRate": 45,
    "maleRatio": 0.5,
    "shoulderMountable": false,
    "baseExperienceYield": 218,
    "baseFriendship": 70,
    "evYield": {
        "attack": 3
    },
    "experienceGroup": "mediumslow",
    "eggCycles": 15,
    "eggGroups": [
        "flying"
    ],
    "moves": [
        "0:closecombat",
        "1:wingattack",
        "1:tackle",
        "1:growl",
        "1:quickattack",
        "1:closecombat",
        "5:quickattack",
        "9:wingattack",
        "13:doubleteam",
        "18:endeavor",
        "23:whirlwind",
        "28:aerialace",
        "33:takedown",
        "41:agility",
        "49:bravebird",
        "57:finalgambit",
        "tm:aerialace",
        "tm:attract",
        "tm:captivate",
        "tm:confide",
        "tm:doubleteam",
        "tm:echoedvoice",
        "tm:endure",
        "tm:facade",
        "tm:fly",
        "tm:frustration",
        "tm:gigaimpact",
        "tm:hiddenpower",
        "tm:hyperbeam",
        "tm:naturalgift",
        "tm:pluck",
        "tm:protect",
        "tm:raindance",
        "tm:rest",
        "tm:retaliate",
        "tm:return",
        "tm:roost",
        "tm:round",
        "tm:secretpower",
        "tm:sleeptalk",
        "tm:steelwing",
        "tm:substitute",
        "tm:sunnyday",
        "tm:swagger",
        "tm:thief",
        "tm:toxic",
        "tm:uturn",
        "tm:workup",
        "tutor:aircutter",
        "tutor:defog",
        "tutor:endeavor",
        "tutor:heatwave",
        "tutor:laserfocus",
        "tutor:mudslap",
        "tutor:ominouswind",
        "tutor:skyattack",
        "tutor:snore",
        "tutor:swift",
        "tutor:tailwind",
        "tutor:twister",
        "tutor:uproar"
    ],
    "labels": [
        "gen4"
    ],
    "pokedex": [
        "pokemoncobbled.species.staraptor.desc1",
        "pokemoncobbled.species.staraptor.desc2"
    ],
    "height": 12,
    "weight": 249,
    "baseScale": 1.0,
    "hitbox": {
        "width": 1.0,
        "height": 1.0,
        "fixed": false
    },
    "preEvolution": "staravia",
    "evolutions": [],
    "forms": []
}