{
    "name": "crustle",
    "nationalPokedexNumber": 558,
    "primaryType": "bug",
    "secondaryType": "rock",
    "abilities": [
        "sturdy",
        "shellarmor",
        "h:weakarmor"
    ],
    "baseStats": {
        "hp": 70,
        "attack": 105,
        "defence": 125,
        "special_attack": 65,
        "special_defence": 75,
        "speed": 45
    },
    "catchRate": 75,
    "maleRatio": 0.5,
    "shoulderMountable": false,
    "baseExperienceYield": 170,
    "baseFriendship": 50,
    "evYield": {
        "defence": 2
    },
    "experienceGroup": "mediumfast",
    "eggCycles": 20,
    "eggGroups": [
        "bug",
        "mineral"
    ],
    "moves": [
        "1:sandattack",
        "1:withdraw",
        "1:furycutter",
        "1:smackdown",
        "12:bugbite",
        "13:feintattack",
        "16:flail",
        "20:slash",
        "24:rockslide",
        "28:stealthrock",
        "32:rockblast",
        "38:xscissor",
        "44:rockpolish",
        "50:shellsmash",
        "56:rockwrecker",
        "tm:aerialace",
        "tm:attract",
        "tm:bodypress",
        "tm:bulldoze",
        "tm:confide",
        "tm:cut",
        "tm:dig",
        "tm:doubleteam",
        "tm:earthquake",
        "tm:endure",
        "tm:facade",
        "tm:frustration",
        "tm:gigaimpact",
        "tm:heavyslam",
        "tm:hiddenpower",
        "tm:honeclaws",
        "tm:hyperbeam",
        "tm:irondefense",
        "tm:naturepower",
        "tm:poisonjab",
        "tm:protect",
        "tm:rest",
        "tm:return",
        "tm:rockblast",
        "tm:rockslide",
        "tm:rocksmash",
        "tm:rocktomb",
        "tm:round",
        "tm:sandstorm",
        "tm:sandtomb",
        "tm:secretpower",
        "tm:shadowclaw",
        "tm:sleeptalk",
        "tm:snore",
        "tm:solarbeam",
        "tm:solarblade",
        "tm:spikes",
        "tm:stealthrock",
        "tm:stompingtantrum",
        "tm:stoneedge",
        "tm:strength",
        "tm:strugglebug",
        "tm:substitute",
        "tm:swagger",
        "tm:swordsdance",
        "tm:toxic",
        "tm:xscissor",
        "tutor:block",
        "tutor:knockoff",
        "tutor:meteorbeam",
        "tutor:skittersmack"
    ],
    "labels": [
        "gen5"
    ],
    "pokedex": [
        "pokemoncobbled.species.crustle.desc1",
        "pokemoncobbled.species.crustle.desc2"
    ],
    "height": 14,
    "weight": 2000,
    "baseScale": 1.0,
    "hitbox": {
        "width": 1.0,
        "height": 1.0,
        "fixed": false
    },
    "preEvolution": "dwebble",
    "evolutions": [],
    "forms": []
}