{
    "name": "darmanitan",
    "nationalPokedexNumber": 555,
    "primaryType": "fire",
    "abilities": [
        "sheerforce",
        "h:zenmode"
    ],
    "baseStats": {
        "hp": 105,
        "attack": 140,
        "defence": 55,
        "special_attack": 30,
        "special_defence": 55,
        "speed": 95
    },
    "catchRate": 60,
    "maleRatio": 0.5,
    "shoulderMountable": false,
    "baseExperienceYield": 168,
    "baseFriendship": 50,
    "evYield": {
        "attack": 2
    },
    "experienceGroup": "mediumslow",
    "eggCycles": 20,
    "eggGroups": [
        "field"
    ],
    "moves": [
        "0:hammerarm",
        "1:tackle",
        "1:bite",
        "1:ember",
        "1:rage",
        "1:rollout",
        "1:taunt",
        "1:hammerarm",
        "3:rollout",
        "9:rage",
        "12:incinerate",
        "16:workup",
        "17:swagger",
        "20:firefang",
        "24:headbutt",
        "28:firepunch",
        "32:uproar",
        "38:bellydrum",
        "44:flareblitz",
        "50:thrash",
        "56:superpower",
        "tm:attract",
        "tm:bodypress",
        "tm:bodyslam",
        "tm:brickbreak",
        "tm:bulkup",
        "tm:bulldoze",
        "tm:confide",
        "tm:dig",
        "tm:doubleteam",
        "tm:earthquake",
        "tm:encore",
        "tm:endure",
        "tm:facade",
        "tm:fireblast",
        "tm:firefang",
        "tm:firepunch",
        "tm:firespin",
        "tm:flamecharge",
        "tm:flamethrower",
        "tm:flareblitz",
        "tm:fling",
        "tm:focusblast",
        "tm:focusenergy",
        "tm:frustration",
        "tm:futuresight",
        "tm:gigaimpact",
        "tm:grassknot",
        "tm:guardswap",
        "tm:gyroball",
        "tm:heatwave",
        "tm:hiddenpower",
        "tm:hyperbeam",
        "tm:irondefense",
        "tm:ironhead",
        "tm:megakick",
        "tm:megapunch",
        "tm:mysticalfire",
        "tm:overheat",
        "tm:payback",
        "tm:powerswap",
        "tm:poweruppunch",
        "tm:protect",
        "tm:psychic",
        "tm:rest",
        "tm:return",
        "tm:reversal",
        "tm:roar",
        "tm:rockslide",
        "tm:rocksmash",
        "tm:rocktomb",
        "tm:round",
        "tm:secretpower",
        "tm:sleeptalk",
        "tm:smackdown",
        "tm:snore",
        "tm:solarbeam",
        "tm:stoneedge",
        "tm:strength",
        "tm:substitute",
        "tm:sunnyday",
        "tm:superpower",
        "tm:swagger",
        "tm:taunt",
        "tm:thief",
        "tm:torment",
        "tm:toxic",
        "tm:trick",
        "tm:uproar",
        "tm:uturn",
        "tm:willowisp",
        "tm:workup",
        "tm:zenheadbutt",
        "tutor:burningjealousy",
        "tutor:endeavor",
        "tutor:expandingforce",
        "tutor:focuspunch",
        "tutor:laserfocus",
        "tutor:lashout",
        "tutor:snatch"
    ],
    "labels": [
        "gen5"
    ],
    "pokedex": [
        "pokemoncobbled.species.darmanitan.desc1",
        "pokemoncobbled.species.darmanitan.desc2"
    ],
    "height": 13,
    "weight": 929,
    "baseScale": 1.0,
    "hitbox": {
        "width": 1.0,
        "height": 1.0,
        "fixed": false
    },
    "preEvolution": "darumaka",
    "evolutions": [],
    "forms": [
        {
            "name": "zen",
            "secondaryType": "psychic",
            "baseStats": {
                "hp": 105,
                "attack": 30,
                "defence": 105,
                "special_attack": 140,
                "special_defence": 105,
                "speed": 55
            },
            "baseExperienceYield": 189,
            "evYield": {
                "special_attack": 2
            },
            "pokedex": [
                "pokemoncobbled.form.darmanitan-zen.desc1",
                "pokemoncobbled.form.darmanitan-zen.desc2"
            ]
        },
        {
            "name": "galar-standard",
            "primaryType": "ice",
            "abilities": [
                "gorillatactics",
                "h:zenmode"
            ],
            "moves": [
                "0:iciclecrash",
                "1:tackle",
                "1:bite",
                "1:powdersnow",
                "1:taunt",
                "1:iciclecrash",
                "12:avalanche",
                "16:workup",
                "20:icefang",
                "24:headbutt",
                "28:icepunch",
                "32:uproar",
                "38:bellydrum",
                "44:blizzard",
                "50:thrash",
                "56:superpower",
                "tm:attract",
                "tm:avalanche",
                "tm:blizzard",
                "tm:bodypress",
                "tm:bodyslam",
                "tm:brickbreak",
                "tm:bulkup",
                "tm:bulldoze",
                "tm:dig",
                "tm:earthquake",
                "tm:encore",
                "tm:endure",
                "tm:facade",
                "tm:fireblast",
                "tm:firefang",
                "tm:firepunch",
                "tm:firespin",
                "tm:flamethrower",
                "tm:flareblitz",
                "tm:fling",
                "tm:focusblast",
                "tm:focusenergy",
                "tm:gigaimpact",
                "tm:grassknot",
                "tm:gyroball",
                "tm:heatwave",
                "tm:hyperbeam",
                "tm:icebeam",
                "tm:icefang",
                "tm:icepunch",
                "tm:irondefense",
                "tm:ironhead",
                "tm:megakick",
                "tm:megapunch",
                "tm:overheat",
                "tm:payback",
                "tm:protect",
                "tm:psychic",
                "tm:rest",
                "tm:reversal",
                "tm:rockslide",
                "tm:rocktomb",
                "tm:round",
                "tm:sleeptalk",
                "tm:snore",
                "tm:solarbeam",
                "tm:stoneedge",
                "tm:substitute",
                "tm:sunnyday",
                "tm:superpower",
                "tm:taunt",
                "tm:thief",
                "tm:uproar",
                "tm:uturn",
                "tm:willowisp",
                "tm:workup",
                "tm:zenheadbutt",
                "tutor:burningjealousy",
                "tutor:lashout"
            ],
            "pokedex": [
                "pokemoncobbled.form.darmanitan-galar-standard.desc1",
                "pokemoncobbled.form.darmanitan-galar-standard.desc2"
            ],
            "height": 17,
            "weight": 1200
        },
        {
            "name": "galar-zen",
            "primaryType": "ice",
            "secondaryType": "fire",
            "abilities": [
                "gorillatactics",
                "h:zenmode"
            ],
            "baseStats": {
                "hp": 105,
                "attack": 160,
                "defence": 55,
                "special_attack": 30,
                "special_defence": 55,
                "speed": 135
            },
            "baseExperienceYield": 189,
            "evYield": {
                "special_attack": 2
            },
            "moves": [
                "0:iciclecrash",
                "1:tackle",
                "1:bite",
                "1:powdersnow",
                "1:taunt",
                "1:iciclecrash",
                "12:avalanche",
                "16:workup",
                "20:icefang",
                "24:headbutt",
                "28:icepunch",
                "32:uproar",
                "38:bellydrum",
                "44:blizzard",
                "50:thrash",
                "56:superpower",
                "tm:attract",
                "tm:avalanche",
                "tm:blizzard",
                "tm:bodypress",
                "tm:bodyslam",
                "tm:brickbreak",
                "tm:bulkup",
                "tm:bulldoze",
                "tm:dig",
                "tm:earthquake",
                "tm:encore",
                "tm:endure",
                "tm:facade",
                "tm:fireblast",
                "tm:firefang",
                "tm:firepunch",
                "tm:firespin",
                "tm:flamethrower",
                "tm:flareblitz",
                "tm:fling",
                "tm:focusblast",
                "tm:focusenergy",
                "tm:gigaimpact",
                "tm:grassknot",
                "tm:gyroball",
                "tm:heatwave",
                "tm:hyperbeam",
                "tm:icebeam",
                "tm:icefang",
                "tm:icepunch",
                "tm:irondefense",
                "tm:ironhead",
                "tm:megakick",
                "tm:megapunch",
                "tm:overheat",
                "tm:payback",
                "tm:protect",
                "tm:psychic",
                "tm:rest",
                "tm:reversal",
                "tm:rockslide",
                "tm:rocktomb",
                "tm:round",
                "tm:sleeptalk",
                "tm:snore",
                "tm:solarbeam",
                "tm:stoneedge",
                "tm:substitute",
                "tm:sunnyday",
                "tm:superpower",
                "tm:taunt",
                "tm:thief",
                "tm:uproar",
                "tm:uturn",
                "tm:willowisp",
                "tm:workup",
                "tm:zenheadbutt",
                "tutor:burningjealousy",
                "tutor:lashout"
            ],
            "pokedex": [
                "pokemoncobbled.form.darmanitan-galar-zen.desc1",
                "pokemoncobbled.form.darmanitan-galar-zen.desc2"
            ],
            "height": 17,
            "weight": 1200
        }
    ]
}