{
    "name": "darumaka",
    "nationalPokedexNumber": 554,
    "primaryType": "fire",
    "abilities": [
        "hustle",
        "h:innerfocus"
    ],
    "baseStats": {
        "hp": 70,
        "attack": 90,
        "defence": 45,
        "special_attack": 15,
        "special_defence": 45,
        "speed": 50
    },
    "catchRate": 120,
    "maleRatio": 0.5,
    "shoulderMountable": false,
    "baseExperienceYield": 63,
    "baseFriendship": 50,
    "evYield": {
        "attack": 1
    },
    "experienceGroup": "mediumslow",
    "eggCycles": 20,
    "eggGroups": [
        "field"
    ],
    "moves": [
        "1:tackle",
        "1:ember",
        "3:rollout",
        "4:taunt",
        "8:bite",
        "9:rage",
        "12:incinerate",
        "16:workup",
        "20:firefang",
        "24:headbutt",
        "28:firepunch",
        "32:uproar",
        "36:bellydrum",
        "40:flareblitz",
        "44:thrash",
        "48:superpower",
        "egg:extrasensory",
        "egg:flamewheel",
        "egg:focuspunch",
        "egg:hammerarm",
        "egg:snatch",
        "egg:takedown",
        "egg:yawn",
        "tm:attract",
        "tm:brickbreak",
        "tm:confide",
        "tm:dig",
        "tm:doubleteam",
        "tm:encore",
        "tm:endure",
        "tm:facade",
        "tm:fireblast",
        "tm:firefang",
        "tm:firepunch",
        "tm:firespin",
        "tm:flamecharge",
        "tm:flamethrower",
        "tm:flareblitz",
        "tm:fling",
        "tm:focusenergy",
        "tm:frustration",
        "tm:grassknot",
        "tm:gyroball",
        "tm:heatwave",
        "tm:hiddenpower",
        "tm:megakick",
        "tm:megapunch",
        "tm:overheat",
        "tm:poweruppunch",
        "tm:protect",
        "tm:rest",
        "tm:return",
        "tm:roar",
        "tm:rockslide",
        "tm:rocksmash",
        "tm:rocktomb",
        "tm:round",
        "tm:secretpower",
        "tm:sleeptalk",
        "tm:snore",
        "tm:solarbeam",
        "tm:strength",
        "tm:substitute",
        "tm:sunnyday",
        "tm:superpower",
        "tm:swagger",
        "tm:taunt",
        "tm:thief",
        "tm:toxic",
        "tm:uproar",
        "tm:uturn",
        "tm:willowisp",
        "tm:workup",
        "tm:zenheadbutt",
        "tutor:endeavor",
        "tutor:snatch"
    ],
    "labels": [
        "gen5"
    ],
    "pokedex": [
        "pokemoncobbled.species.darumaka.desc1",
        "pokemoncobbled.species.darumaka.desc2"
    ],
    "height": 6,
    "weight": 375,
    "baseScale": 1.0,
    "hitbox": {
        "width": 1.0,
        "height": 1.0,
        "fixed": false
    },
    "evolutions": [
        {
            "id": "darumaka_darmanitan",
            "variant": "level_up",
            "result": "darmanitan",
            "consumeHeldItem": false,
            "learnableMoves": [],
            "requirements": [
                {
                    "variant": "level",
                    "minLevel": 35
                }
            ]
        },
        {
            "id": "darumaka_darmanitan",
            "variant": "item_interact",
            "result": "darmanitan",
            "consumeHeldItem": false,
            "learnableMoves": [],
            "requirements": [],
            "requiredContext": "pokemoncobbled:ice_stone"
        }
    ],
    "forms": [
        {
            "name": "galar",
            "primaryType": "ice",
            "moves": [
                "1:tackle",
                "1:powdersnow",
                "4:taunt",
                "8:bite",
                "12:avalanche",
                "16:workup",
                "20:icefang",
                "24:headbutt",
                "28:icepunch",
                "32:uproar",
                "36:bellydrum",
                "40:blizzard",
                "44:thrash",
                "48:superpower",
                "egg:flamewheel",
                "egg:focuspunch",
                "egg:freezedry",
                "egg:hammerarm",
                "egg:incinerate",
                "egg:poweruppunch",
                "egg:takedown",
                "egg:yawn",
                "tm:attract",
                "tm:avalanche",
                "tm:blizzard",
                "tm:brickbreak",
                "tm:dig",
                "tm:encore",
                "tm:endure",
                "tm:facade",
                "tm:fireblast",
                "tm:firefang",
                "tm:firepunch",
                "tm:firespin",
                "tm:flamethrower",
                "tm:flareblitz",
                "tm:fling",
                "tm:focusenergy",
                "tm:grassknot",
                "tm:gyroball",
                "tm:heatwave",
                "tm:icebeam",
                "tm:icefang",
                "tm:icepunch",
                "tm:megakick",
                "tm:megapunch",
                "tm:overheat",
                "tm:protect",
                "tm:rest",
                "tm:rockslide",
                "tm:rocktomb",
                "tm:round",
                "tm:sleeptalk",
                "tm:snore",
                "tm:solarbeam",
                "tm:substitute",
                "tm:sunnyday",
                "tm:superpower",
                "tm:taunt",
                "tm:thief",
                "tm:uproar",
                "tm:uturn",
                "tm:willowisp",
                "tm:workup",
                "tm:zenheadbutt"
            ],
            "pokedex": [
                "pokemoncobbled.form.darumaka-galar.desc1",
                "pokemoncobbled.form.darumaka-galar.desc2"
            ],
            "height": 7,
            "weight": 400
        }
    ]
}