{
    "name": "dewott",
    "nationalPokedexNumber": 502,
    "primaryType": "water",
    "abilities": [
        "torrent",
        "h:shellarmor"
    ],
    "baseStats": {
        "hp": 75,
        "attack": 75,
        "defence": 60,
        "special_attack": 83,
        "special_defence": 60,
        "speed": 60
    },
    "catchRate": 45,
    "maleRatio": 0.875,
    "shoulderMountable": false,
    "baseExperienceYield": 145,
    "baseFriendship": 70,
    "evYield": {
        "special_attack": 2
    },
    "experienceGroup": "mediumslow",
    "eggCycles": 20,
    "eggGroups": [
        "field"
    ],
    "moves": [
        "1:tackle",
        "1:tailwhip",
        "1:watergun",
        "1:watersport",
        "5:tailwhip",
        "7:watergun",
        "11:watersport",
        "13:focusenergy",
        "18:razorshell",
        "21:furycutter",
        "26:waterpulse",
        "29:revenge",
        "34:aquajet",
        "37:encore",
        "42:aquatail",
        "45:retaliate",
        "50:swordsdance",
        "53:hydropump",
        "tm:aerialace",
        "tm:attract",
        "tm:blizzard",
        "tm:confide",
        "tm:cut",
        "tm:dig",
        "tm:dive",
        "tm:doubleteam",
        "tm:facade",
        "tm:falseswipe",
        "tm:fling",
        "tm:frustration",
        "tm:grassknot",
        "tm:hail",
        "tm:hiddenpower",
        "tm:icebeam",
        "tm:protect",
        "tm:raindance",
        "tm:rest",
        "tm:return",
        "tm:rocksmash",
        "tm:round",
        "tm:scald",
        "tm:secretpower",
        "tm:sleeptalk",
        "tm:substitute",
        "tm:surf",
        "tm:swagger",
        "tm:swordsdance",
        "tm:taunt",
        "tm:toxic",
        "tm:waterfall",
        "tm:workup",
        "tm:xscissor",
        "tutor:aquatail",
        "tutor:covet",
        "tutor:helpinghand",
        "tutor:icywind",
        "tutor:irontail",
        "tutor:snore",
        "tutor:waterpledge",
        "tutor:waterpulse"
    ],
    "labels": [
        "gen5"
    ],
    "pokedex": [
        "pokemoncobbled.species.dewott.desc1",
        "pokemoncobbled.species.dewott.desc2"
    ],
    "height": 8,
    "weight": 245,
    "baseScale": 1.0,
    "hitbox": {
        "width": 1.0,
        "height": 1.0,
        "fixed": false
    },
    "preEvolution": "oshawott",
    "evolutions": [
        {
            "id": "dewott_samurott",
            "variant": "level_up",
            "result": "samurott",
            "consumeHeldItem": false,
            "learnableMoves": [],
            "requirements": [
                {
                    "variant": "level",
                    "minLevel": 36
                }
            ]
        }
    ],
    "forms": []
}