{
    "name": "gigalith",
    "nationalPokedexNumber": 526,
    "primaryType": "rock",
    "abilities": [
        "sturdy",
        "sandstream",
        "h:sandforce"
    ],
    "baseStats": {
        "hp": 85,
        "attack": 135,
        "defence": 130,
        "special_attack": 60,
        "special_defence": 80,
        "speed": 25
    },
    "catchRate": 45,
    "maleRatio": 0.5,
    "shoulderMountable": false,
    "baseExperienceYield": 258,
    "baseFriendship": 50,
    "evYield": {
        "attack": 3
    },
    "experienceGroup": "mediumslow",
    "eggCycles": 15,
    "eggGroups": [
        "mineral"
    ],
    "moves": [
        "1:sandattack",
        "1:tackle",
        "1:harden",
        "1:powergem",
        "1:stealthrock",
        "12:mudslap",
        "16:smackdown",
        "20:irondefense",
        "24:headbutt",
        "30:rockslide",
        "36:rockblast",
        "42:sandstorm",
        "48:stoneedge",
        "54:explosion",
        "tm:attract",
        "tm:bodypress",
        "tm:bulldoze",
        "tm:confide",
        "tm:doubleteam",
        "tm:earthpower",
        "tm:earthquake",
        "tm:endure",
        "tm:facade",
        "tm:flashcannon",
        "tm:frustration",
        "tm:gigaimpact",
        "tm:heavyslam",
        "tm:hiddenpower",
        "tm:hyperbeam",
        "tm:irondefense",
        "tm:ironhead",
        "tm:naturepower",
        "tm:powergem",
        "tm:protect",
        "tm:rest",
        "tm:return",
        "tm:rockblast",
        "tm:rockpolish",
        "tm:rockslide",
        "tm:rocksmash",
        "tm:rocktomb",
        "tm:round",
        "tm:sandstorm",
        "tm:sandtomb",
        "tm:secretpower",
        "tm:selfdestruct",
        "tm:sleeptalk",
        "tm:snore",
        "tm:solarbeam",
        "tm:stealthrock",
        "tm:stompingtantrum",
        "tm:stoneedge",
        "tm:strength",
        "tm:substitute",
        "tm:superpower",
        "tm:swagger",
        "tm:throatchop",
        "tm:toxic",
        "tm:weatherball",
        "tutor:block",
        "tutor:gravity",
        "tutor:laserfocus",
        "tutor:meteorbeam"
    ],
    "labels": [
        "gen5"
    ],
    "pokedex": [
        "pokemoncobbled.species.gigalith.desc1",
        "pokemoncobbled.species.gigalith.desc2"
    ],
    "height": 17,
    "weight": 2600,
    "baseScale": 1.0,
    "hitbox": {
        "width": 1.0,
        "height": 1.0,
        "fixed": false
    },
    "preEvolution": "boldore",
    "evolutions": [],
    "forms": []
}