{
    "name": "gurdurr",
    "nationalPokedexNumber": 533,
    "primaryType": "fighting",
    "abilities": [
        "guts",
        "sheerforce",
        "h:ironfist"
    ],
    "baseStats": {
        "hp": 85,
        "attack": 105,
        "defence": 85,
        "special_attack": 40,
        "special_defence": 50,
        "speed": 40
    },
    "catchRate": 90,
    "maleRatio": 0.75,
    "shoulderMountable": false,
    "baseExperienceYield": 142,
    "baseFriendship": 50,
    "evYield": {
        "attack": 2
    },
    "experienceGroup": "mediumslow",
    "eggCycles": 20,
    "eggGroups": [
        "human_like"
    ],
    "moves": [
        "1:pound",
        "1:leer",
        "1:lowkick",
        "1:rockthrow",
        "1:bide",
        "8:bide",
        "12:focusenergy",
        "16:bulkup",
        "20:rockslide",
        "20:wakeupslap",
        "24:slam",
        "24:chipaway",
        "30:scaryface",
        "36:dynamicpunch",
        "42:hammerarm",
        "48:stoneedge",
        "54:superpower",
        "60:focuspunch",
        "tm:attract",
        "tm:brickbreak",
        "tm:brutalswing",
        "tm:bulkup",
        "tm:closecombat",
        "tm:confide",
        "tm:dig",
        "tm:doubleteam",
        "tm:drainpunch",
        "tm:endure",
        "tm:facade",
        "tm:firepunch",
        "tm:fling",
        "tm:focusblast",
        "tm:focusenergy",
        "tm:frustration",
        "tm:grassknot",
        "tm:helpinghand",
        "tm:hiddenpower",
        "tm:highhorsepower",
        "tm:icepunch",
        "tm:lowkick",
        "tm:lowsweep",
        "tm:megakick",
        "tm:megapunch",
        "tm:payback",
        "tm:poisonjab",
        "tm:poweruppunch",
        "tm:protect",
        "tm:raindance",
        "tm:rest",
        "tm:retaliate",
        "tm:return",
        "tm:revenge",
        "tm:reversal",
        "tm:rockslide",
        "tm:rocksmash",
        "tm:rocktomb",
        "tm:round",
        "tm:scaryface",
        "tm:secretpower",
        "tm:sleeptalk",
        "tm:smackdown",
        "tm:snore",
        "tm:stoneedge",
        "tm:strength",
        "tm:substitute",
        "tm:sunnyday",
        "tm:superpower",
        "tm:swagger",
        "tm:taunt",
        "tm:thunderpunch",
        "tm:toxic",
        "tm:workup",
        "tutor:block",
        "tutor:coaching",
        "tutor:knockoff"
    ],
    "labels": [
        "gen5"
    ],
    "pokedex": [
        "pokemoncobbled.species.gurdurr.desc1",
        "pokemoncobbled.species.gurdurr.desc2"
    ],
    "height": 12,
    "weight": 400,
    "baseScale": 1.0,
    "hitbox": {
        "width": 1.0,
        "height": 1.0,
        "fixed": false
    },
    "preEvolution": "timburr",
    "evolutions": [
        {
            "id": "gurdurr_conkeldurr",
            "variant": "trade",
            "result": "conkeldurr",
            "consumeHeldItem": false,
            "learnableMoves": [],
            "requirements": [],
            "requiredContext": null
        }
    ],
    "forms": []
}