{
    "name": "swadloon",
    "nationalPokedexNumber": 541,
    "primaryType": "bug",
    "secondaryType": "grass",
    "abilities": [
        "leafguard",
        "chlorophyll",
        "h:overcoat"
    ],
    "baseStats": {
        "hp": 55,
        "attack": 63,
        "defence": 90,
        "special_attack": 50,
        "special_defence": 80,
        "speed": 42
    },
    "catchRate": 120,
    "maleRatio": 0.5,
    "shoulderMountable": false,
    "baseExperienceYield": 133,
    "baseFriendship": 70,
    "evYield": {
        "defence": 2
    },
    "experienceGroup": "mediumslow",
    "eggCycles": 15,
    "eggGroups": [
        "bug"
    ],
    "moves": [
        "0:protect",
        "1:tackle",
        "1:razorleaf",
        "1:stringshot",
        "1:protect",
        "1:grasswhistle",
        "1:bugbite",
        "tm:attract",
        "tm:calmmind",
        "tm:confide",
        "tm:cut",
        "tm:doubleteam",
        "tm:dreameater",
        "tm:energyball",
        "tm:facade",
        "tm:flash",
        "tm:frustration",
        "tm:grassknot",
        "tm:hiddenpower",
        "tm:lightscreen",
        "tm:naturepower",
        "tm:payback",
        "tm:protect",
        "tm:rest",
        "tm:return",
        "tm:round",
        "tm:safeguard",
        "tm:secretpower",
        "tm:sleeptalk",
        "tm:solarbeam",
        "tm:strugglebug",
        "tm:substitute",
        "tm:sunnyday",
        "tm:swagger",
        "tm:toxic",
        "tutor:bugbite",
        "tutor:electroweb",
        "tutor:gigadrain",
        "tutor:irondefense",
        "tutor:magiccoat",
        "tutor:seedbomb",
        "tutor:signalbeam",
        "tutor:snore",
        "tutor:synthesis",
        "tutor:worryseed"
    ],
    "labels": [
        "gen5"
    ],
    "pokedex": [
        "pokemoncobbled.species.swadloon.desc1",
        "pokemoncobbled.species.swadloon.desc2"
    ],
    "height": 5,
    "weight": 73,
    "baseScale": 1.0,
    "hitbox": {
        "width": 1.0,
        "height": 1.0,
        "fixed": false
    },
    "preEvolution": "sewaddle",
    "evolutions": [
        {
            "id": "swadloon_leavanny",
            "variant": "level_up",
            "result": "leavanny",
            "consumeHeldItem": false,
            "learnableMoves": [],
            "requirements": [
                {
                    "variant": "friendship",
                    "amount": 220
                }
            ]
        }
    ],
    "forms": []
}