{
    "name": "tynamo",
    "nationalPokedexNumber": 602,
    "primaryType": "electric",
    "abilities": [
        "levitate"
    ],
    "baseStats": {
        "hp": 35,
        "attack": 55,
        "defence": 40,
        "special_attack": 45,
        "special_defence": 40,
        "speed": 60
    },
    "catchRate": 190,
    "maleRatio": 0.5,
    "shoulderMountable": false,
    "baseExperienceYield": 55,
    "baseFriendship": 70,
    "evYield": {
        "speed": 1
    },
    "experienceGroup": "slow",
    "eggCycles": 20,
    "eggGroups": [
        "amorphous"
    ],
    "moves": [
        "1:tackle",
        "1:thunderwave",
        "1:spark",
        "1:chargebeam",
        "tm:chargebeam",
        "tm:thunderwave",
        "tutor:magnetrise"
    ],
    "labels": [
        "gen5"
    ],
    "pokedex": [
        "pokemoncobbled.species.tynamo.desc1",
        "pokemoncobbled.species.tynamo.desc2"
    ],
    "height": 2,
    "weight": 3,
    "baseScale": 1.0,
    "hitbox": {
        "width": 1.0,
        "height": 1.0,
        "fixed": false
    },
    "evolutions": [
        {
            "id": "tynamo_eelektrik",
            "variant": "level_up",
            "result": "eelektrik",
            "consumeHeldItem": false,
            "learnableMoves": [],
            "requirements": [
                {
                    "variant": "level",
                    "minLevel": 39
                }
            ]
        }
    ],
    "forms": []
}