{
    "name": "volcarona",
    "nationalPokedexNumber": 637,
    "primaryType": "bug",
    "secondaryType": "fire",
    "abilities": [
        "flamebody",
        "h:swarm"
    ],
    "baseStats": {
        "hp": 85,
        "attack": 60,
        "defence": 65,
        "special_attack": 135,
        "special_defence": 105,
        "speed": 100
    },
    "catchRate": 15,
    "maleRatio": 0.5,
    "shoulderMountable": false,
    "baseExperienceYield": 275,
    "baseFriendship": 50,
    "evYield": {
        "special_attack": 3
    },
    "experienceGroup": "slow",
    "eggCycles": 40,
    "eggGroups": [
        "bug"
    ],
    "moves": [
        "0:quiverdance",
        "1:gust",
        "1:whirlwind",
        "1:takedown",
        "1:thrash",
        "1:doubleedge",
        "1:ember",
        "1:absorb",
        "1:stringshot",
        "1:firespin",
        "1:flareblitz",
        "1:quiverdance",
        "1:flamecharge",
        "1:strugglebug",
        "1:fierydance",
        "10:absorb",
        "18:flamewheel",
        "24:bugbite",
        "30:screech",
        "36:leechlife",
        "42:bugbuzz",
        "48:heatwave",
        "50:silverwind",
        "54:amnesia",
        "62:hurricane",
        "70:fireblast",
        "78:ragepowder",
        "tm:acrobatics",
        "tm:aerialace",
        "tm:amnesia",
        "tm:attract",
        "tm:bugbuzz",
        "tm:calmmind",
        "tm:confide",
        "tm:doubleteam",
        "tm:endure",
        "tm:facade",
        "tm:fireblast",
        "tm:firespin",
        "tm:flamethrower",
        "tm:flareblitz",
        "tm:fly",
        "tm:frustration",
        "tm:gigadrain",
        "tm:gigaimpact",
        "tm:heatwave",
        "tm:hiddenpower",
        "tm:hurricane",
        "tm:hyperbeam",
        "tm:incinerate",
        "tm:leechlife",
        "tm:lightscreen",
        "tm:mysticalfire",
        "tm:overheat",
        "tm:poisonjab",
        "tm:protect",
        "tm:psychic",
        "tm:rest",
        "tm:return",
        "tm:roost",
        "tm:round",
        "tm:safeguard",
        "tm:screech",
        "tm:secretpower",
        "tm:sleeptalk",
        "tm:snore",
        "tm:solarbeam",
        "tm:substitute",
        "tm:sunnyday",
        "tm:swagger",
        "tm:toxic",
        "tm:uturn",
        "tm:wildcharge",
        "tm:willowisp",
        "tm:zenheadbutt",
        "tutor:defog",
        "tutor:dualwingbeat",
        "tutor:magnetrise",
        "tutor:signalbeam",
        "tutor:skittersmack",
        "tutor:tailwind"
    ],
    "labels": [
        "gen5"
    ],
    "pokedex": [
        "pokemoncobbled.species.volcarona.desc1",
        "pokemoncobbled.species.volcarona.desc2"
    ],
    "height": 16,
    "weight": 460,
    "baseScale": 1.0,
    "hitbox": {
        "width": 1.0,
        "height": 1.0,
        "fixed": false
    },
    "preEvolution": "larvesta",
    "evolutions": [],
    "forms": []
}