{
    "name": "delphox",
    "nationalPokedexNumber": 655,
    "primaryType": "fire",
    "secondaryType": "psychic",
    "abilities": [
        "blaze",
        "h:magician"
    ],
    "baseStats": {
        "hp": 75,
        "attack": 69,
        "defence": 72,
        "special_attack": 114,
        "special_defence": 100,
        "speed": 104
    },
    "catchRate": 45,
    "maleRatio": 0.875,
    "shoulderMountable": false,
    "baseExperienceYield": 240,
    "baseFriendship": 70,
    "evYield": {
        "special_attack": 3
    },
    "experienceGroup": "mediumslow",
    "eggCycles": 20,
    "eggGroups": [
        "field"
    ],
    "moves": [
        "0:mysticalfire",
        "1:scratch",
        "1:tailwhip",
        "1:ember",
        "1:shadowball",
        "1:futuresight",
        "1:roleplay",
        "1:howl",
        "1:switcheroo",
        "1:mysticalfire",
        "5:ember",
        "11:howl",
        "14:flamecharge",
        "18:psybeam",
        "22:firespin",
        "28:luckychant",
        "31:lightscreen",
        "38:psyshock",
        "45:flamethrower",
        "51:willowisp",
        "57:psychic",
        "62:sunnyday",
        "68:magicroom",
        "74:fireblast",
        "80:futuresight",
        "tm:attract",
        "tm:calmmind",
        "tm:confide",
        "tm:cut",
        "tm:dazzlinggleam",
        "tm:doubleteam",
        "tm:dreameater",
        "tm:echoedvoice",
        "tm:embargo",
        "tm:facade",
        "tm:fireblast",
        "tm:flamecharge",
        "tm:flamethrower",
        "tm:frustration",
        "tm:gigaimpact",
        "tm:grassknot",
        "tm:hiddenpower",
        "tm:hyperbeam",
        "tm:incinerate",
        "tm:lightscreen",
        "tm:overheat",
        "tm:poweruppunch",
        "tm:protect",
        "tm:psychic",
        "tm:psychup",
        "tm:psyshock",
        "tm:raindance",
        "tm:rest",
        "tm:return",
        "tm:round",
        "tm:safeguard",
        "tm:secretpower",
        "tm:shadowball",
        "tm:sleeptalk",
        "tm:solarbeam",
        "tm:substitute",
        "tm:sunnyday",
        "tm:swagger",
        "tm:thief",
        "tm:toxic",
        "tm:trickroom",
        "tm:willowisp",
        "tm:workup",
        "tutor:allyswitch",
        "tutor:blastburn",
        "tutor:covet",
        "tutor:firepledge",
        "tutor:firepunch",
        "tutor:foulplay",
        "tutor:heatwave",
        "tutor:irontail",
        "tutor:laserfocus",
        "tutor:lowkick",
        "tutor:magiccoat",
        "tutor:magicroom",
        "tutor:recycle",
        "tutor:roleplay",
        "tutor:shockwave",
        "tutor:signalbeam",
        "tutor:skillswap",
        "tutor:snatch",
        "tutor:snore",
        "tutor:telekinesis",
        "tutor:thunderpunch",
        "tutor:trick",
        "tutor:wonderroom",
        "tutor:zenheadbutt"
    ],
    "labels": [
        "gen6"
    ],
    "pokedex": [
        "pokemoncobbled.species.delphox.desc1",
        "pokemoncobbled.species.delphox.desc2"
    ],
    "height": 15,
    "weight": 390,
    "baseScale": 1.0,
    "hitbox": {
        "width": 1.0,
        "height": 1.0,
        "fixed": false
    },
    "preEvolution": "braixen",
    "evolutions": [],
    "forms": []
}