{
    "name": "diggersby",
    "nationalPokedexNumber": 660,
    "primaryType": "normal",
    "secondaryType": "ground",
    "abilities": [
        "pickup",
        "cheekpouch",
        "h:hugepower"
    ],
    "baseStats": {
        "hp": 85,
        "attack": 56,
        "defence": 77,
        "special_attack": 50,
        "special_defence": 77,
        "speed": 78
    },
    "catchRate": 127,
    "maleRatio": 0.5,
    "shoulderMountable": false,
    "baseExperienceYield": 148,
    "baseFriendship": 50,
    "evYield": {
        "hp": 2
    },
    "experienceGroup": "mediumfast",
    "eggCycles": 15,
    "eggGroups": [
        "field"
    ],
    "moves": [
        "1:tackle",
        "1:leer",
        "1:mudslap",
        "1:rototiller",
        "1:laserfocus",
        "9:quickattack",
        "12:mudshot",
        "13:doubleslap",
        "15:flail",
        "18:doublekick",
        "23:bulldoze",
        "27:odorsleuth",
        "28:dig",
        "33:bounce",
        "38:takedown",
        "43:swordsdance",
        "48:earthquake",
        "53:superfang",
        "58:hammerarm",
        "tm:agility",
        "tm:attract",
        "tm:bodyslam",
        "tm:bounce",
        "tm:brickbreak",
        "tm:brutalswing",
        "tm:bulkup",
        "tm:bulldoze",
        "tm:confide",
        "tm:cut",
        "tm:dig",
        "tm:doubleteam",
        "tm:earthpower",
        "tm:earthquake",
        "tm:endure",
        "tm:facade",
        "tm:firepunch",
        "tm:fling",
        "tm:foulplay",
        "tm:frustration",
        "tm:gigaimpact",
        "tm:grassknot",
        "tm:gunkshot",
        "tm:hiddenpower",
        "tm:highhorsepower",
        "tm:hyperbeam",
        "tm:icepunch",
        "tm:ironhead",
        "tm:irontail",
        "tm:lowkick",
        "tm:megakick",
        "tm:megapunch",
        "tm:mudshot",
        "tm:naturepower",
        "tm:payback",
        "tm:poweruppunch",
        "tm:protect",
        "tm:rest",
        "tm:return",
        "tm:rockslide",
        "tm:rocksmash",
        "tm:rocktomb",
        "tm:round",
        "tm:sandstorm",
        "tm:sandtomb",
        "tm:secretpower",
        "tm:sleeptalk",
        "tm:sludgebomb",
        "tm:smackdown",
        "tm:snore",
        "tm:spikes",
        "tm:stompingtantrum",
        "tm:stoneedge",
        "tm:strength",
        "tm:substitute",
        "tm:superpower",
        "tm:surf",
        "tm:swagger",
        "tm:swordsdance",
        "tm:thief",
        "tm:thunderpunch",
        "tm:torment",
        "tm:toxic",
        "tm:uproar",
        "tm:uturn",
        "tm:wildcharge",
        "tm:workup",
        "tutor:endeavor",
        "tutor:focuspunch",
        "tutor:gastroacid",
        "tutor:knockoff",
        "tutor:lastresort",
        "tutor:recycle",
        "tutor:scorchingsands",
        "tutor:snatch"
    ],
    "labels": [
        "gen6"
    ],
    "pokedex": [
        "pokemoncobbled.species.diggersby.desc1",
        "pokemoncobbled.species.diggersby.desc2"
    ],
    "height": 10,
    "weight": 424,
    "baseScale": 1.0,
    "hitbox": {
        "width": 1.0,
        "height": 1.0,
        "fixed": false
    },
    "preEvolution": "bunnelby",
    "evolutions": [],
    "forms": []
}