{
    "name": "honedge",
    "nationalPokedexNumber": 679,
    "primaryType": "steel",
    "secondaryType": "ghost",
    "abilities": [
        "noguard"
    ],
    "baseStats": {
        "hp": 45,
        "attack": 80,
        "defence": 100,
        "special_attack": 35,
        "special_defence": 37,
        "speed": 28
    },
    "catchRate": 180,
    "maleRatio": 0.5,
    "shoulderMountable": false,
    "baseExperienceYield": 65,
    "baseFriendship": 50,
    "evYield": {
        "defence": 1
    },
    "experienceGroup": "mediumfast",
    "eggCycles": 20,
    "eggGroups": [
        "mineral"
    ],
    "moves": [
        "1:tackle",
        "1:furycutter",
        "4:shadowsneak",
        "8:autotomize",
        "12:aerialace",
        "13:pursuit",
        "16:metalsound",
        "20:slash",
        "24:nightslash",
        "28:retaliate",
        "32:irondefense",
        "36:ironhead",
        "40:powertrick",
        "44:swordsdance",
        "48:sacredsword",
        "egg:block",
        "egg:destinybond",
        "egg:wideguard",
        "tm:attract",
        "tm:brickbreak",
        "tm:brutalswing",
        "tm:closecombat",
        "tm:confide",
        "tm:cut",
        "tm:doubleteam",
        "tm:endure",
        "tm:facade",
        "tm:falseswipe",
        "tm:flashcannon",
        "tm:frustration",
        "tm:gyroball",
        "tm:hiddenpower",
        "tm:irondefense",
        "tm:ironhead",
        "tm:protect",
        "tm:psychocut",
        "tm:raindance",
        "tm:reflect",
        "tm:rest",
        "tm:retaliate",
        "tm:return",
        "tm:reversal",
        "tm:rockslide",
        "tm:rocksmash",
        "tm:round",
        "tm:screech",
        "tm:secretpower",
        "tm:shadowclaw",
        "tm:sleeptalk",
        "tm:snore",
        "tm:solarblade",
        "tm:substitute",
        "tm:swagger",
        "tm:swordsdance",
        "tm:toxic",
        "tutor:afteryou",
        "tutor:laserfocus",
        "tutor:magnetrise",
        "tutor:shockwave",
        "tutor:spite",
        "tutor:steelbeam"
    ],
    "labels": [
        "gen6"
    ],
    "pokedex": [
        "pokemoncobbled.species.honedge.desc1",
        "pokemoncobbled.species.honedge.desc2"
    ],
    "height": 8,
    "weight": 20,
    "baseScale": 1.0,
    "hitbox": {
        "width": 1.0,
        "height": 1.0,
        "fixed": false
    },
    "evolutions": [
        {
            "id": "honedge_doublade",
            "variant": "level_up",
            "result": "doublade",
            "consumeHeldItem": false,
            "learnableMoves": [],
            "requirements": [
                {
                    "variant": "level",
                    "minLevel": 35
                }
            ]
        }
    ],
    "forms": []
}