{
    "name": "meowstic",
    "nationalPokedexNumber": 678,
    "primaryType": "psychic",
    "abilities": [
        "keeneye",
        "infiltrator",
        "h:prankster"
    ],
    "baseStats": {
        "hp": 74,
        "attack": 48,
        "defence": 76,
        "special_attack": 83,
        "special_defence": 81,
        "speed": 104
    },
    "catchRate": 75,
    "maleRatio": 1.0,
    "shoulderMountable": false,
    "baseExperienceYield": 163,
    "baseFriendship": 50,
    "evYield": {
        "speed": 2
    },
    "experienceGroup": "mediumfast",
    "eggCycles": 20,
    "eggGroups": [
        "field"
    ],
    "moves": [
        "1:scratch",
        "1:leer",
        "1:meanlook",
        "1:fakeout",
        "1:disarmingvoice",
        "9:confusion",
        "12:helpinghand",
        "15:charm",
        "18:covet",
        "21:psybeam",
        "24:suckerpunch",
        "29:roleplay",
        "31:miracleeye",
        "34:lightscreen",
        "34:reflect",
        "39:psyshock",
        "44:imprison",
        "49:quickguard",
        "54:psychic",
        "59:mistyterrain",
        "tm:allyswitch",
        "tm:attract",
        "tm:calmmind",
        "tm:chargebeam",
        "tm:charm",
        "tm:confide",
        "tm:cut",
        "tm:darkpulse",
        "tm:dig",
        "tm:doubleteam",
        "tm:dreameater",
        "tm:echoedvoice",
        "tm:endure",
        "tm:energyball",
        "tm:facade",
        "tm:faketears",
        "tm:flash",
        "tm:frustration",
        "tm:gigaimpact",
        "tm:helpinghand",
        "tm:hiddenpower",
        "tm:hyperbeam",
        "tm:imprison",
        "tm:irontail",
        "tm:lightscreen",
        "tm:magicroom",
        "tm:mistyterrain",
        "tm:nastyplot",
        "tm:payback",
        "tm:payday",
        "tm:playrough",
        "tm:poweruppunch",
        "tm:protect",
        "tm:psychic",
        "tm:psychicterrain",
        "tm:psychup",
        "tm:psyshock",
        "tm:raindance",
        "tm:reflect",
        "tm:rest",
        "tm:return",
        "tm:round",
        "tm:safeguard",
        "tm:secretpower",
        "tm:shadowball",
        "tm:skillswap",
        "tm:sleeptalk",
        "tm:snore",
        "tm:substitute",
        "tm:sunnyday",
        "tm:swagger",
        "tm:swift",
        "tm:tailslap",
        "tm:thunderbolt",
        "tm:thunderwave",
        "tm:torment",
        "tm:toxic",
        "tm:trick",
        "tm:trickroom",
        "tm:wonderroom",
        "tm:workup",
        "tm:zenheadbutt",
        "tutor:expandingforce",
        "tutor:gravity",
        "tutor:healbell",
        "tutor:magiccoat",
        "tutor:recycle",
        "tutor:shockwave",
        "tutor:signalbeam",
        "tutor:snatch",
        "tutor:telekinesis"
    ],
    "labels": [
        "gen6"
    ],
    "pokedex": [
        "pokemoncobbled.species.meowstic.desc1",
        "pokemoncobbled.species.meowstic.desc2"
    ],
    "height": 6,
    "weight": 85,
    "baseScale": 1.0,
    "hitbox": {
        "width": 1.0,
        "height": 1.0,
        "fixed": false
    },
    "preEvolution": "espurr",
    "evolutions": [],
    "forms": [
        {
            "name": "female",
            "abilities": [
                "keeneye",
                "infiltrator",
                "h:competitive"
            ],
            "moves": [
                "1:scratch",
                "1:leer",
                "1:fakeout",
                "1:magicalleaf",
                "1:mefirst",
                "1:disarmingvoice",
                "9:confusion",
                "12:storedpower",
                "15:chargebeam",
                "18:covet",
                "21:psybeam",
                "24:suckerpunch",
                "29:roleplay",
                "34:lightscreen",
                "34:reflect",
                "39:psyshock",
                "44:extrasensory",
                "45:signalbeam",
                "49:shadowball",
                "54:psychic",
                "59:futuresight",
                "tm:allyswitch",
                "tm:attract",
                "tm:calmmind",
                "tm:charm",
                "tm:confide",
                "tm:cut",
                "tm:darkpulse",
                "tm:dig",
                "tm:doubleteam",
                "tm:dreameater",
                "tm:echoedvoice",
                "tm:endure",
                "tm:energyball",
                "tm:facade",
                "tm:faketears",
                "tm:flash",
                "tm:frustration",
                "tm:futuresight",
                "tm:gigaimpact",
                "tm:helpinghand",
                "tm:hiddenpower",
                "tm:hyperbeam",
                "tm:irontail",
                "tm:lightscreen",
                "tm:magicalleaf",
                "tm:magicroom",
                "tm:nastyplot",
                "tm:payback",
                "tm:payday",
                "tm:playrough",
                "tm:poweruppunch",
                "tm:protect",
                "tm:psychic",
                "tm:psychicterrain",
                "tm:psychup",
                "tm:psyshock",
                "tm:raindance",
                "tm:reflect",
                "tm:rest",
                "tm:return",
                "tm:round",
                "tm:safeguard",
                "tm:secretpower",
                "tm:shadowball",
                "tm:skillswap",
                "tm:sleeptalk",
                "tm:snore",
                "tm:storedpower",
                "tm:substitute",
                "tm:sunnyday",
                "tm:swagger",
                "tm:swift",
                "tm:tailslap",
                "tm:thunderbolt",
                "tm:thunderwave",
                "tm:torment",
                "tm:toxic",
                "tm:trick",
                "tm:trickroom",
                "tm:wonderroom",
                "tm:workup",
                "tm:zenheadbutt",
                "tutor:expandingforce",
                "tutor:gravity",
                "tutor:healbell",
                "tutor:magiccoat",
                "tutor:recycle",
                "tutor:shockwave",
                "tutor:signalbeam",
                "tutor:snatch",
                "tutor:telekinesis"
            ],
            "pokedex": [
                "pokemoncobbled.form.meowstic-female.desc1",
                "pokemoncobbled.form.meowstic-female.desc2"
            ]
        }
    ]
}