{
    "name": "pancham",
    "nationalPokedexNumber": 674,
    "primaryType": "fighting",
    "abilities": [
        "ironfist",
        "moldbreaker",
        "h:scrappy"
    ],
    "baseStats": {
        "hp": 67,
        "attack": 82,
        "defence": 62,
        "special_attack": 46,
        "special_defence": 48,
        "speed": 43
    },
    "catchRate": 220,
    "maleRatio": 0.5,
    "shoulderMountable": false,
    "baseExperienceYield": 70,
    "baseFriendship": 50,
    "evYield": {
        "attack": 1
    },
    "experienceGroup": "mediumfast",
    "eggCycles": 25,
    "eggGroups": [
        "field",
        "human_like"
    ],
    "moves": [
        "1:tackle",
        "1:leer",
        "4:armthrust",
        "8:taunt",
        "12:karatechop",
        "12:circlethrow",
        "15:cometpunch",
        "16:lowsweep",
        "20:workup",
        "24:slash",
        "28:vitalthrow",
        "33:crunch",
        "36:bodyslam",
        "40:partingshot",
        "44:entrainment",
        "48:skyuppercut",
        "egg:mefirst",
        "egg:powertrip",
        "egg:quash",
        "egg:quickguard",
        "egg:seismictoss",
        "egg:stormthrow",
        "tm:aerialace",
        "tm:attract",
        "tm:bodyslam",
        "tm:brickbreak",
        "tm:bulkup",
        "tm:bulldoze",
        "tm:confide",
        "tm:crunch",
        "tm:cut",
        "tm:darkpulse",
        "tm:dig",
        "tm:doubleteam",
        "tm:drainpunch",
        "tm:echoedvoice",
        "tm:endure",
        "tm:facade",
        "tm:falseswipe",
        "tm:firepunch",
        "tm:fling",
        "tm:foulplay",
        "tm:frustration",
        "tm:grassknot",
        "tm:gunkshot",
        "tm:helpinghand",
        "tm:hiddenpower",
        "tm:hypervoice",
        "tm:icepunch",
        "tm:ironhead",
        "tm:lowkick",
        "tm:lowsweep",
        "tm:megakick",
        "tm:megapunch",
        "tm:payback",
        "tm:poweruppunch",
        "tm:protect",
        "tm:raindance",
        "tm:rest",
        "tm:retaliate",
        "tm:return",
        "tm:roar",
        "tm:rockslide",
        "tm:rocksmash",
        "tm:rocktomb",
        "tm:round",
        "tm:secretpower",
        "tm:shadowclaw",
        "tm:sleeptalk",
        "tm:sludgebomb",
        "tm:snore",
        "tm:stoneedge",
        "tm:strength",
        "tm:substitute",
        "tm:sunnyday",
        "tm:superpower",
        "tm:surf",
        "tm:swagger",
        "tm:swordsdance",
        "tm:taunt",
        "tm:thunderpunch",
        "tm:torment",
        "tm:toxic",
        "tm:uproar",
        "tm:workup",
        "tm:zenheadbutt",
        "tutor:block",
        "tutor:coaching",
        "tutor:covet",
        "tutor:dualchop",
        "tutor:endeavor",
        "tutor:focuspunch",
        "tutor:knockoff",
        "tutor:lashout",
        "tutor:snatch",
        "tutor:spite"
    ],
    "labels": [
        "gen6"
    ],
    "pokedex": [
        "pokemoncobbled.species.pancham.desc1",
        "pokemoncobbled.species.pancham.desc2"
    ],
    "height": 6,
    "weight": 80,
    "baseScale": 1.0,
    "hitbox": {
        "width": 1.0,
        "height": 1.0,
        "fixed": false
    },
    "evolutions": [
        {
            "id": "pancham_pangoro",
            "variant": "level_up",
            "result": "pangoro",
            "consumeHeldItem": false,
            "learnableMoves": [],
            "requirements": [
                {
                    "variant": "party_member",
                    "contains": true,
                    "target": "type=dark"
                },
                {
                    "variant": "level",
                    "minLevel": 32
                }
            ]
        }
    ],
    "forms": []
}