{
    "name": "quilladin",
    "nationalPokedexNumber": 651,
    "primaryType": "grass",
    "abilities": [
        "overgrow",
        "h:bulletproof"
    ],
    "baseStats": {
        "hp": 61,
        "attack": 78,
        "defence": 95,
        "special_attack": 56,
        "special_defence": 58,
        "speed": 57
    },
    "catchRate": 45,
    "maleRatio": 0.875,
    "shoulderMountable": false,
    "baseExperienceYield": 142,
    "baseFriendship": 70,
    "evYield": {
        "defence": 2
    },
    "experienceGroup": "mediumslow",
    "eggCycles": 20,
    "eggGroups": [
        "field"
    ],
    "moves": [
        "0:needlearm",
        "1:vinewhip",
        "1:tackle",
        "1:growl",
        "1:needlearm",
        "5:vinewhip",
        "8:rollout",
        "11:bite",
        "15:leechseed",
        "19:pinmissile",
        "29:takedown",
        "35:seedbomb",
        "39:mudshot",
        "44:bulkup",
        "48:bodyslam",
        "52:painsplit",
        "56:woodhammer",
        "tm:aerialace",
        "tm:attract",
        "tm:brickbreak",
        "tm:bulkup",
        "tm:bulldoze",
        "tm:confide",
        "tm:cut",
        "tm:dig",
        "tm:doubleteam",
        "tm:energyball",
        "tm:facade",
        "tm:flash",
        "tm:fling",
        "tm:frustration",
        "tm:grassknot",
        "tm:gyroball",
        "tm:hiddenpower",
        "tm:honeclaws",
        "tm:lowsweep",
        "tm:naturepower",
        "tm:payback",
        "tm:poisonjab",
        "tm:poweruppunch",
        "tm:protect",
        "tm:reflect",
        "tm:rest",
        "tm:retaliate",
        "tm:return",
        "tm:roar",
        "tm:rockslide",
        "tm:rocksmash",
        "tm:rocktomb",
        "tm:round",
        "tm:secretpower",
        "tm:shadowclaw",
        "tm:sleeptalk",
        "tm:sludgebomb",
        "tm:smackdown",
        "tm:solarbeam",
        "tm:stoneedge",
        "tm:strength",
        "tm:substitute",
        "tm:sunnyday",
        "tm:swagger",
        "tm:swordsdance",
        "tm:taunt",
        "tm:toxic",
        "tm:workup",
        "tutor:drainpunch",
        "tutor:dualchop",
        "tutor:endeavor",
        "tutor:focuspunch",
        "tutor:gigadrain",
        "tutor:grasspledge",
        "tutor:helpinghand",
        "tutor:irondefense",
        "tutor:ironhead",
        "tutor:irontail",
        "tutor:lowkick",
        "tutor:painsplit",
        "tutor:seedbomb",
        "tutor:snore",
        "tutor:stompingtantrum",
        "tutor:superfang",
        "tutor:superpower",
        "tutor:synthesis",
        "tutor:thunderpunch",
        "tutor:worryseed",
        "tutor:zenheadbutt"
    ],
    "labels": [
        "gen6"
    ],
    "pokedex": [
        "pokemoncobbled.species.quilladin.desc1",
        "pokemoncobbled.species.quilladin.desc2"
    ],
    "height": 7,
    "weight": 290,
    "baseScale": 1.0,
    "hitbox": {
        "width": 1.0,
        "height": 1.0,
        "fixed": false
    },
    "preEvolution": "chespin",
    "evolutions": [
        {
            "id": "quilladin_chesnaught",
            "variant": "level_up",
            "result": "chesnaught",
            "consumeHeldItem": false,
            "learnableMoves": [],
            "requirements": [
                {
                    "variant": "level",
                    "minLevel": 36
                }
            ]
        }
    ],
    "forms": []
}